#Table of Contents

#Voices of Byzantium
#National Anthems
#General Ambient
#General War
#General
#EU - Europe
#ME - Middle East, India, and North Africa
#EA - East Asia
#NA - Native American

############VOICES OF BYZANTIUM##################
song = {
	name = "MercyofPeace"
	
	chance = {
		modifier = {
			factor = 1.25
			OR = {
				religion = orthodox
				religion = coptic
				religion = gnostic
				religion = chaldean
			}
		}
		modifier = {
			factor = 1.25
			tag = BYZ
		}
		modifier = {
			factor = 0
			NOT = {
				OR = {
					religion = orthodox
					religion = coptic
					religion = gnostic
					religion = chaldean
				}
			}
		}
	}
}



song = {
	name = "ItisTrulyMeet"
	
	chance = {
		modifier = {
			factor = 1.25
			OR = {
				religion = orthodox
				religion = coptic
				religion = gnostic
				religion = chaldean
			}
		}
		modifier = {
			factor = 1.25
			tag = BYZ
		}
		modifier = {
			factor = 0
			NOT = {
				OR = {
					religion = orthodox
					religion = coptic
					religion = gnostic
					religion = chaldean
				}
			}
		}
	}
}



song = {
	name = "HolyGod"
	
	chance = {
		modifier = {
			factor = 1.25
			OR = {
				religion = orthodox
				religion = coptic
				religion = gnostic
				religion = chaldean
			}
		}
		modifier = {
			factor = 1.25
			tag = BYZ
		}
		modifier = {
			factor = 0
			NOT = {
				OR = {
					religion = orthodox
					religion = coptic
					religion = gnostic
					religion = chaldean
				}
			}
		}
	}
}



song = {
	name = "GreatLitany"
	
	chance = {
		modifier = {
			factor = 1.25
			OR = {
				religion = orthodox
				religion = coptic
				religion = gnostic
				religion = chaldean
			}
		}
		modifier = {
			factor = 1.25
			tag = BYZ
		}
		modifier = {
			factor = 0
			NOT = {
				OR = {
					religion = orthodox
					religion = coptic
					religion = gnostic
					religion = chaldean
				}
			}
		}
	}
}



song = {
	name = "CherubicHymn"
	
	chance = {
		modifier = {
			factor = 1.25
			OR = {
				religion = orthodox
				religion = coptic
				religion = gnostic
				religion = chaldean
			}
		}
		modifier = {
			factor = 1.25
			tag = BYZ
		}
		modifier = {
			factor = 0
			NOT = {
				OR = {
					religion = orthodox
					religion = coptic
					religion = gnostic
					religion = chaldean
				}
			}
		}
	}
}



song = {
	name = "AgniPartheneHymn"
	
	chance = {
		modifier = {
			factor = 1.25
			OR = {
				religion = orthodox
				religion = coptic
				religion = gnostic
				religion = chaldean
			}
		}
		modifier = {
			factor = 1.25
			tag = BYZ
		}
		modifier = {
			factor = 0
			NOT = {
				OR = {
					religion = orthodox
					religion = coptic
					religion = gnostic
					religion = chaldean
				}
			}
		}
	}
}


##################NATIONAL ANTHEMS##############
###COMING SOON###

##############AMBIENT and Peace###################
song = {
	name = "Greensleeves"
	
	chance = {
		modifier = {
			factor = 1
			is_at_war = no
		}
		modifier = {
			factor = 0
			is_at_war = yes
		}
	}
}



song = {
	name = "MistressWintersJump"
	
	chance = {
		modifier = {
			factor = 1
			is_at_war = no
		}
		modifier = {
			factor = 0
			is_at_war = yes
		}
	}
}



song = {
	name = "ItsOkaytobeAfraid"
	
	chance = {
		modifier = {
			factor = 1
			is_at_war = no
		}
		modifier = {
			factor = 0
			is_at_war = yes
		}
	}
}


song = {
	name = "HymnForConstantinople"
	
	chance = {
		modifier = {
			factor = 1
			is_at_war = no
		}
		modifier = {
			factor = 0
			is_at_war = yes
		}
	}
}



song = {
	name = "PeaceofAugsburg"
	
	chance = {
		modifier = {
			factor = 1.25
			is_at_war = no
		}
		modifier = {
			factor = 0
			is_at_war = yes
		}
	}
}


song = {
	name = "TheKingisDead"
	
	chance = {
		modifier = {
			factor = 1.25
			is_at_war = no
		}
		modifier = {
			factor = 0
			is_at_war = yes
		}
	}
}



song = {
	name = "TheHuntingTrip"
	
	chance = {
		modifier = {
			factor = 1
			is_at_war = no
		}
		modifier = {
			factor = 0
			is_at_war = yes
		}
	}
}



song = {
	name = "IntheShadowofTime"
	
	chance = {
		modifier = {
			factor = 1
			is_at_war = no
		}
		modifier = {
			factor = 0
			is_at_war = yes
		}
	}
}



song = {
	name = "NewLandsNewBeginnings"
	
	chance = {
		modifier = {
			factor = 1
			is_at_war = no
		}
		modifier = {
			factor = 0
			is_at_war = yes
		}
	}
}



song = {
	name = "BlessedistheMan"
	
	chance = {
		modifier = {
			factor = 1
			is_at_war = no
		}
		modifier = {
			factor = 0
			is_at_war = yes
		}
	}
}




#############WAR########################
song = {
	name = "ChargeoftheHussars"
	
	chance = {
		modifier = {
			factor = 1.25
			is_at_war = yes
		}
		modifier = {
			factor = 0
			is_at_war = no
		}
	}
}




song = {
	name = "SiegeofVienna"
	
	chance = {
		modifier = {
			factor = 1.25
			is_at_war = yes
		}
		modifier = {
			factor = 0
			is_at_war = no
		}
	}
}


song = {
	name = "PeasantsRebellion"
	
	chance = {
		modifier = {
			factor = 1.25
			is_at_war = yes
		}
		modifier = {
			factor = 0
			is_at_war = no
		}
	}
}


song = {
	name = "Tamerlane"
	
	chance = {
		modifier = {
			factor = 1.25
			is_at_war = yes
		}
		modifier = {
			factor = 0
			is_at_war = no
		}
	}
}


song = {
	name = "LastMarchoftheCrusaders"
	
	chance = {
		modifier = {
			factor = 1.25
			is_at_war = yes
		}
		modifier = {
			factor = 0
			is_at_war = no
		}
	}
}


song = {
	name = "WrathoftheNorthmen"
	
	chance = {
		modifier = {
			factor = 1.25
			is_at_war = yes
		}
		modifier = {
			factor = 0
			is_at_war = no
		}
	}
}


song = {
	name = "Danger"
	
	chance = {
		modifier = {
			factor = 1.25
			is_at_war = yes
		}
		modifier = {
			factor = 0
			is_at_war = no
		}
	}
}

song = {
	name = "NationUnderSiege"
	
	chance = {
		modifier = {
			factor = 1.25
			is_at_war = yes
		}
		modifier = {
			factor = 0
			is_at_war = no
		}
	}
}
###############GENERAL################################
#song = {
#	name = "maintheme"
#	
#	chance = {
#		modifier = {
#			factor = 0			#"The Sun Never Sets", composed specially as a theme for MEIOU And Taxes
#		}
#	}
#}	# Not necessary, Vanilla file pick the mod's maintheme ogg file anyways.

song = {
	name = "AgeofExploration"
	
	chance = {
		modifier = {
			factor = 1
		}
	}
}



song = {
	name = "Cantabile"
	
	chance = {
		modifier = {
			factor = 1
		}
	}
}



song = {
	name = "avemaria"
	
	chance = {
		modifier = {
			factor = 1
		}
	}
}

############EAST ASIA######################
song = {
	name = "CherryBlossoms"
	
	chance = {
		modifier = {
			factor = 1
		}
		modifier = {
			factor = 5
			OR = {
				culture_group = chinese_group
				culture_group = japanese
				culture_group = korean_group
				culture_group = mon_khmer
				culture_group = malay
				culture_group = burman
				culture_group = thai_group
			}
		}
		modifier = {
			factor = 0
			NOT = {
				OR = {
					culture_group = chinese_group
					culture_group = japanese
					culture_group = korean_group
					culture_group = mon_khmer
					culture_group = malay
					culture_group = burman
					culture_group = thai_group
				}
			}
		}
	}
}



song = {
	name = "GazingRiver"
	
	chance = {
		modifier = {
			factor = 1
		}
		modifier = {
			factor = 5
			OR = {
				culture_group = chinese_group
				culture_group = japanese
				culture_group = korean_group
				culture_group = mon_khmer
				culture_group = malay
				culture_group = burman
				culture_group = thai_group
			}
		}
		modifier = {
			factor = 0
			NOT = {
				OR = {
					culture_group = chinese_group
					culture_group = japanese
					culture_group = korean_group
					culture_group = mon_khmer
					culture_group = malay
					culture_group = burman
					culture_group = thai_group
				}
			}
		}
	}
}



song = {
	name = "HighMountainFlowingWater"
	
	chance = {
		modifier = {
			factor = 1
		}
		modifier = {
			factor = 5
			OR = {
				culture_group = chinese_group
				culture_group = japanese
				culture_group = korean_group
				culture_group = mon_khmer
				culture_group = malay
				culture_group = burman
				culture_group = thai_group
			}
		}
		modifier = {
			factor = 0
			NOT = {
				OR = {
					culture_group = chinese_group
					culture_group = japanese
					culture_group = korean_group
					culture_group = mon_khmer
					culture_group = malay
					culture_group = burman
					culture_group = thai_group
				}
			}
		}
	}
}



song = {
	name = "TamerlaneGoesEast"
	
	chance = {
		modifier = {
			factor = 1
		}
		modifier = {
			factor = 5
			OR = {
				culture_group = chinese_group
				culture_group = japanese
				culture_group = korean_group
				culture_group = mon_khmer
				culture_group = malay
				culture_group = burman
				culture_group = thai_group
			}
		}
		modifier = {
			factor = 0
			NOT = {
				OR = {
					culture_group = chinese_group
					culture_group = japanese
					culture_group = korean_group
					culture_group = mon_khmer
					culture_group = malay
					culture_group = burman
					culture_group = thai_group
				}
			}
		}
	}
}




##########NATIVE AMERICA#########
song = {
	name = "AmongtheTrees"
	
	chance = {
		modifier = {
			factor = 2
			OR = {
				religion_group = pagan
				religion_group = new_world_pagan
				any_owned_province = {
					OR = {
						continent = north_america
						continent = south_america
					}
				}
				any_subject_country = {
					is_colonial_nation = yes
					capital_scope = {
						OR = {
							continent = north_america
							continent = south_america
						}
					}
				}
				government = native_council
			}
		}
		modifier = {
			factor = 0
			NOT = {
				OR = {
					religion_group = pagan
					religion_group = new_world_pagan
					any_owned_province = {
						OR = {
							continent = north_america
							continent = south_america
						}
					}
					any_subject_country = {
						is_colonial_nation = yes
						capital_scope = {
							OR = {
								continent = north_america
								continent = south_america
							}
						}
					}
					government = native_council
				}
			}
		}
	}
}

song = {
	name = "CountdowntoDoomsday"
	
	chance = {
		modifier = {
			factor = 2
			OR = {
				religion_group = pagan
				religion_group = new_world_pagan
				any_owned_province = {
					OR = {
						continent = north_america
						continent = south_america
					}
				}
				any_subject_country = {
					is_colonial_nation = yes
					capital_scope = {
						OR = {
							continent = north_america
							continent = south_america
						}
					}
				}
				government = native_council
			}
		}
		modifier = {
			factor = 0
			NOT = {
				OR = {
					religion_group = pagan
					religion_group = new_world_pagan
					any_owned_province = {
						OR = {
							continent = north_america
							continent = south_america
						}
					}
					any_subject_country = {
						is_colonial_nation = yes
						capital_scope = {
							OR = {
								continent = north_america
								continent = south_america
							}
						}
					}
					government = native_council
				}
			}
		}
	}
}

song = {
	name = "JaguarWarriors"
	
	chance = {
		modifier = {
			factor = 2
			OR = {
				religion_group = pagan
				religion_group = new_world_pagan
				any_owned_province = {
					OR = {
						continent = north_america
						continent = south_america
					}
				}
				any_subject_country = {
					is_colonial_nation = yes
					capital_scope = {
						OR = {
							continent = north_america
							continent = south_america
						}
					}
				}
				government = native_council
			}
		}
		modifier = {
			factor = 0
			NOT = {
				OR = {
					religion_group = pagan
					religion_group = new_world_pagan
					any_owned_province = {
						OR = {
							continent = north_america
							continent = south_america
						}
					}
					any_subject_country = {
						is_colonial_nation = yes
						capital_scope = {
							OR = {
								continent = north_america
								continent = south_america
							}
						}
					}
					government = native_council
				}
			}
		}
	}
}

song = {
	name = "TempleoftheSunandMoon"
	
	chance = {
		modifier = {
			factor = 2
			OR = {
				religion_group = pagan
				religion_group = new_world_pagan
				any_owned_province = {
					OR = {
						continent = north_america
						continent = south_america
					}
				}
				any_subject_country = {
					is_colonial_nation = yes
					capital_scope = {
						OR = {
							continent = north_america
							continent = south_america
						}
					}
				}
				government = native_council
			}
		}
		modifier = {
			factor = 0
			NOT = {
				OR = {
					religion_group = pagan
					religion_group = new_world_pagan
					any_owned_province = {
						OR = {
							continent = north_america
							continent = south_america
						}
					}
					any_subject_country = {
						is_colonial_nation = yes
						capital_scope = {
							OR = {
								continent = north_america
								continent = south_america
							}
						}
					}
					government = native_council
				}
			}
		}
	}
}

song = {
	name = "VillageElder"
	
	chance = {
		modifier = {
			factor = 2
			OR = {
				religion_group = pagan
				religion_group = new_world_pagan
				any_owned_province = {
					OR = {
						continent = north_america
						continent = south_america
					}
				}
				any_subject_country = {
					is_colonial_nation = yes
					capital_scope = {
						OR = {
							continent = north_america
							continent = south_america
						}
					}
				}
				government = native_council
			}
		}
		modifier = {
			factor = 0
			NOT = {
				OR = {
					religion_group = pagan
					religion_group = new_world_pagan
					any_owned_province = {
						OR = {
							continent = north_america
							continent = south_america
						}
					}
					any_subject_country = {
						is_colonial_nation = yes
						capital_scope = {
							OR = {
								continent = north_america
								continent = south_america
							}
						}
					}
					government = native_council
				}
			}
		}
	}
}