
colonial_arabia = {
	color = { 77 216 89 }
	
	provinces = {
		388 2665 384 380 385 473 474 2653 470 2810 383 428 1332 3073 3075 3076 3077 4095 4096 
		4097 4098 1571 3043 1202 3006 1574 3040 3044 3047 3015 1575 3041 3042 3046 2650 404 
		389 465 402 3074 1099 1201 3050 1200 1203 3048 3052 3049 3053 3039 3054 3038 3037 3055 
		3060 3062 5242 
	}
	
	# Specific
	# Generic
	names = {
		name = "TRADE_COMPANY_ARABIA_Root_GetName"
	}
	names = {
		name = "TRADE_COMPANY_ARABIA_Arabia_Trade_Company"
	}
}

colonial_persia = {
	color = { 216 177 89 }
	
	provinces = {
		430 431 468 2228 2229 2235 2725 3828 3829 3830 3832 3833 435 464 3831 3827 429 3836 
		390 3079 2225 3082 414 3080 3081 2724 2726 413 400 401 403 3068 2538 466 3069 2539 
		467 395 396 397 394 3070 2808 2652 469 2470 
	}
	
	# Specific
	# Generic
	names = {
		name = "TRADE_COMPANY_PERSIA_Root_GetName"
	}
	names = {
		name = "TRADE_COMPANY_PERSIA_Persia_Trade_Company"
	}
}
