###########################################################
# Events for the Cossack Estate
#
# written by Henrik Lohmander
###########################################################

#Colonisation of the Steppes
#Cossacks vs Nobles
country_event = {
	id = cossack_estate_events.1
	title = cossack_estate_events.1.t
	desc = cossack_estate_events.1.d
	picture = BORDER_TENSION_eventPicture
	
	trigger = {
		has_dlc = "The Cossacks"
		has_estate = estate_cossacks
		any_owned_province = {
			has_terrain = steppe
		}
		estate_influence = {
			estate = estate_nobles
			influence = 50
		}
		estate_influence = {
			estate = estate_cossacks
			influence = 25
		}
		NOT = {
			has_estate_influence_modifier = {
				estate = estate_cossacks
				modifier = EST_VAL_SERFS_HUNTED
			}
		}
		NOT = {
			has_estate_influence_modifier = {
				estate = estate_cossacks
				modifier = EST_VAL_SERFS_TO_COSSACKS
			}
		}
		any_owned_province = {
			base_production = 2
			OR = {
				has_terrain = steppe
				any_neighbor_province = {
					owned_by = ROOT
					has_terrain = steppe
				}
			}
		}
	}
	
	mean_time_to_happen = {
		days = 1
	}
	
	is_triggered_only = yes
	
	immediate = {
		hidden_effect = {
			set_country_flag = colonization_of_the_steppes_flag
			random_owned_province = {
				limit = {
					OR = {
						has_terrain = steppe
						any_neighbor_province = {
							owned_by = ROOT
							has_terrain = steppe
						}
					}
				}
				set_province_flag = serfs_are_fleeing
			}
			random_owned_province = {
				limit = {

					has_terrain = steppe
				}
				set_province_flag = serfs_are_arriving
			}
		}
	}
	
	option = {
		name = cossack_estate_events.1.a #These Serfs must be brought back.
		ai_chance = {
			factor = 50
			modifier = {
				factor = 0.5
				NOT = {
					estate_loyalty = {
						estate = estate_cossacks
						loyalty = 40
					}
				}
			}
			modifier = {
				factor = 1.5
				estate_influence = {
					estate = estate_cossacks
					influence = 60
				}
			}
			modifier = {
				factor = 0.5
				estate_influence = {
					estate = estate_nobles
					influence = 60
				}
			}
		}
		add_estate_loyalty = {
			estate = estate_cossacks
			loyalty = -10
		}
		add_estate_influence_modifier = {
			estate = estate_cossacks
			desc = EST_VAL_SERFS_HUNTED
			influence = -10
			duration = 3650
		}
		add_estate_influence_modifier = {
			estate = estate_nobles
			desc = EST_VAL_SERFS_BROUGHT_BACK
			influence = 10
			duration = 3650
		}
		random_owned_province = {
			limit = {
				has_province_flag = serfs_are_fleeing
			}
			# add_base_production = 1
			clr_province_flag = serfs_are_fleeing
		}
		hidden_effect = {
			random_owned_province = {
				limit = {
					has_province_flag = serfs_are_arriving
				}
				clr_province_flag = serfs_are_arriving
			}
		}
	}
	option = {
		name = cossack_estate_events.1.b #We cannot afford to anger the Cossacks.
		ai_chance = {
			factor = 50
			modifier = {
				factor = 0.2
				NOT = {
					estate_loyalty = {
						estate = estate_nobles
						loyalty = 40
					}
				}
			}
			modifier = {
				factor = 0.5
				estate_influence = {
					estate = estate_cossacks
					influence = 60
				}
			}
			modifier = {
				factor = 1.5
				estate_influence = {
					estate = estate_nobles
					influence = 60
				}
			}
		}
		add_estate_loyalty = {
			estate = estate_nobles
			loyalty = -10
		}
		add_estate_influence_modifier = {
			estate = estate_cossacks
			desc = EST_VAL_SERFS_TO_COSSACKS
			influence = 10
			duration = 3650
		}
		add_estate_influence_modifier = {
			estate = estate_nobles
			desc = EST_VAL_SERFS_DEFECTING
			influence = -10
			duration = 3650
		}
		random_owned_province = {
			limit = {
				has_province_flag = serfs_are_arriving
			}
			# add_base_manpower = 1
			clr_province_flag = serfs_are_arriving
		}
		hidden_effect = {
			random_owned_province = {
				limit = {
					has_province_flag = serfs_are_fleeing
				}
				clr_province_flag = serfs_are_fleeing
			}
		}
	}
}

#Cossack Aggression
#This event will periodically lower development in the Steppe border zone.
country_event = {
	id = cossack_estate_events.2
	title = cossack_estate_events.2.t
	desc = cossack_estate_events.2.d
	picture = BORDER_TENSION_eventPicture
	
	trigger = {
		has_dlc = "The Cossacks"
		num_of_cities = 6
		any_owned_province = {
			base_tax = 2
			any_neighbor_province = {
				NOT = { owned_by = ROOT }
				owner = {
					estate_influence = {
						estate = estate_cossacks
						influence = 15
					}
					NOT = {
						has_estate_influence_modifier = {
							estate = estate_cossacks
							modifier = EST_VAL_COSSACK_AGGRESSIONS
						}
					}
					NOT = {
						has_estate_influence_modifier = {
							estate = estate_cossacks
							modifier = EST_VAL_STOPPED_COSSACK_AGGRESSIONS
						}
					}
				}
			}
		}
		
	}
	
	mean_time_to_happen = {
		months = 400
	}
	
	immediate = {
		hidden_effect = {
			random_owned_province = {
				limit = {
					base_tax = 2
					any_neighbor_province = {
						NOT = { owned_by = ROOT }
						owner = {
							estate_influence = {
								estate = estate_cossacks
								influence = 15
							}
							NOT = {
								has_estate_influence_modifier = {
									estate = estate_cossacks
									modifier = EST_VAL_COSSACK_AGGRESSIONS
								}
							}
							NOT = {
								has_estate_influence_modifier = {
									estate = estate_cossacks
									modifier = EST_VAL_STOPPED_COSSACK_AGGRESSIONS
								}
							}
						}
					}
				}
				random_neighbor_province = {
					limit = {
						NOT = { owned_by = ROOT }
						owner = {
							estate_influence = {
								estate = estate_cossacks
								influence = 15
							}
							NOT = {
								has_estate_influence_modifier = {
									estate = estate_cossacks
									modifier = EST_VAL_COSSACK_AGGRESSIONS
								}
							}
							NOT = {
								has_estate_influence_modifier = {
									estate = estate_cossacks
									modifier = EST_VAL_STOPPED_COSSACK_AGGRESSIONS
								}
							}
						}
					}
					owner = { set_country_flag = cossack_raids_started_here }
				}
			}
		}
	}
	
	option = {
		name = cossack_estate_events.2.a #Demand that the $ESTATE_COSSACKS$ be brought to Justice!
		ai_chance = {
			factor = 100
		}
		random_country = {
			limit = { has_country_flag = cossack_raids_started_here }
			country_event  = { id = cossack_estate_events.3 }
		}
	}
	option = {
		name = cossack_estate_events.2.b #We will just have to let this slide.
		ai_chance = {
			factor = 0
		}
		add_estate_loyalty = {
			estate = estate_nobles
			loyalty = -5
		}
		add_estate_loyalty = {
			estate = estate_burghers
			loyalty = -5
		}
		random_owned_province = {
			limit = {
				base_tax = 2
				any_neighbor_province = {
					owner = {
						has_country_flag = cossack_raids_started_here
					}
				}
			}
			# add_base_tax = -1
			owner = {
				clr_country_flag = cossack_raids_started_here
			}
		}
	}
}

#Cossack Aggressor
country_event = {
	id = cossack_estate_events.3
	title = cossack_estate_events.3.t
	desc = cossack_estate_events.3.d
	picture = BORDER_TENSION_eventPicture
	
	is_triggered_only = yes
	
	option = {
		name = cossack_estate_events.3.a #This matter is beyond our control!
		ai_chance = {
			factor = 50
			modifier = {
				factor = 0.5
				estate_influence = {
					estate = estate_cossacks
					influence = 60
				}
			}
			modifier = {
				factor = 1.5
				NOT = {
					estate_loyalty = {
						estate = estate_cossacks
						loyalty = 40
					}
				}
			}
		}
		add_estate_loyalty = {
			estate = estate_cossacks
			loyalty = 10
		}
		add_estate_influence_modifier = {
			estate = estate_cossacks
			desc = EST_VAL_COSSACK_AGGRESSIONS
			influence = 10
			duration = 5475
		}
		FROM = {
			country_event  = { id = cossack_estate_events.4 }
		}
		add_opinion = { who = FROM modifier = cossack_raids_opinion }
		tooltip = {
			FROM = {
				add_casus_belli = {
				    target = ROOT
				    type = cb_border_war
				    months = 3650
				}
			}
		}
	}
	option = {
		name = cossack_estate_events.3.b #Bring them to Justice!
		ai_chance = {
			factor = 50
			modifier = {
				factor = 1.5
				NOT = {
					estate_loyalty = {
						estate = estate_cossacks
						loyalty = 40
					}
				}
			}
			modifier = {
				factor = 2.0
				estate_influence = {
					estate = estate_cossacks
					influence = 60
				}
			}
		}
		add_estate_loyalty = {
			estate = estate_cossacks
			loyalty = -10
		}
		add_estate_influence_modifier = {
			estate = estate_cossacks
			desc = EST_VAL_STOPPED_COSSACK_AGGRESSIONS
			influence = -10
			duration = 5475
		}
		FROM  = {
			country_event  = { id = cossack_estate_events.5 }
		}
	}
}

#The [From.GetAdjective] Response
country_event = {
	id = cossack_estate_events.4
	title = cossack_estate_events.4.t
	desc = cossack_estate_events.4.d
	picture = BORDER_TENSION_eventPicture
	
	is_triggered_only = yes
	
	option = {
		name = cossack_estate_events.4.a #We care little for such excuses.
		random_owned_province = {
			limit = {
				base_tax = 2
				any_neighbor_province = {
					owned_by = FROM
				}
			}
			# add_base_tax = -1
		}
		add_casus_belli = {
		   target = FROM
		   type = cb_border_war
		   months = 3650
		}
		clr_country_flag = cossack_raids_started_here
	}
}

#The [From.GetAdjective] Response
country_event = {
	id = cossack_estate_events.5
	title = cossack_estate_events.5.t
	desc = cossack_estate_events.5.d
	picture = BORDER_TENSION_eventPicture
	
	is_triggered_only = yes
	
	option = {
		name = cossack_estate_events.5.a #If we could only believe that.
		add_prestige = 5
		clr_country_flag = cossack_raids_started_here
	}
}

#Advancement of the Cossacks
country_event = {
	id = cossack_estate_events.6
	title = cossack_estate_events.6.t
	desc = cossack_estate_events.6.d
	picture = BORDER_TENSION_eventPicture
	
	is_triggered_only = yes
	
	trigger = {
		has_dlc = "The Cossacks"
		has_estate = estate_cossacks
		any_owned_province = {
			has_terrain = steppe
		}
		NOT = {
			has_estate_influence_modifier = {
				estate = estate_cossacks
				modifier = EST_VAL_COSSACKS_ADVANCES
			}
		}
		NOT = {
			has_estate_influence_modifier = {
				estate = estate_cossacks
				modifier = EST_VAL_COSSACKS_ADVANCES_20
			}
		}
		NOT = {
			has_estate_influence_modifier = {
				estate = estate_cossacks
				modifier = EST_VAL_COSSACKS_DECLINES
			}
		}
	}

	
	immediate = {
		hidden_effect = {
			random_list = {
				80 = { set_country_flag = growing_influence_cossacks_10 }
				20 = { set_country_flag = growing_influence_cossacks_20 }
			}
		}
	}
	
	mean_time_to_happen = {
		days = 1
	}
	

	option = {
		name = cossack_estate_events.6.a #Ok
		trigger_switch = {
			on_trigger = has_country_flag
			growing_influence_cossacks_10 = {
				add_estate_influence_modifier = {
				estate = estate_cossacks
				desc = EST_VAL_COSSACKS_ADVANCES
				influence = 10
				duration = 5475
				}
				clr_country_flag = growing_influence_cossacks_10
			}
			growing_influence_cossacks_20 = {
				add_estate_influence_modifier = {
					estate = estate_cossacks
					desc = EST_VAL_COSSACKS_ADVANCES_20
					influence = 20
					duration = 5475
				}
				clr_country_flag = growing_influence_cossacks_20
			}
		}
	}
}

#Decline of Cossack Power
country_event = {
	id = cossack_estate_events.7
	title = cossack_estate_events.7.t
	desc = cossack_estate_events.7.d
	picture = BORDER_TENSION_eventPicture
	
	trigger = {
		has_dlc = "The Cossacks"
		has_estate = estate_cossacks
		any_owned_province = {
			has_terrain = steppe
		}
		NOT = {
			has_estate_influence_modifier = {
				estate = estate_cossacks
				modifier = EST_VAL_COSSACKS_ADVANCES
			}
		}
		NOT = {
			has_estate_influence_modifier = {
				estate = estate_cossacks
				modifier = EST_VAL_COSSACKS_ADVANCES_20
			}
		}
		NOT = {
			has_estate_influence_modifier = {
				estate = estate_cossacks
				modifier = EST_VAL_COSSACKS_DECLINES
			}
		}
	}
	
	is_triggered_only = yes
	
	mean_time_to_happen = {
		days = 1
	}
	
	option = {
		name = cossack_estate_events.7.a #Ok
		add_estate_influence_modifier = {
			estate = estate_cossacks
			desc = EST_VAL_COSSACKS_DECLINES
			influence = -10
			duration = 5475
		}
	}
}

#Petition for Recognition/Privileges
#More Registered Cossacks
country_event = {
	id = cossack_estate_events.8
	title = cossack_estate_events.8.t
	desc = cossack_estate_events.8.d
	picture = BORDER_TENSION_eventPicture
	
	trigger = {
		has_dlc = "The Cossacks"
		has_estate = estate_cossacks
		any_owned_province = {
			has_terrain = steppe
		}
		NOT = { manpower_percentage = 0.95 }
		NOT = {
			has_estate_influence_modifier = {
				estate = estate_cossacks
				modifier = EST_VAL_COSSACK_PRIVILEGES
			}
		}
		NOT = {
			has_estate_influence_modifier = {
				estate = estate_cossacks
				modifier = EST_VAL_DENIED_COSSACK_PRIVILEGES
			}
		}
		any_owned_province = {
			has_estate = estate_cossacks
		}
	}
	
	is_triggered_only = yes
	
	mean_time_to_happen = {
		days = 1
	}
	
	option = {
		name = cossack_estate_events.8.a #We need more registered Cossacks!
		add_yearly_manpower = 1
		ai_chance = {
			factor = 50
			modifier = {
				factor = 1.5
				NOT = {
					estate_loyalty = {
						estate = estate_cossacks
						loyalty = 40
					}
				}
			}
			modifier = {
				factor = 0.5
				estate_influence = {
					estate = estate_cossacks
					influence = 60
				}
			}
		}
		add_estate_loyalty = {
			estate = estate_cossacks
			loyalty = 10
		}
		add_estate_influence_modifier = {
			estate = estate_cossacks
			desc = EST_VAL_COSSACK_PRIVILEGES
			influence = 10
			duration = 5475
		}
	}
	option = {
		name = cossack_estate_events.8.b #Let them tend to their Steppes.
		ai_chance = {
			factor = 50
			modifier = {
				factor = 0.5
				NOT = {
					estate_loyalty = {
						estate = estate_cossacks
						loyalty = 40
					}
				}
			}
			modifier = {
				factor = 1.5
				estate_influence = {
					estate = estate_cossacks
					influence = 60
				}
			}
		}
		add_estate_loyalty = {
			estate = estate_cossacks
			loyalty = -10
		}
		add_estate_influence_modifier = {
			estate = estate_cossacks
			desc = EST_VAL_DENIED_COSSACK_PRIVILEGES
			influence = -10
			duration = 5475
		}
	}
}

#Greater Integration of Cossack Units
country_event = {
	id = cossack_estate_events.9
	title = cossack_estate_events.9.t
	desc = cossack_estate_events.9.d
	picture = BORDER_TENSION_eventPicture
	
	trigger = {
		has_dlc = "The Cossacks"
		has_estate = estate_cossacks
		any_owned_province = {
			has_terrain = steppe
		}
		NOT = {
			has_estate_influence_modifier = {
				estate = estate_cossacks
				modifier = EST_VAL_SUPPLIED_COSSACKS
			}
		}
		NOT = {
			has_estate_influence_modifier = {
				estate = estate_cossacks
				modifier = EST_VAL_COSSACKS_FENDING_FOR_THEMSELVES
			}
		}
	}
	
	is_triggered_only = yes
	
	mean_time_to_happen = {
		days = 1
	}
	
	option = {
		name = cossack_estate_events.9.a #
		ai_chance = {
			factor = 50
			modifier = {
				factor = 0.5
				NOT = {
					estate_loyalty = {
						estate = estate_cossacks
						loyalty = 40
					}
				}
			}
			modifier = {
				factor = 1.5
				estate_influence = {
					estate = estate_cossacks
					influence = 60
				}
			}
		}
		add_years_of_income = -0.25
		add_estate_loyalty = {
			estate = estate_cossacks
			loyalty = 10
		}
		add_estate_influence_modifier = {
			estate = estate_cossacks
			desc = EST_VAL_SUPPLIED_COSSACKS
			influence = 10
			duration = 5475
		}
	}
	option = {
		name = cossack_estate_events.9.b #
		ai_chance = {
			factor = 50
			modifier = {
				factor = 1.5
				NOT = {
					estate_loyalty = {
						estate = estate_cossacks
						loyalty = 40
					}
				}
			}
			modifier = {
				factor = 0.5
				estate_influence = {
					estate = estate_cossacks
					influence = 60
				}
			}
		}
		add_estate_loyalty = {
			estate = estate_cossacks
			loyalty = -10
		}
		add_estate_influence_modifier = {
			estate = estate_cossacks
			desc = EST_VAL_COSSACKS_FENDING_FOR_THEMSELVES
			influence = -10
			duration = 5475
		}
	}
}

#Cossack Raiders
country_event = {
	id = cossack_estate_events.10
	title = cossack_estate_events.10.t
	desc = cossack_estate_events.10.d
	picture = BORDER_TENSION_eventPicture
	
	trigger = {
		has_dlc = "The Cossacks"
		has_estate = estate_cossacks
		has_estate = estate_burghers
		any_owned_province = {
			has_terrain = steppe
		}
		NOT = {
			has_estate_influence_modifier = {
				estate = estate_cossacks
				modifier = EST_VAL_SUPPORTED_COSSACKS
			}
		}
		NOT = {
			has_estate_influence_modifier = {
				estate = estate_cossacks
				modifier = EST_VAL_SUPPORTED_BURGHERS_VS_COSSACKS
			}
		}
	}
	
	is_triggered_only = yes
	
	mean_time_to_happen = {
		days = 1
	}
	
	option = {
		name = cossack_estate_events.10.a #Support the $ESTATE_COSSACKS$.
		ai_chance = {
			factor = 50
			modifier = {
				factor = 0.5
				NOT = {
					estate_loyalty = {
						estate = estate_burghers
						loyalty = 40
					}
				}
			}
			modifier = {
				factor = 0.5
				estate_influence = {
					estate = estate_cossacks
					influence = 60
				}
			}
		}
		add_estate_loyalty = {
			estate = estate_cossacks
			loyalty = 10
		}
		add_estate_loyalty = {
			estate = estate_burghers
			loyalty = -10
		}
		add_estate_influence_modifier = {
			estate = estate_cossacks
			desc = EST_VAL_SUPPORTED_COSSACKS
			influence = 10
			duration = 5475
		}
		add_estate_influence_modifier = {
			estate = estate_burghers
			desc = EST_VAL_SUPPORTED_COSSACKS
			influence = -10
			duration = 5475
		}
	}
	option = {
		name = cossack_estate_events.10.b #Supports the $ESTATE_BURGHERS$.
		ai_chance = {
			factor = 50
			modifier = {
				factor = 0.5
				NOT = {
					estate_loyalty = {
						estate = estate_cossacks
						loyalty = 40
					}
				}
			}
			modifier = {
				factor = 0.5
				estate_influence = {
					estate = estate_burghers
					influence = 60
				}
			}
		}
		add_estate_loyalty = {
			estate = estate_cossacks
			loyalty = -10
		}
		add_estate_loyalty = {
			estate = estate_burghers
			loyalty = 10
		}
		add_estate_influence_modifier = {
			estate = estate_cossacks
			desc = EST_VAL_SUPPORTED_BURGHERS_VS_COSSACKS
			influence = -10
			duration = 5475
		}
		add_estate_influence_modifier = {
			estate = estate_burghers
			desc = EST_VAL_SUPPORTED_BURGHERS_VS_COSSACKS
			influence = 10
			duration = 5475
		}
	}
}

#The Settling of Siberia
country_event = {
	id = cossack_estate_events.11
	title = cossack_estate_events.11.t
	desc = cossack_estate_events.11.d
	picture = BORDER_TENSION_eventPicture
	
	trigger = {
		has_dlc = "The Cossacks"
		has_estate = estate_cossacks
		any_owned_province = {
			has_terrain = steppe
		}
		num_of_colonists = 1
		any_owned_province = {
			OR = {
				continent = central_asia
				region = west_siberia_region
				region = east_siberia_region
			}
			NOT = { has_estate = yes }
			has_terrain = steppe
		}
		NOT = {
			has_estate_influence_modifier = {
				estate = estate_cossacks
				modifier = EST_VAL_COSSACK_SETTLERS
			}
		}
		NOT = {
			has_estate_influence_modifier = {
				estate = estate_cossacks
				modifier = EST_VAL_NO_COSSACK_SETTLERS
			}
		}
	}
	
	is_triggered_only = yes
	
	mean_time_to_happen = {
		days = 1
	}
	
	option = {
		name = cossack_estate_events.11.a #Enlist $ESTATE_COSSACKS$ Settlers.
		ai_chance = {
			factor = 50
			modifier = {
				factor = 1.5
				NOT = {
					estate_loyalty = {
						estate = estate_cossacks
						loyalty = 40
					}
				}
			}
			modifier = {
				factor = 0.5
				estate_influence = {
					estate = estate_cossacks
					influence = 60
				}
			}
		}
		add_country_modifier = {
			name = "cossack_settlers"
			duration = 5475
		}
		random_owned_province = {
			limit = {
				has_terrain = steppe
				NOT = { has_estate = yes }
				OR = {
					region = west_siberia_region
					region = east_siberia_region
					continent = central_asia
				}
			}
			set_estate = estate_cossacks
		}
		add_estate_loyalty = {
			estate = estate_cossacks
			loyalty = 10
		}
		add_estate_influence_modifier = {
			estate = estate_cossacks
			desc = EST_VAL_COSSACK_SETTLERS
			influence = 10
			duration = 5475
		}
	}
	option = {
		name = cossack_estate_events.11.b #We cannot trust the $ESTATE_COSSACKS$.
		ai_chance = {
			factor = 50
			modifier = {
				factor = 0.5
				NOT = {
					estate_loyalty = {
						estate = estate_cossacks
						loyalty = 40
					}
				}
			}
			modifier = {
				factor = 1.5
				estate_influence = {
					estate = estate_cossacks
					influence = 60
				}
			}
		}
		add_estate_loyalty = {
			estate = estate_cossacks
			loyalty = -10
		}
		add_estate_influence_modifier = {
			estate = estate_cossacks
			desc = EST_VAL_NO_COSSACK_SETTLERS
			influence = -10
			duration = 5475
		}
	}
}

#Disloyal Cossacks
country_event = {
	id = cossack_estate_events.12
	title = cossack_estate_events.12.t
	desc = cossack_estate_events.12.d
	picture = BORDER_TENSION_eventPicture
	
	trigger = {
		has_dlc = "The Cossacks"
		has_estate = estate_cossacks
		any_owned_province = {
			has_terrain = steppe
		}
		NOT = {
			estate_loyalty = {
				estate = estate_cossacks
				loyalty = 30
			}
		}
		any_owned_province = {
			has_estate = estate_cossacks
		}
		NOT = {
			has_estate_influence_modifier = {
				estate = estate_cossacks
				modifier = EST_VAL_COSSACK_INDEPENDENCE
			}
		}
		NOT = {
			has_estate_influence_modifier = {
				estate = estate_cossacks
				modifier = EST_VAL_COSSACK_UPRISING
			}
		}
	}
	
	is_triggered_only = yes
	
	mean_time_to_happen = {
		days = 1
	}
	
	option = {
		name = cossack_estate_events.12.a #
		ai_chance = {
			factor = 75
			modifier = {
				factor = 0.5
				estate_influence = {
					estate = estate_cossacks
					influence = 60
				}
			}
		}
		add_estate_influence_modifier = {
			estate = estate_cossacks
			desc = EST_VAL_COSSACK_INDEPENDENCE
			influence = 10
			duration = 7300
		}
		every_owned_province = {
			limit = {
				has_estate = estate_cossacks
			}
			add_local_autonomy = 33
		}
	}
	option = {
		name = cossack_estate_events.12.b #
		ai_chance = {
			factor = 25
			modifier = {
				factor = 1.5
				estate_influence = {
					estate = estate_cossacks
					influence = 70
				}
			}
		}
		add_estate_influence_modifier = {
			estate = estate_cossacks
			desc = EST_VAL_COSSACK_UPRISING
			influence = -15
			duration = 7300
		}
		every_owned_province = {
			limit = {
				has_estate = estate_cossacks
				can_spawn_rebels = nationalist_rebels
			}
			add_province_modifier = {
				name = "nationalists_organizing"
				duration = 1825
			}
			add_unrest = 5
		}
	}
}

#Expansion of Cossack Influence
country_event = {
	id = cossack_estate_events.13
	title = cossack_estate_events.13.t
	desc = cossack_estate_events.13.d
	picture = BORDER_TENSION_eventPicture
	
	trigger = {
		has_dlc = "The Cossacks"
		has_estate = estate_cossacks
		any_owned_province = {
			has_terrain = steppe
			is_capital = no
			is_overseas = no
			NOT = { has_estate = yes }
		}
	}
	
	is_triggered_only = yes
	
	mean_time_to_happen = {
		days = 1
	}
	
	immediate = {
		hidden_effect = {
			random_owned_province = {
				limit = {
					has_terrain = steppe
					is_capital = no
					is_overseas = no
					NOT = { has_estate = yes }
				}
				set_province_flag = growing_cossack_communities
			}
		}
	}
	
	option = {
		name = cossack_estate_events.13.a #
		random_owned_province = {
			limit = {
				has_province_flag = growing_cossack_communities
			}
			set_estate = estate_cossacks
			# add_base_manpower = 1
			clr_province_flag = growing_cossack_communities
		}
	}
	option = {
		name = cossack_estate_events.13.b #
		add_estate_loyalty = {
			estate = estate_cossacks
			loyalty = -10
		}
		random_owned_province = {
			limit = {
				has_province_flag = growing_cossack_communities
			}
			clr_province_flag = growing_cossack_communities
			random_list =  {
				25 = {
					add_province_modifier = {
						name = "peasants_organizing"
						duration = 1825
					}
					add_unrest = 5
				}
				75 = { }
			}
		}
	}
}

#Extend Cossack Privileges
#Demands at high influence
country_event = {
	id = cossack_estate_events.14
	title = cossack_estate_events.14.t
	desc = cossack_estate_events.14.d
	picture = BORDER_TENSION_eventPicture
	
	trigger = {
		has_dlc = "The Cossacks"
		has_estate = estate_cossacks
		any_owned_province = {
			has_terrain = steppe
		}
		estate_influence = {
			estate = estate_cossacks
			influence = 70
		}
		NOT = {
			has_estate_influence_modifier = {
				estate = estate_cossacks
				modifier = EST_VAL_EXTENDED_COSSACK_PRIVILEGES
			}
		}
		NOT = {
			has_estate_influence_modifier = {
				estate = estate_cossacks
				modifier = EST_VAL_NO_EXTENDED_COSSACK_PRIVILEGES
			}
		}
	}
	
	is_triggered_only = yes
	
	mean_time_to_happen = {
		days = 1
	}
	
	option = {
		name = cossack_estate_events.14.a #Preposterous.
		ai_chance = {
			factor = 1
		}
		add_estate_loyalty = {
			estate = estate_cossacks
			loyalty = -15
		}
		add_estate_influence_modifier = {
			estate = estate_cossacks
			desc = EST_VAL_NO_EXTENDED_COSSACK_PRIVILEGES
			influence = -10
			duration = 3650
		}
	}
	option = {
		name = cossack_estate_events.14.b #Give in to their demands.
		ai_chance = {
			factor = 0
		}
		add_estate_influence_modifier = {
			estate = estate_cossacks
			desc = EST_VAL_EXTENDED_COSSACK_PRIVILEGES
			influence = 10
			duration = 7300
		}
		add_estate_loyalty = {
			estate = estate_burghers
			loyalty = -20
		}
		add_estate_loyalty = {
			estate = estate_nobles
			loyalty = -20
		}
		add_estate_loyalty = {
			estate = estate_church
			loyalty = -20
		}
	}
}

#Local Revolt
province_event = {
	id = cossack_estate_events.15
	title = cossack_estate_events.15.t
	desc = cossack_estate_events.15.d
	picture = BORDER_TENSION_eventPicture
	
	is_triggered_only = yes

	option = {
		name = cossack_estate_events.15.a #Ok.
		
	}
}