# Archipelagic Succession Crisis
country_event = {
	id = archipelagic_succession.001
	title = "archipelagic_succession.001.name"
	desc = "archipelagic_succession.001.desc"
	picture = CIVIL_WAR_eventPicture
	
	major = yes
	
	is_triggered_only = yes
	
	immediate = {
		random_owned_province = {
			limit = {
				is_core = ROOT
				base_tax = 5
			}
			spawn_rebels = {
				type = 	pretender_rebels
				size = 2
				win = yes
			}
			add_local_autonomy = 25
		}
	}
	
	
	option = {
		name = "archipelagic_succession.001.opta"			# Crush them!
		add_prestige = -1
		subtract_stability_3 = yes
		every_subject_country = {
			limit = {
				capital_distance = { who = ROOT distance = 50 }
				NOT = { capital_distance = { who = ROOT distance = 100 } }
			}
			add_liberty_desire = 5
		}
		every_subject_country = {
			limit = {
				capital_distance = { who = ROOT distance = 100 }
				NOT = { capital_distance = { who = ROOT distance = 150 } }
			}
			add_liberty_desire = 10
		}
		every_subject_country = {
			limit = {
				capital_distance = { who = ROOT distance = 150 }
				NOT = { capital_distance = { who = ROOT distance = 200 } }
			}
			add_liberty_desire = 15
		}
		every_subject_country = {
			limit = {
				capital_distance = { who = ROOT distance = 200 }
				NOT = { capital_distance = { who = ROOT distance = 250 } }
			}
			add_liberty_desire = 20
		}
		every_subject_country = {
			limit = {
				capital_distance = { who = ROOT distance = 200 }
			}
			add_liberty_desire = 25
		}
	}
}

# End of Archipelagic Succession Crisis
country_event = {
	id = archipelagic_succession.002
	title = "archipelagic_succession.002.name"
	desc = "archipelagic_succession.002.desc"
	picture = ANGRY_MOB_eventPicture
	
	
	is_triggered_only = yes
	
	option = {
		name = "archipelagic_succession.002.opta"
		clr_ruler_flag = weak_archipelagic_ruler
		add_legitimacy = 10
		add_stability_3 = yes
		every_subject_country = {
			limit = {
				capital_distance = { who = ROOT distance = 50 }
				NOT = { capital_distance = { who = ROOT distance = 100 } }
			}
			add_liberty_desire = -5
		}
		every_subject_country = {
			limit = {
				capital_distance = { who = ROOT distance = 100 }
				NOT = { capital_distance = { who = ROOT distance = 150 } }
			}
			add_liberty_desire = -10
		}
		every_subject_country = {
			limit = {
				capital_distance = { who = ROOT distance = 150 }
				NOT = { capital_distance = { who = ROOT distance = 200 } }
			}
			add_liberty_desire = -15
		}
		every_subject_country = {
			limit = {
				capital_distance = { who = ROOT distance = 200 }
				NOT = { capital_distance = { who = ROOT distance = 250 } }
			}
			add_liberty_desire = -20
		}
		every_subject_country = {
			limit = {
				capital_distance = { who = ROOT distance = 200 }
			}
			add_liberty_desire = -25
		}
	}
}
