# Saxon events

#Treaty of Leipzig
country_event = {
	id = hee_SAX.1
	title = hee_SAX.1.t
	desc = hee_SAX.1.d
	picture = DIPLOMACY_eventPicture
	
	fire_only_once = yes
	
	trigger = {
		tag = SAX
		num_of_cities = 6
		NOT = {
			is_year = 1500
		}
		NOT = {
			exists = THU
		}
		is_year = 1480
		is_lesser_in_union = no
		owns = 71 # Thuringen
		owns = 2619 # Vogtland
		owns = 59 # Wittenberg
		dynasty = "von Wettin"
		government = monarchy
	}
	
	mean_time_to_happen = { years = 5 }
	
	option = {
		name = hee_SAX.1.a
		ai_chance = {
			factor = 75
		}
		THU = {
			add_core = 71
			add_core = 2619
			add_core = 59
		}
		release = THU
		create_union = THU
		add_country_modifier = {
			name = hee_treaty_of_leipzig
			duration = -1
		}
		THU = {
			add_country_modifier = {
				name = hee_treaty_of_leipzig
				duration = -1
			}
		}
	}
	option = {
		name = hee_SAX.1.b
		ai_chance = {
			factor = 25
		}
		subtract_stability_1 = yes
		add_prestige = 10
	}
}

#Rivalry with the Hohenzollerns
country_event = {
	id = hee_SAX.2
	title = hee_SAX.2.t
	desc = hee_SAX.2.d
	picture = COURT_eventPicture
	
	fire_only_once = yes
	
	trigger = {
		tag = SAX
		BRA = {
			num_of_cities = 4
		}
		num_of_cities = BRA
		is_free_or_tributary_trigger = yes
		BRA = {
			is_free_or_tributary_trigger = yes
		}
		NOT = {
			has_opinion = {
				who = BRA
				value = 50
			}
		}
	}
	
	mean_time_to_happen = { years = 20 }
	
	option = {
		name = hee_SAX.2.a
		reverse_add_opinion = {
			who = BRA
			modifier = hee_against_hohenzollern
		}
	}
	option = {
		name = hee_SAX.2.b
		reverse_add_opinion = {
			who = BRA
			modifier = hee_reconcile_hohenzollern
		}
	}
}

#University of Wittenberg
country_event = {
	id = hee_SAX.3
	title = hee_SAX.3.t
	desc = hee_SAX.3.d
	picture = GREAT_BUILDING_eventPicture
	
	fire_only_once = yes
	
	trigger = {
		tag = SAX
		NOT = {
			is_religion_enabled = protestant
		}
		is_year = 1480
		owns = 59 # Wittenberg
	}
	
	mean_time_to_happen = { years = 10 }
	
	option = {
		name = hee_SAX.3.a
		add_country_modifier = {
			name = hee_wittenberg_ideas
			duration = 7300
		}
		# add_reform_desire = 0.01
	}
	option = {
		name = hee_SAX.3.b
		add_country_modifier = {
			name = hee_wittenberg_tech
			duration = 7300
		}
		# add_reform_desire = -0.01
	}
}

# Religious Reformer Seeks Protection
country_event = {
	id = hee_SAX.4
	title = hee_SAX.4.t
	desc = hee_SAX.4.d
	picture = BORDER_TENSION_eventPicture
	
	fire_only_once = yes
	
	trigger = {
		tag = SAX
		reform_desire = 0.95
		is_emperor = no
		NOT = {
			is_year = 1525
		}
	}
	
	mean_time_to_happen = { years = 5 }
	
	option = {
		name = hee_SAX.4.a
		ai_chance = {
			factor = 90
		}
		add_country_modifier = {
			name = hee_hidden_reformer
			duration = 3650
		}
		add_adm_power = 50
		reverse_add_opinion = {
			who = emperor
			modifier = hee_reformer_saved
		}
		reverse_add_opinion = {
			who = PAP
			modifier = hee_reformer_saved
		}
	}
	option = {
		name = hee_SAX.4.b
		ai_chance = {
			factor = 10
		}
		add_dip_power = 25
		random_owned_province = {
			limit = {
				is_reformation_center = no
				OR = {
					religion = protestant
					religion = reformed
				}
			}
			change_variable = { which = province_religion value = -14 }
			change_variable = { which = catholic value = 14 }
			change_religion = catholic
		}
		reverse_add_opinion = {
			who = emperor
			modifier = hee_gave_up_reformer
		}
		reverse_add_opinion = {
			who = PAP
			modifier = hee_gave_up_reformer
		}
	}
}

# Crypto-Calvinism
country_event = {
	id = hee_SAX.5
	title = hee_SAX.5.t
	desc = hee_SAX.5.d
	picture = ACCUSATION_eventPicture
	
	fire_only_once = yes
	
	trigger = {
		tag = SAX
		religion = protestant
		is_year = 1530
		NOT = {
			is_year = 1560
		}
	}
	
	mean_time_to_happen = { years = 10 }
	
	option = {
		name = hee_SAX.5.a
		add_stability_1 = yes
		if = {
			limit = {
				is_religion_enabled = reformed
			}
			random = {
				chance = 50
				random_owned_province = {
					limit = {
						NOT = { is_core = ROOT }
						NOT = { has_province_modifier = fanatics_organizing }
					}
					add_province_modifier = {
						name = "fanatics_organizing"
						duration = 1825
					}
					hidden_effect = {
						set_variable = { which = added_unrest value = 5 }
						add_base_unrest = yes
					}
					custom_tooltip = added_unrest_5
				}
			}
		}
		add_church_power = 25
		add_adm_power = -15
	}
	option = {
		name = hee_SAX.5.b
		if = {
			limit = {
				is_religion_enabled = reformed
			}
			random_owned_province = {
				limit = {
					is_capital = no
				}
				change_variable = { which = province_religion value = -14 }
				change_variable = { which = reformed value = 14 }
				change_religion = reformed
				add_province_modifier = {
					name = religious_zeal_at_conv
					duration = 3650
				}
			}
		}
		add_adm_power = 30
		add_church_power = -50
	}
}

#Head of the Corpus Evangelicorum
country_event = {
	id = hee_SAX.6
	title = hee_SAX.6.t
	desc = hee_SAX.6.d
	picture = RELIGION_eventPicture
	
	fire_only_once = yes
	
	trigger = {
		tag = SAX
		hre_religion_treaty = yes
		is_year = 1630
		NOT = {
			is_year = 1690
		}
		religion = protestant
		num_of_cities = 4
	}
	
	mean_time_to_happen = { years = 30 }
	
	option = {
		name = hee_SAX.6.a
		add_prestige = 15
		add_stability_1 = yes
	}
}

#Transfer Religious Responsibility to the Privy Council
country_event = {
	id = hee_SAX.7
	title = hee_SAX.7.t
	desc = hee_SAX.7.d
	picture = PRAYING_eventPicture
	
	fire_only_once = yes
	
	trigger = {
		tag = SAX
		is_year = 1720
		any_country = {
			is_subject_of = ROOT
			religion = catholic
		}
		NOT = {
			months_of_ruling = 12
		}
		OR = {
			religion = protestant
			religion = reformed
		}
		NOT = {
			is_year = 1760
		}
		NOT = {
			has_idea_group = humanist_ideas
		}
	}
	
	mean_time_to_happen = { months = 6 }
	
	option = {
		name = hee_SAX.7.a
		ai_chance = {
			factor = 80
		}
		add_country_modifier = {
			name = hee_religion_to_privy
			duration = -1
		}
	}
	option = {
		name = hee_SAX.7.b
		ai_chance = {
			factor = 20
		}
		add_church_power = -200
		add_fervor = -100
		subtract_stability_1 = yes
		add_country_modifier = {
			name = hee_saxon_religious_control
			duration = -1
		}
		every_country = {
			limit = {
				is_part_of_hre = yes
				religion = ROOT
			}
			add_opinion = {
				who = ROOT
				modifier = hee_refused_religion_transfer
			}
		}
	}
}

#The Frauenkirche and the Hofkirche of Dresden
country_event = {
	id = hee_SAX.8
	title = hee_SAX.8.t
	desc = hee_SAX.8.d
	picture = CITY_VIEW_eventPicture
	
	fire_only_once = yes
	
	trigger = {
		tag = SAX
		is_year = 1730
		owns = 3851 # Dresden
		NOT = {
			is_year = 1760
		}
		ADM = 4
	}
	
	mean_time_to_happen = { years = 10 }
	
	option = {
		name = hee_SAX.8.a
		3851 = {
			# add_base_tax = 2
		}
		add_treasury = -15
		add_prestige = 5
	}
	option = {
		name = hee_SAX.8.b
		add_adm_power = 10
		add_stability_1 = yes
	}
}

#Maria Josepha of Austria
country_event = {
	id = hee_SAX.9
	title = hee_SAX.9.t
	desc = hee_SAX.9.d
	picture = wihgfx_FEMALE_RULER_eventPicture
	
	fire_only_once = yes
	
	trigger = {
		tag = SAX
		is_year = 1730
		NOT = {
			is_year = 1760
		}
		is_at_war = yes
	}
	
	mean_time_to_happen = { months = 12 }
	
	option = {
		name = hee_SAX.9.a
		add_stability_1 = yes
		add_adm_power = 25
		add_dip_power = 25
		add_war_exhaustion = -2
		add_church_power = -50
	}
}

#Martin Luther publishes theological treatise
country_event = {
	id = hee_SAX.10
	title = hee_SAX.10.t
	desc = hee_SAX.10.d
	picture = PRAYING_eventPicture
	
	fire_only_once = yes
	
	trigger = {
		tag = SAX
		is_year = 1500
		NOT = {
			is_religion_enabled = protestant
		}
		owns = 59 # Wittenberg
	}
	
	mean_time_to_happen = {
		years = 13
		modifier = {
			factor = 0.5
			is_year = 1510
		}
	}
	
	option = {
		name = hee_SAX.10.a
		add_adm_power = 50
		add_papal_influence = -15
		# add_reform_desire = 0.01
	}
	
	option = {
		name = hee_SAX.10.b
		add_papal_influence = 10
		add_dip_power = 25
	}
}

#Nikolaus Krell
country_event = {
	id = hee_SAX.11
	title = hee_SAX.11.t
	desc = hee_SAX.11.d
	picture = ACCUSATION_eventPicture
	
	fire_only_once = yes
	
	trigger = {
		tag = SAX
		is_year = 1580
		religion = protestant
		is_religion_enabled = reformed
		NOT = {
			is_year = 1600
		}
	}
	
	mean_time_to_happen = { years = 10 }
	
	option = {
		name = hee_SAX.11.a
		add_adm_power = 25
		define_advisor = {
			type = theologian
			name = "Nikolaus Krell"
			skill = 2
			discount = yes
		}
		random_owned_province = {
			limit = {
				is_capital = no
			}
			change_variable = { which = province_religion value = -14 }
			change_variable = { which = reformed value = 14 }
			change_religion = reformed
			add_province_modifier = {
				name = religious_zeal_at_conv
				duration = 3650
			}
		}
		add_church_power = -25
		random = {
			chance = 50
			capital_scope = {
				add_province_modifier = {
					name = "nobles_organizing"
					duration = 3650
				}
				hidden_effect = {
					set_variable = { which = added_unrest value = 10 }
					add_base_unrest = yes
				}
				custom_tooltip = added_unrest_10
			}
		}
	}
	option = {
		name = hee_SAX.11.b
		random = {
			chance = 50
			random_owned_province = {
				add_province_modifier = {
					name = "fanatics_organizing"
					duration = 1825
				}
				hidden_effect = {
					set_variable = { which = added_unrest value = 5 }
					add_base_unrest = yes
				}
				custom_tooltip = added_unrest_5
			}
		}
		add_church_power = 50
		add_dip_power = 25
	}
}
