namespace = cb_types

country_event = {
	id = cb_types.1
	title = no_localization
	desc = no_localization
	picture = MEIOU_AND_TAXES_eventPicture
	
	hidden = yes
	is_triggered_only = yes
	
	trigger = {
		tag = HAW
	}
	
	immediate = {
		# cb_roman_east
		BYZ = {
			if = {
				limit = {
					exists = yes
					is_subject = no
					owns = 1402 # Konstantinoupolis
					OR = {
						ai = yes
						NOT = { has_global_flag = multiplayer }
					}
					NOT = { has_country_flag = heir_to_rome }
				}
				
				every_neighbor_country = {
					limit = {
						PREV = {
							NOT = {
								has_casus_belli = {
									type = cb_roman_east
									target = PREV
								}
							}
						}
						OR = {
							east_balkan_region = {
								owned_by = PREV
							}
							north_anatolia_region = {
								owned_by = PREV
							}
							south_anatolia_region = {
								owned_by = PREV
							}
							greece_region = {
								owned_by = PREV
							}
							dulkadir_area = {
								owned_by = PREV
							}
							cilicia_area = {
								owned_by = PREV
							}
							crimea_area = {
								owned_by = PREV
							}
							albania_area = {
								owned_by = PREV
							}
						}
						NOT = { is_subject_of = PREV }
					}
					
					reverse_add_casus_belli = {
						target = PREV
						type = cb_roman_east
					}
				}
			}
		}
		# cb_de_jure_wallachia
		WAL = {
			if = {
				limit = {
					exists = yes
					# is_subject = no
					singleplayer_or_ai_country_trigger = yes
				}
				
				every_neighbor_country = {
					limit = {
						PREV = {
							NOT = {
								has_casus_belli = {
									type = cb_de_jure_wallachia
									target = PREV
								}
							}
						}
						OR = {
							owns = 159 # Dobrogea
							owns = 2380 # Tulcea
							owns = 3782 # Constanta
							oltenia_area = {
								owned_by = PREV
							}
							muntenia_area = {
								owned_by = PREV
							}
						}
						NOT = { is_subject_of = PREV }
					}
					
					reverse_add_casus_belli = {
						target = PREV
						type = cb_de_jure_wallachia
					}
				}
			}
		}
		
		# cb_de_jure_moldavia
		MOL = {
			if = {
				limit = {
					exists = yes
					# is_subject = no
					singleplayer_or_ai_country_trigger = yes
				}
				
				every_neighbor_country = {
					limit = {
						PREV = {
							NOT = {
								has_casus_belli = {
									type = cb_de_jure_moldavia
									target = PREV
								}
							}
						}
						moldavia_area = {
							owned_by = PREV
						}
						NOT = { is_subject_of = PREV }
					}
					
					reverse_add_casus_belli = {
						target = PREV
						type = cb_de_jure_moldavia
					}
				}
			}
		}
		
		# cb_de_jure_hungary
		HUN = {
			if = {
				limit = {
					exists = yes
					# is_subject = no
					singleplayer_or_ai_country_trigger = yes
				}
				
				every_neighbor_country = {
					limit = {
						PREV = {
							NOT = {
								has_casus_belli = {
									type = cb_de_jure_hungary
									target = PREV
								}
							}
						}
						kingdom_of_hungary_group = {
							owned_by = PREV
						}
						NOT = { is_subject_of = PREV }
					}
					
					reverse_add_casus_belli = {
						target = PREV
						type = cb_de_jure_hungary
					}
				}
			}
		}
		
		# cb_de_jure_bulgaria
		BUL = {
			if = {
				limit = {
					exists = yes
					# is_subject = no
					adm_tech = 12
					singleplayer_or_ai_country_trigger = yes
				}
				
				every_neighbor_country = {
					limit = {
						PREV = {
							NOT = {
								has_casus_belli = {
									type = cb_de_jure_bulgaria
									target = PREV
								}
							}
						}
						OR = {
							owns = 147 # Chalcidiki
							owns = 2501 # Dimotika
							east_bulgaria_area = {
								owned_by = PREV
							}
							west_bulgaria_area = {
								owned_by = PREV
							}
							dobrogea_area = {
								owned_by = PREV
							}
							thrace_area = {
								owned_by = PREV
							}
							macedonia_area = {
								owned_by = PREV
							}
						}
						NOT = { is_subject_of = PREV }
					}
					
					reverse_add_casus_belli = {
						target = PREV
						type = cb_de_jure_bulgaria
					}
				}
			}
		}
		
		# cb_de_jure_serbia
		SER = {
			if = {
				limit = {
					exists = yes
					# is_subject = no
					adm_tech = 12
					singleplayer_or_ai_country_trigger = yes
				}
				
				every_neighbor_country = {
					limit = {
						PREV = {
							NOT = {
								has_casus_belli = {
									type = cb_de_jure_serbia
									target = PREV
								}
							}
						}
						OR = {
							owns = 147 # Chalcidiki
							owns = 3776 # Timocka Krajina
							macedonia_area = {
								owned_by = PREV
							}
							south_serbia_area = {
								owned_by = PREV
							}
							north_serbia_area = {
								owned_by = PREV
							}
						}
						NOT = { is_subject_of = PREV }
					}
					
					reverse_add_casus_belli = {
						target = PREV
						type = cb_de_jure_serbia
					}
				}
			}
		}
		
		# cb_de_jure_croatia
		CRO = {
			if = {
				limit = {
					exists = yes
					# is_subject = no
					singleplayer_or_ai_country_trigger = yes
				}
				
				every_neighbor_country = {
					limit = {
						PREV = {
							NOT = {
								has_casus_belli = {
									type = cb_de_jure_croatia
									target = PREV
								}
							}
						}
						OR = {
							owns = 2389 # Krajina
							croatia_area = {
								owned_by = PREV
							}
							east_adriatic_coast_area = {
								owned_by = PREV
							}
						}
						NOT = { is_subject_of = PREV }
					}
					
					reverse_add_casus_belli = {
						target = PREV
						type = cb_de_jure_croatia
					}
				}
			}
		}
		
		# cb_de_jure_bosnia
		BOS = {
			if = {
				limit = {
					exists = yes
					# is_subject = no
					singleplayer_or_ai_country_trigger = yes
				}
				
				every_neighbor_country = {
					limit = {
						PREV = {
							NOT = {
								has_casus_belli = {
									type = cb_de_jure_bosnia
									target = PREV
								}
							}
						}
						bosnia_area = {
							owned_by = PREV
						}
						NOT = { is_subject_of = PREV }
					}
					
					reverse_add_casus_belli = {
						target = PREV
						type = cb_de_jure_bosnia
					}
				}
			}
		}
		
		# cb_de_jure_albania
		ALB = {
			if = {
				limit = {
					exists = yes
					# is_subject = no
					singleplayer_or_ai_country_trigger = yes
				}
				
				every_neighbor_country = {
					limit = {
						PREV = {
							NOT = {
								has_casus_belli = {
									type = cb_de_jure_albania
									target = PREV
								}
							}
						}
						albania_area = {
							owned_by = PREV
						}
						NOT = { is_subject_of = PREV }
					}
					
					reverse_add_casus_belli = {
						target = PREV
						type = cb_de_jure_albania
					}
				}
			}
		}
		
		# cb_de_jure_albania
		ALC = {
			if = {
				limit = {
					exists = yes
					# is_subject = no
					singleplayer_or_ai_country_trigger = yes
				}
				
				every_neighbor_country = {
					limit = {
						PREV = {
							NOT = {
								has_casus_belli = {
									type = cb_de_jure_albania
									target = PREV
								}
							}
						}
						albania_area = {
							owned_by = PREV
						}
						NOT = { is_subject_of = PREV }
					}
					
					reverse_add_casus_belli = {
						target = PREV
						type = cb_de_jure_albania
					}
				}
			}
		}
		
		# cb_russian_expansion_east
		RUS = {
			if = {
				limit = {
					exists = yes
					# is_subject = no
				}
				
				every_neighbor_country = {
					limit = {
						PREV = {
							NOT = {
								has_casus_belli = {
									type = cb_russian_expansion_east
									target = PREV
								}
							}
						}
						culture_group = tartar_group
						OR = {
							west_siberia_region = {
								owned_by = PREV
							}
							east_siberia_region = {
								owned_by = PREV
							}
							central_asia_superregion = {
								owned_by = PREV
							}
						}
						NOT = { is_subject_of = PREV }
					}
					
					reverse_add_casus_belli = {
						target = PREV
						type = cb_russian_expansion_east
					}
				}
			}
		}
		
		# cb_de_jure_inca
		INC = {
			if = {
				limit = {
					exists = yes
					# is_subject = no
					singleplayer_or_ai_country_trigger = yes
				}
				
				every_neighbor_country = {
					limit = {
						PREV = {
							NOT = {
								has_casus_belli = {
									type = cb_de_jure_inca
									target = PREV
								}
							}
						}
						peru_region = {
							owned_by = PREV
						}
						NOT = { is_subject_of = PREV }
					}
					
					reverse_add_casus_belli = {
						target = PREV
						type = cb_de_jure_inca
					}
				}
			}
		}
		
		# cb_de_jure_inca
		CZC = {
			if = {
				limit = {
					exists = yes
					has_country_flag = inca_civil_war
					# is_subject = no
					singleplayer_or_ai_country_trigger = yes
				}
				
				every_neighbor_country = {
					limit = {
						PREV = {
							NOT = {
								has_casus_belli = {
									type = cb_de_jure_inca
									target = PREV
								}
							}
						}
						peru_region = {
							owned_by = PREV
						}
						NOT = { is_subject_of = PREV }
					}
					
					reverse_add_casus_belli = {
						target = PREV
						type = cb_de_jure_inca
					}
				}
			}
		}
		
		# cb_de_jure_inca
		QUI = {
			if = {
				limit = {
					exists = yes
					has_country_flag = inca_civil_war
					# is_subject = no
					singleplayer_or_ai_country_trigger = yes
				}
				
				every_neighbor_country = {
					limit = {
						PREV = {
							NOT = {
								has_casus_belli = {
									type = cb_de_jure_inca
									target = PREV
								}
							}
						}
						peru_region = {
							owned_by = PREV
						}
						NOT = { is_subject_of = PREV }
					}
					
					reverse_add_casus_belli = {
						target = PREV
						type = cb_de_jure_inca
					}
				}
			}
		}
		
		# cb_persian_unification
		PER = {
			if = {
				limit = {
					exists = yes
					# is_subject = no
					singleplayer_or_ai_country_trigger = yes
				}
				
				every_neighbor_country = {
					limit = {
						PREV = {
							NOT = {
								has_casus_belli = {
									type = cb_persian_unification
									target = PREV
								}
							}
						}
						culture_group = persian_group
						OR = {
							khorasan_region = {
								owned_by = PREV
							}
							persia_region = {
								owned_by = PREV
							}
							afghanistan_region = {
								owned_by = PREV
							}
						}
						NOT = { is_subject_of = PREV }
					}
					
					reverse_add_casus_belli = {
						target = PREV
						type = cb_persian_unification
					}
				}
			}
		}
		
		# cb_persian_unification
		TIM = {
			if = {
				limit = {
					exists = yes
					# is_subject = no
					singleplayer_or_ai_country_trigger = yes
				}
				
				every_neighbor_country = {
					limit = {
						PREV = {
							NOT = {
								has_casus_belli = {
									type = cb_persian_unification
									target = PREV
								}
							}
						}
						culture_group = persian_group
						OR = {
							khorasan_region = {
								owned_by = PREV
							}
							persia_region = {
								owned_by = PREV
							}
							afghanistan_region = {
								owned_by = PREV
							}
						}
						NOT = { is_subject_of = PREV }
					}
					
					reverse_add_casus_belli = {
						target = PREV
						type = cb_persian_unification
					}
				}
			}
		}
		
		# cb_moroccan_unification
		MOR = {
			if = {
				limit = {
					exists = yes
					# is_subject = no
					singleplayer_or_ai_country_trigger = yes
				}
				
				every_neighbor_country = {
					limit = {
						PREV = {
							NOT = {
								has_casus_belli = {
									type = cb_moroccan_unification
									target = PREV
								}
							}
						}
						OR = {
							owns = 1533 # Sabta
							owns = 334 # Tanja
							owns = 2971 # Tingitania
							tafilalt_area = {
								owned_by = PREV
							}
							sus_area = {
								owned_by = PREV
							}
							anfa_area = {
								owned_by = PREV
							}
							marrekesh_area = {
								owned_by = PREV
							}
							fez_area = {
								owned_by = PREV
							}
						}
						NOT = { is_subject_of = PREV }
					}
					
					reverse_add_casus_belli = {
						target = PREV
						type = cb_moroccan_unification
					}
				}
			}
		}
		
		# cb_moroccan_unification
		FEZ = {
			if = {
				limit = {
					exists = yes
					# is_subject = no
					singleplayer_or_ai_country_trigger = yes
				}
				
				every_neighbor_country = {
					limit = {
						PREV = {
							NOT = {
								has_casus_belli = {
									type = cb_moroccan_unification
									target = PREV
								}
							}
						}
						OR = {
							owns = 1533 # Sabta
							owns = 334 # Tanja
							owns = 2971 # Tingitania
							tafilalt_area = {
								owned_by = PREV
							}
							sus_area = {
								owned_by = PREV
							}
							anfa_area = {
								owned_by = PREV
							}
							marrekesh_area = {
								owned_by = PREV
							}
							fez_area = {
								owned_by = PREV
							}
						}
						NOT = { is_subject_of = PREV }
					}
					
					reverse_add_casus_belli = {
						target = PREV
						type = cb_moroccan_unification
					}
				}
			}
		}
		
		# cb_moroccan_unification
		TFL = {
			if = {
				limit = {
					exists = yes
					# is_subject = no
					singleplayer_or_ai_country_trigger = yes
				}
				
				every_neighbor_country = {
					limit = {
						PREV = {
							NOT = {
								has_casus_belli = {
									type = cb_moroccan_unification
									target = PREV
								}
							}
						}
						OR = {
							owns = 1533 # Sabta
							owns = 334 # Tanja
							owns = 2971 # Tingitania
							tafilalt_area = {
								owned_by = PREV
							}
							sus_area = {
								owned_by = PREV
							}
							anfa_area = {
								owned_by = PREV
							}
							marrekesh_area = {
								owned_by = PREV
							}
							fez_area = {
								owned_by = PREV
							}
						}
						NOT = { is_subject_of = PREV }
					}
					
					reverse_add_casus_belli = {
						target = PREV
						type = cb_moroccan_unification
					}
				}
			}
		}
		
		# cb_moroccan_unification
		SOS = {
			if = {
				limit = {
					exists = yes
					# is_subject = no
					singleplayer_or_ai_country_trigger = yes
				}
				
				every_neighbor_country = {
					limit = {
						PREV = {
							NOT = {
								has_casus_belli = {
									type = cb_moroccan_unification
									target = PREV
								}
							}
						}
						OR = {
							owns = 1533 # Sabta
							owns = 334 # Tanja
							owns = 2971 # Tingitania
							tafilalt_area = {
								owned_by = PREV
							}
							sus_area = {
								owned_by = PREV
							}
							anfa_area = {
								owned_by = PREV
							}
							marrekesh_area = {
								owned_by = PREV
							}
							fez_area = {
								owned_by = PREV
							}
						}
						NOT = { is_subject_of = PREV }
					}
					
					reverse_add_casus_belli = {
						target = PREV
						type = cb_moroccan_unification
					}
				}
			}
		}
		
		# cb_plantagenet_french_throne
		ENG = {
			if = {
				limit = {
					exists = yes
					exists = FRA
					# is_subject = no
					OR = {
						dynasty = "Plantagenet"
						dynasty = "Lancaster"
						dynasty = "York"
					}
					NOT = {
						has_casus_belli = {
							type = cb_plantagenet_french_throne
							target = FRA
						}
					}
					FRA = {
						dynasty = "de Valois"
						# is_subject = no
					}
					singleplayer_or_ai_country_trigger = yes
				}
				
				add_casus_belli = {
					target = FRA
					type = cb_plantagenet_french_throne
				}
			}
		}
		
		# cb_de_jure_france
		FRA = {
			if = {
				limit = {
					exists = yes
					# is_subject = no
					singleplayer_or_ai_country_trigger = yes
				}
				
				every_neighbor_country = {
					limit = {
						PREV = {
							NOT = {
								has_casus_belli = {
									type = cb_de_jure_france
									target = PREV
								}
							}
						}
						OR = {
							east_france_region = {
								owned_by = PREV
							}
							ouest_france_region = {
								owned_by = PREV
							}
							aquitaine_region = {
								owned_by = PREV
							}
							languedoc_region = {
								owned_by = PREV
							}
							high_countries_region = {
								owned_by = PREV
							}
							provence_region = {
								owned_by = PREV
								NOT = {
									AND = {
										province_id = 202 # Veneisi
										owned_by = PAP
									}
								}
							}
						}
						NOT = { is_subject_of = PREV }
					}
					
					reverse_add_casus_belli = {
						target = PREV
						type = cb_de_jure_france
					}
				}
			}
		}
		
		# cb_de_jure_england
		ENG = {
			if = {
				limit = {
					exists = yes
					# is_subject = no
					singleplayer_or_ai_country_trigger = yes
				}
				
				every_neighbor_country = {
					limit = {
						PREV = {
							NOT = {
								has_casus_belli = {
									type = cb_de_jure_england
									target = PREV
								}
							}
						}
						OR = {
							south_england_region = {
								owned_by = PREV
							}
							north_england_region = {
								owned_by = PREV
							}
						}
						NOT = { is_subject_of = PREV }
					}
					
					reverse_add_casus_belli = {
						target = PREV
						type = cb_de_jure_england
					}
				}
			}
		}
		
		# cb_de_jure_scotland
		SCO = {
			if = {
				limit = {
					exists = yes
					# is_subject = no
					singleplayer_or_ai_country_trigger = yes
				}
				
				every_neighbor_country = {
					limit = {
						PREV = {
							NOT = {
								has_casus_belli = {
									type = cb_de_jure_scotland
									target = PREV
								}
							}
						}
						scotland_region = {
							owned_by = PREV
						}
						NOT = { is_subject_of = PREV }
					}
					
					reverse_add_casus_belli = {
						target = PREV
						type = cb_de_jure_scotland
					}
				}
			}
		}
		
		# cb_de_jure_ireland
		IRE = {
			if = {
				limit = {
					exists = yes
					# is_subject = no
					singleplayer_or_ai_country_trigger = yes
				}
				
				every_neighbor_country = {
					limit = {
						PREV = {
							NOT = {
								has_casus_belli = {
									type = cb_de_jure_ireland
									target = PREV
								}
							}
						}
						ireland_region = {
							owned_by = PREV
						}
						NOT = { is_subject_of = PREV }
					}
					
					reverse_add_casus_belli = {
						target = PREV
						type = cb_de_jure_ireland
					}
				}
			}
		}
		
		# cb_de_jure_portugal
		POR = {
			if = {
				limit = {
					exists = yes
					# is_subject = no
					singleplayer_or_ai_country_trigger = yes
				}
				
				every_neighbor_country = {
					limit = {
						PREV = {
							NOT = {
								has_casus_belli = {
									type = cb_de_jure_portugal
									target = PREV
								}
							}
						}
						portugal_region = {
							owned_by = PREV
						}
						NOT = { is_subject_of = PREV }
					}
					
					reverse_add_casus_belli = {
						target = PREV
						type = cb_de_jure_portugal
					}
				}
			}
		}
		
		# cb_de_jure_castile
		CAS = {
			if = {
				limit = {
					exists = yes
					# is_subject = no
					singleplayer_or_ai_country_trigger = yes
				}
				
				every_neighbor_country = {
					limit = {
						PREV = {
							NOT = {
								has_casus_belli = {
									type = cb_de_jure_castile
									target = PREV
								}
							}
						}
						OR = {
							leon_region = {
								owned_by = PREV
							}
							castille_region = {
								owned_by = PREV
							}
							andalucia_region = {
								owned_by = PREV
							}
						}
						NOT = { is_subject_of = PREV }
					}
					
					reverse_add_casus_belli = {
						target = PREV
						type = cb_de_jure_castile
					}
				}
			}
		}
		
		# cb_de_jure_aragon
		ARA = {
			if = {
				limit = {
					exists = yes
					# is_subject = no
					singleplayer_or_ai_country_trigger = yes
				}
				
				every_neighbor_country = {
					limit = {
						PREV = {
							NOT = {
								has_casus_belli = {
									type = cb_de_jure_aragon
									target = PREV
								}
							}
						}
						aragon_region = {
							owned_by = PREV
						}
						NOT = { is_subject_of = PREV }
					}
					
					reverse_add_casus_belli = {
						target = PREV
						type = cb_de_jure_aragon
					}
				}
			}
		}
		
		# cb_de_jure_spain
		SPA = {
			if = {
				limit = {
					exists = yes
					# is_subject = no
					singleplayer_or_ai_country_trigger = yes
				}
				
				every_neighbor_country = {
					limit = {
						PREV = {
							NOT = {
								has_casus_belli = {
									type = cb_de_jure_spain
									target = PREV
								}
							}
						}
						OR = {
							leon_region = {
								owned_by = PREV
							}
							castille_region = {
								owned_by = PREV
							}
							andalucia_region = {
								owned_by = PREV
							}
							aragon_region = {
								owned_by = PREV
							}
						}
						NOT = { is_subject_of = PREV }
					}
					
					reverse_add_casus_belli = {
						target = PREV
						type = cb_de_jure_spain
					}
				}
			}
		}
		
		# cb_de_jure_navarre
		NAV = {
			if = {
				limit = {
					exists = yes
					# is_subject = no
					singleplayer_or_ai_country_trigger = yes
				}
				
				every_neighbor_country = {
					limit = {
						PREV = {
							NOT = {
								has_casus_belli = {
									type = cb_de_jure_navarre
									target = PREV
								}
							}
						}
						euskal_area = {
							owned_by = PREV
						}
						NOT = { is_subject_of = PREV }
					}
					
					reverse_add_casus_belli = {
						target = PREV
						type = cb_de_jure_navarre
					}
				}
			}
		}
		
		# cb_de_jure_netherland
		NED = {
			if = {
				limit = {
					exists = yes
					# is_subject = no
					singleplayer_or_ai_country_trigger = yes
				}
				
				every_neighbor_country = {
					limit = {
						PREV = {
							NOT = {
								has_casus_belli = {
									type = cb_de_jure_netherland
									target = PREV
								}
							}
						}
						OR = {
							belgii_region = {
								owned_by = PREV
							}
							low_countries_region = {
								owned_by = PREV
							}
						}
						NOT = { is_subject_of = PREV }
					}
					
					reverse_add_casus_belli = {
						target = PREV
						type = cb_de_jure_netherland
					}
				}
			}
		}
		
		# cb_de_jure_germany
		GER = {
			if = {
				limit = {
					exists = yes
					# is_subject = no
					singleplayer_or_ai_country_trigger = yes
				}
				
				every_neighbor_country = {
					limit = {
						PREV = {
							NOT = {
								has_casus_belli = {
									type = cb_de_jure_germany
									target = PREV
								}
							}
						}
						OR = {
							germany_superregion = {
								owned_by = PREV
							}
							swabia_bavarian_region = {
								owned_by = PREV
							}
						}
						NOT = { is_subject_of = PREV }
					}
					
					reverse_add_casus_belli = {
						target = PREV
						type = cb_de_jure_germany
					}
				}
			}
		}
		
		# cb_de_jure_germany
		ERG = {
			if = {
				limit = {
					exists = yes
					# is_subject = no
					singleplayer_or_ai_country_trigger = yes
				}
				
				every_neighbor_country = {
					limit = {
						PREV = {
							NOT = {
								has_casus_belli = {
									type = cb_de_jure_germany
									target = PREV
								}
							}
						}
						OR = {
							germany_superregion = {
								owned_by = PREV
							}
							swabia_bavarian_region = {
								owned_by = PREV
							}
						}
						NOT = { is_subject_of = PREV }
					}
					
					reverse_add_casus_belli = {
						target = PREV
						type = cb_de_jure_germany
					}
				}
			}
		}
		
		# cb_de_jure_italy
		ITA = {
			if = {
				limit = {
					exists = yes
					# is_subject = no
					singleplayer_or_ai_country_trigger = yes
				}
				
				every_neighbor_country = {
					limit = {
						PREV = {
							NOT = {
								has_casus_belli = {
									type = cb_de_jure_italy
									target = PREV
								}
							}
						}
						OR = {
							east_italy_region = {
								owned_by = PREV
							}
							west_italy_region = {
								owned_by = PREV
							}
							central_italy_region = {
								owned_by = PREV
							}
						}
						NOT = { is_subject_of = PREV }
					}
					
					reverse_add_casus_belli = {
						target = PREV
						type = cb_de_jure_italy
					}
				}
			}
		}
		
		# cb_de_jure_italy
		ITC = {
			if = {
				limit = {
					exists = yes
					# is_subject = no
					singleplayer_or_ai_country_trigger = yes
				}
				
				every_neighbor_country = {
					limit = {
						PREV = {
							NOT = {
								has_casus_belli = {
									type = cb_de_jure_italy
									target = PREV
								}
							}
						}
						OR = {
							east_italy_region = {
								owned_by = PREV
							}
							west_italy_region = {
								owned_by = PREV
							}
							central_italy_region = {
								owned_by = PREV
							}
						}
						NOT = { is_subject_of = PREV }
					}
					
					reverse_add_casus_belli = {
						target = PREV
						type = cb_de_jure_italy
					}
				}
			}
		}
		
		# cb_de_jure_italy
		ITD = {
			if = {
				limit = {
					exists = yes
					# is_subject = no
					singleplayer_or_ai_country_trigger = yes
				}
				
				every_neighbor_country = {
					limit = {
						PREV = {
							NOT = {
								has_casus_belli = {
									type = cb_de_jure_italy
									target = PREV
								}
							}
						}
						OR = {
							east_italy_region = {
								owned_by = PREV
							}
							west_italy_region = {
								owned_by = PREV
							}
							central_italy_region = {
								owned_by = PREV
							}
						}
						NOT = { is_subject_of = PREV }
					}
					
					reverse_add_casus_belli = {
						target = PREV
						type = cb_de_jure_italy
					}
				}
			}
		}
		
		# cb_de_jure_italy
		ITE = {
			if = {
				limit = {
					exists = yes
					# is_subject = no
					singleplayer_or_ai_country_trigger = yes
				}
				
				every_neighbor_country = {
					limit = {
						PREV = {
							NOT = {
								has_casus_belli = {
									type = cb_de_jure_italy
									target = PREV
								}
							}
						}
						OR = {
							east_italy_region = {
								owned_by = PREV
							}
							west_italy_region = {
								owned_by = PREV
							}
							central_italy_region = {
								owned_by = PREV
							}
						}
						NOT = { is_subject_of = PREV }
					}
					
					reverse_add_casus_belli = {
						target = PREV
						type = cb_de_jure_italy
					}
				}
			}
		}
		
		# cb_de_jure_plc
		PLC = {
			if = {
				limit = {
					exists = yes
					# is_subject = no
					singleplayer_or_ai_country_trigger = yes
				}
				
				every_neighbor_country = {
					limit = {
						PREV = {
							NOT = {
								has_casus_belli = {
									type = cb_de_jure_plc
									target = PREV
								}
							}
						}
						OR = {
							polonia_major_region = {
								owned_by = PREV
							}
							polonia_minor_region = {
								owned_by = PREV
							}
							ruthenia_region = {
								owned_by = PREV
							}
							lithuania_region = {
								owned_by = PREV
							}
							central_italy_region = {
								owned_by = PREV
							}
						}
						NOT = { is_subject_of = PREV }
					}
					
					reverse_add_casus_belli = {
						target = PREV
						type = cb_de_jure_plc
					}
				}
			}
		}
		
		# cb_de_jure_sweden
		SWE = {
			if = {
				limit = {
					exists = yes
					# is_subject = no
					singleplayer_or_ai_country_trigger = yes
				}
				
				every_neighbor_country = {
					limit = {
						PREV = {
							NOT = {
								has_casus_belli = {
									type = cb_de_jure_sweden
									target = PREV
								}
							}
						}
						OR = {
							scandinavia_region = {
								owned_by = PREV
							}
							finland_region = {
								owned_by = PREV
							}
						}
						NOT = { is_subject_of = PREV }
					}
					
					reverse_add_casus_belli = {
						target = PREV
						type = cb_de_jure_sweden
					}
				}
			}
		}
		
		# cb_de_jure_denmark
		DEN = {
			if = {
				limit = {
					exists = yes
					# is_subject = no
					singleplayer_or_ai_country_trigger = yes
				}
				
				every_neighbor_country = {
					limit = {
						PREV = {
							NOT = {
								has_casus_belli = {
									type = cb_de_jure_denmark
									target = PREV
								}
							}
						}
						danish_region = {
							owned_by = PREV
						}
						NOT = { is_subject_of = PREV }
					}
					
					reverse_add_casus_belli = {
						target = PREV
						type = cb_de_jure_denmark
					}
				}
			}
		}
		
		# cb_de_jure_norway
		NOR = {
			if = {
				limit = {
					exists = yes
					# is_subject = no
					singleplayer_or_ai_country_trigger = yes
				}
				
				every_neighbor_country = {
					limit = {
						PREV = {
							NOT = {
								has_casus_belli = {
									type = cb_de_jure_norway
									target = PREV
								}
							}
						}
						norwegian_region = {
							owned_by = PREV
						}
						NOT = { is_subject_of = PREV }
					}
					
					reverse_add_casus_belli = {
						target = PREV
						type = cb_de_jure_norway
					}
				}
			}
		}
		
		# cb_de_jure_norway
		NOR = {
			if = {
				limit = {
					exists = yes
					# is_subject = no
					singleplayer_or_ai_country_trigger = yes
				}
				
				every_neighbor_country = {
					limit = {
						PREV = {
							NOT = {
								has_casus_belli = {
									type = cb_de_jure_norway
									target = PREV
								}
							}
						}
						norwegian_region = {
							owned_by = PREV
						}
						NOT = { is_subject_of = PREV }
					}
					
					reverse_add_casus_belli = {
						target = PREV
						type = cb_de_jure_norway
					}
				}
			}
		}
		
		# cb_de_jure_denmark_norway
		DAN = {
			if = {
				limit = {
					exists = yes
					# is_subject = no
					singleplayer_or_ai_country_trigger = yes
				}
				
				every_neighbor_country = {
					limit = {
						PREV = {
							NOT = {
								has_casus_belli = {
									type = cb_de_jure_denmark_norway
									target = PREV
								}
							}
						}
						OR = {
							norwegian_region = {
								owned_by = PREV
							}
							danish_region = {
								owned_by = PREV
							}
						}
						NOT = { is_subject_of = PREV }
					}
					
					reverse_add_casus_belli = {
						target = PREV
						type = cb_de_jure_denmark_norway
					}
				}
			}
		}
		
		# cb_de_jure_poland
		POL = {
			if = {
				limit = {
					exists = yes
					# is_subject = no
					singleplayer_or_ai_country_trigger = yes
				}
				
				every_neighbor_country = {
					limit = {
						PREV = {
							NOT = {
								has_casus_belli = {
									type = cb_de_jure_poland
									target = PREV
								}
							}
						}
						polonia_major_region = {
							owned_by = PREV
						}
						polonia_minor_region = {
							owned_by = PREV
						}
						NOT = { is_subject_of = PREV }
					}
					
					reverse_add_casus_belli = {
						target = PREV
						type = cb_de_jure_poland
					}
				}
			}
		}
		
		# cb_de_jure_lithuania
		LIT = {
			if = {
				limit = {
					exists = yes
					# is_subject = no
					singleplayer_or_ai_country_trigger = yes
				}
				
				every_neighbor_country = {
					limit = {
						PREV = {
							NOT = {
								has_casus_belli = {
									type = cb_de_jure_lithuania
									target = PREV
								}
							}
						}
						lithuania_region = {
							owned_by = PREV
						}
						NOT = { is_subject_of = PREV }
					}
					
					reverse_add_casus_belli = {
						target = PREV
						type = cb_de_jure_lithuania
					}
				}
			}
		}
		
		# cb_de_jure_sicily
		SIC = {
			if = {
				limit = {
					exists = yes
					# is_subject = no
					singleplayer_or_ai_country_trigger = yes
				}
				
				every_neighbor_country = {
					limit = {
						PREV = {
							NOT = {
								has_casus_belli = {
									type = cb_de_jure_sicily
									target = PREV
								}
							}
						}
						OR = {
							sicily_region = {
								owned_by = PREV
							}
							naples_region = {
								owned_by = PREV
							}
						}
						NOT = { is_subject_of = PREV }
					}
					
					reverse_add_casus_belli = {
						target = PREV
						type = cb_de_jure_sicily
					}
				}
			}
		}
		
		# cb_de_jure_sicily
		KNP = {
			if = {
				limit = {
					exists = yes
					# is_subject = no
					singleplayer_or_ai_country_trigger = yes
				}
				
				every_neighbor_country = {
					limit = {
						PREV = {
							NOT = {
								has_casus_belli = {
									type = cb_de_jure_sicily
									target = PREV
								}
							}
						}
						OR = {
							sicily_region = {
								owned_by = PREV
							}
							naples_region = {
								owned_by = PREV
							}
						}
						NOT = { is_subject_of = PREV }
					}
					
					reverse_add_casus_belli = {
						target = PREV
						type = cb_de_jure_sicily
					}
				}
			}
		}
		
		# cb_de_jure_sicily
		NAP = {
			if = {
				limit = {
					exists = yes
					# is_subject = no
					singleplayer_or_ai_country_trigger = yes
				}
				
				every_neighbor_country = {
					limit = {
						PREV = {
							NOT = {
								has_casus_belli = {
									type = cb_de_jure_sicily
									target = PREV
								}
							}
						}
						OR = {
							sicily_region = {
								owned_by = PREV
							}
							naples_region = {
								owned_by = PREV
							}
						}
						NOT = { is_subject_of = PREV }
					}
					
					reverse_add_casus_belli = {
						target = PREV
						type = cb_de_jure_sicily
					}
				}
			}
		}
		
		# cb_de_jure_bohemia
		BOH = {
			if = {
				limit = {
					exists = yes
					# is_subject = no
					singleplayer_or_ai_country_trigger = yes
				}
				
				every_neighbor_country = {
					limit = {
						PREV = {
							NOT = {
								has_casus_belli = {
									type = cb_de_jure_bohemia
									target = PREV
								}
							}
						}
						OR = {
							royal_bohemia_area = {
								owned_by = PREV
							}
							north_bohemia_area = {
								owned_by = PREV
							}
							moravia_area = {
								owned_by = PREV
							}
						}
						NOT = { is_subject_of = PREV }
					}
					
					reverse_add_casus_belli = {
						target = PREV
						type = cb_de_jure_bohemia
					}
				}
			}
		}
		
		# cb_caliphate
		TUR = {
			if = {
				limit = {
					exists = yes
					exists = MAM
					# is_subject = no
					owns = 1402 # Konstantinoupolis
					NOT = {
						has_casus_belli = {
							type = cb_caliphate
							target = MAM
						}
					}
					MAM = {
						OR = {
							egypt_region = {
								owned_by = PREV
							}
							west_maghreb_region = {
								owned_by = PREV
							}
							central_maghreb_region = {
								owned_by = PREV
							}
							east_maghreb_region = {
								owned_by = PREV
							}
						}
						NOT = { is_subject_of = PREV }
					}
					singleplayer_or_ai_country_trigger = yes
					OR = {
						ai = no
						NOT = { has_country_flag = great_predator }
					}
				}
				
				add_casus_belli = {
					target = MAM
					type = cb_caliphate
				}
			}
		}
		
		# cb_de_jure_afghnistan
		DUR = {
			if = {
				limit = {
					exists = yes
					# is_subject = no
					singleplayer_or_ai_country_trigger = yes
				}
				
				every_neighbor_country = {
					limit = {
						PREV = {
							NOT = {
								has_casus_belli = {
									type = cb_de_jure_afghnistan
									target = PREV
								}
							}
						}
						afghanistan_region = {
							owned_by = PREV
						}
						NOT = { is_subject_of = PREV }
					}
					
					reverse_add_casus_belli = {
						target = PREV
						type = cb_de_jure_afghnistan
					}
				}
			}
		}
		
		# cb_de_jure_afghnistan
		KAB = {
			if = {
				limit = {
					exists = yes
					# is_subject = no
					singleplayer_or_ai_country_trigger = yes
				}
				
				every_neighbor_country = {
					limit = {
						PREV = {
							NOT = {
								has_casus_belli = {
									type = cb_de_jure_afghnistan
									target = PREV
								}
							}
						}
						afghanistan_region = {
							owned_by = PREV
						}
						NOT = { is_subject_of = PREV }
					}
					
					reverse_add_casus_belli = {
						target = PREV
						type = cb_de_jure_afghnistan
					}
				}
			}
		}
		
		# cb_roman_crusade
		2530 = {
			if = {
				limit = {
					NOT = {
						OR = {
							owned_by = PAP
							owner = { is_subject_of = PAP }
							has_province_modifier = independent_vatican
							AND = {
								tag = AVI
								government = papal_government
							}
						}
					}
					PAP = {
						check_variable = {
							which = papal_authority
							value = 300
						}
					}
				}
				
				owner = {
					every_known_country = {
						limit = {
							religion = catholic
							# is_subject = no
							NOT = {
								has_casus_belli = {
									type = cb_roman_crusade
									target = PREV
								}
							}
							piety = -0.20
							is_excommunicated = no
							NOT = { has_country_flag = excommunicated }
							OR = {
								ai = no
								NOT = { has_country_flag = great_predator }
							}
						}
						
						add_casus_belli = {
							target = PREV
							type = cb_roman_crusade
						}
					}
				}
			}
		}
		
		# cb_meccan_jihad
		385 = {
			owner = {
				if = {
					limit = {
						NOT = {
							AND = {
								religion_group = muslim
								OR = {
									religion = sunni
									religion = shiite
									religion = wahhabi
									religion = ibadi
								}
							}
						}
					}
					
					every_known_country = {
						limit = {
							religion_group = muslim
							# is_subject = no
							piety = -0.20
							NOT = {
								has_casus_belli = {
									type = cb_meccan_jihad
									target = PREV
								}
							}
							OR = {
								religion = sunni
								religion = shiite
								religion = wahhabi
								religion = ibadi
							}
							OR = {
								ai = no
								NOT = { has_country_flag = great_predator }
							}
						}
						
						add_casus_belli = {
							target = PREV
							type = cb_meccan_jihad
						}
					}
				}
			}
		}
		
		# cb_jerusalem_milkhemet
		379 = {
			owner = {
				if = {
					limit = {
						NOT = { religion = jewish }
					}
					
					every_known_country = {
						limit = {
							religion = jewish
							# is_subject = no
							piety = -0.20
							NOT = {
								has_casus_belli = {
									type = cb_jerusalem_milkhemet
									target = PREV
								}
							}
							OR = {
								ai = no
								NOT = { has_country_flag = great_predator }
							}
						}
						
						add_casus_belli = {
							target = PREV
							type = cb_jerusalem_milkhemet
						}
					}
				}
			}
		}
		
		# cb_religious_league_minor
		emperor = {
			if = {
				limit = {
					has_dlc = "Art of War"
					is_in_league_war = no
				}
				
				every_known_country = {
					limit = {
						NOT = {
							has_casus_belli = {
								type = cb_religious_league_minor
								target = PREV
							}
						}
						is_league_leader = yes
						is_in_league_war = no
						is_league_enemy = PREV
						OR = {
							ai = no
							NOT = { has_country_flag = great_predator }
						}
						is_revolution_target = no
					}
					
					add_casus_belli = {
						target = PREV
						type = cb_religious_league_minor
					}
				}
			}
		}
		
		# cb_schism
		if = {
			limit = {
				has_global_flag = catholic_schism
			}
			
			every_country = {
				limit = {
					religion = catholic
					OR = {
						piety = 0.20
						is_defender_of_faith = yes
						is_papal_controller = yes
						has_country_flag = sponsored_antipope
					}
					OR = {
						ai = no
						NOT = { has_country_flag = great_predator }
					}
				}
				if = {
					limit = {
						has_country_flag = support_antipope
						NOT = {
							has_casus_belli = {
								type = cb_schism
								target = PAP
							}
						}
					}
					add_casus_belli = {
						target = PAP
						type = cb_schism
					}
				}
				else_if = {
					limit = {
						has_country_flag = support_roman_pope
						NOT = {
							has_casus_belli = {
								type = cb_schism
								target = AVI
							}
						}
					}
					add_casus_belli = {
						target = AVI
						type = cb_schism
					}
				}
			}
		}
		
		# cb_de_jure_vietnam
		# cb_de_jure_hungary
		# cb_russian_unification
		# cb_de_jure_bohemia
		# cb_rum_sultanate
		# cb_excommunication
		# cb_rival_caliph
		# cb_claim_caliph
		# cb_flower_war
		# cb_schism
		# cb_de_jure_hindustan
		every_country = {
			limit = {
				always = yes
			}
			if = {
				limit = {
					is_tribal = yes
				}
				every_neighbor_country = {
					limit = {
						NOT = { is_subject_of = PREV }
					}
					reverse_add_casus_belli = {
						target = PREV
						type = cb_tribal_raid
					}
				}
			}
			if = {
				limit = {
					is_nomad = yes
				}
				if = {
					limit = {
						NOT = { government = tribal_nomads }
						NOT = { government = tribal_nomads_hereditary }
						horde_unity = 80
						mil = 5
					}
					every_neighbor_country = {
						limit = {
							is_nomad = yes
							NOT = { is_subject_of = PREV }
						}
						reverse_add_casus_belli = {
							target = PREV
							type = cb_nomadic_submission
						}
					}
				}
				if = {
					limit = {
						OR = {
							AND = {
								NOT = { government = tribal_nomads }
								NOT = { government = tribal_nomads_hereditary }
								NOT = {
									OR = {
										AND = {
											horde_unity = 95
											mil = 5
										}
										AND = {
											horde_unity = 85
											mil = 6
										}
									}
								}
								OR = {
									horde_unity = 50
									mil = 3
								}
							}
							AND = {
								OR = {
									government = tribal_nomads
									government = tribal_nomads_hereditary
								}
								OR = {
									AND = {
										horde_unity = 95
										mil = 4
									}
									AND = {
										horde_unity = 85
										mil = 6
									}
								}
							}
						}
					}
					every_neighbor_country = {
						limit = {
							NOT = { is_subject_of = PREV }
						}
						reverse_add_casus_belli = {
							target = PREV
							type = cb_nomadic_conquest
						}
					}
				}
				else_if = {
					limit = {
						NOT = { government = tribal_nomads }
						NOT = { government = tribal_nomads_hereditary }
						OR = {
							AND = {
								horde_unity = 95
								mil = 5
							}
							AND = {
								horde_unity = 85
								mil = 6
							}
						}
					}
					every_neighbor_country = {
						limit = {
							NOT = { is_subject_of = PREV }
						}
						reverse_add_casus_belli = {
							target = PREV
							type = cb_nomadic_conquest_mil
						}
					}
				}
				if = {
					limit = {
						OR = {
							AND = {
								NOT = { government = tribal_nomads }
								NOT = { government = tribal_nomads_hereditary }
								horde_unity = 25
								mil = 2
							}
							AND = {
								OR = {
									government = tribal_nomads
									government = tribal_nomads_hereditary
								}
								horde_unity = 50
								OR = {
									mil = 4
									horde_unity = 85
								}
							}
						}
					}
					every_neighbor_country = {
						limit = {
							NOT = { is_subject_of = PREV }
						}
						reverse_add_casus_belli = {
							target = PREV
							type = cb_nomadic_tribute
						}
					}
				}
			}
			if = {
				limit = {
					has_country_flag = heir_to_rome
				}
				every_neighbor_country = {
					limit = {
						NOT = {
							has_casus_belli = {
								type = cb_crush_rome
								target = PREV
							}
						}
						NOT = { is_subject_of = PREV }
					}
					add_casus_belli = {
						target = PREV
						type = cb_crush_rome
					}
				}
				if = {
					limit = {
						has_country_flag = pax_romana_declared
					}
					every_neighbor_country = {
						limit = {
							PREV = {
								NOT = {
									has_casus_belli = {
										type = cb_pax_romana
										target = PREV
									}
								}
							}
							NOT = { is_subject_of = PREV }
						}
						reverse_add_casus_belli = {
							target = PREV
							type = cb_pax_romana
						}
					}
				}
				every_neighbor_country = {
					limit = {
						PREV = {
							NOT = {
								has_casus_belli = {
									type = cb_heir_to_rome
									target = PREV
								}
							}
						}
						OR = {
							austrian_circle_region = {
								owned_by = PREV
							}
							switzerland_region = {
								owned_by = PREV
							}
							france_superregion = {
								owned_by = PREV
							}
							iberia_superregion = {
								owned_by = PREV
							}
							italy_superregion = {
								owned_by = PREV
							}
							west_balkan_region = {
								owned_by = PREV
							}
							east_balkan_region = {
								owned_by = PREV
							}
							central_balkan_region = {
								owned_by = PREV
							}
							greece_region = {
								owned_by = PREV
							}
							north_anatolia_region = {
								owned_by = PREV
							}
							south_anatolia_region = {
								owned_by = PREV
							}
							al_sham_region = {
								owned_by = PREV
							}
							al_iraq_region = {
								owned_by = PREV
							}
							armenia_region = {
								owned_by = PREV
							}
							egypt_region = {
								owned_by = PREV
							}
							west_maghreb_region = {
								owned_by = PREV
							}
							central_maghreb_region = {
								owned_by = PREV
							}
							east_maghreb_region = {
								owned_by = PREV
							}
							south_england_region = {
								owned_by = PREV
							}
							north_england_region = {
								owned_by = PREV
							}
							upper_rhine_area = {
								owned_by = PREV
							}
							middle_rhine_area = {
								owned_by = PREV
							}
							lower_rhine_area = {
								owned_by = PREV
							}
							alsace_area = {
								owned_by = PREV
							}
							77 = {
								owned_by = PREV
							}
							upper_swabia_area = {
								owned_by = PREV
							}
							upper_bavaria_area = {
								owned_by = PREV
							}
							transdanubia_area = {
								owned_by = PREV
							}
							alfold_area = {
								owned_by = PREV
							}
							transylvania_area = {
								owned_by = PREV
							}
							oltenia_area = {
								owned_by = PREV
							}
							crimea_area = {
								owned_by = PREV
							}
							3795 = {
								owned_by = PREV
							}
							1298 = {
								owned_by = PREV
							}
							west_georgia_area = {
								owned_by = PREV
							}
							east_georgia_area = {
								owned_by = PREV
							}
							abkhazia_area = {
								owned_by = PREV
							}
							1317 = {
								owned_by = PREV
							}
							3810 = {
								owned_by = PREV
							}
							3811 = {
								owned_by = PREV
							}
							424 = {
								owned_by = PREV
							}
							425 = {
								owned_by = PREV
							}
							belgii_region = {
								owned_by = PREV
							}
							2449 = {
								owned_by = PREV
							}
							96 = {
								owned_by = PREV
							}
						}
						NOT = { is_subject_of = PREV }
					}
					reverse_add_casus_belli = {
						target = PREV
						type = cb_heir_to_rome
					}
				}
				every_known_country = { # Allows overseas conquest within the Mediterranean
					limit = {
						PREV = {
							NOT = {
								has_casus_belli = {
									type = cb_heir_to_rome
									target = PREV
								}
							}
						}
						NOT = { is_subject_of = PREV }
						any_owned_province = {
							sea_zone = { region = mediterranean_region }
							# Avoid certain areas where landfall should not be made
							NOT = { region = caucasia_region }
							OR = {
								area = crimea_area
								NOT = { region = crimea_region }
							}
							NOT = { area = basarabia_area }
						}
						NOT = {
							border_distance = {
								who = PREV
								distance = 110
							}
						}
					}
					reverse_add_casus_belli = {
						target = PREV
						type = cb_heir_to_rome
					}
				}
			}
			
			# cb_de_jure_hindustan
			if = {
				limit = {
					OR = {
						capital_scope = {
							OR = {
								superregion = west_india_superregion
								superregion = north_india_superregion
								superregion = rajputana_superregion
								superregion = east_india_superregion
								region = afghanistan_region
								region = khorasan_region
							}
						}
						tag = MUG
						tag = DLH
					}
					
					AND = {
						religion_group = muslim
						NOT = { religion = druze }
					}
					
					MIL = 3
					
					OR = {
						ai = no
						NOT = { has_country_flag = great_predator }
					}
				}
				every_neighbor_country = {
					limit = {
						any_owned_province = {
							continent = indian_continent
							
							OR = {
								superregion = west_india_superregion
								superregion = north_india_superregion
								superregion = rajputana_superregion
								superregion = east_india_superregion
								region = central_india_region
							}
							
							NOT = { area = assam_area }
						}
						NOT = { overlord_of = PREV }
						NOT = { is_subject_of = PREV }
						
						NOT = { tag = BAL }
						NOT = { tag = PER }
					}
					reverse_add_casus_belli = {
						target = PREV
						type = cb_de_jure_hindustan
					}
				}
			}
			
			# cb_de_jure_carnatic
			if = {
				limit = {
					capital_scope = { continent = indian_continent }
					
					MIL = 3
					
					OR = {
						tag = MUG
						tag = HYD
						
						AND = {
							religion_group = muslim
							capital_scope = {
								OR = {
									superregion = west_india_superregion
									superregion = north_india_superregion
									superregion = rajputana_superregion
									superregion = east_india_superregion
									region = central_india_region
								}
							}
							NOT = { religion = druze }
							MIL = 4
						}
						
						capital_scope = {
							OR = {
								superregion = central_india_superregion
								superregion = south_india_superregion
							}
							
							OR = {
								region = carnatic_region
								area = mysore_area
								region = west_deccan_region
								region = east_deccan_region
								region = western_ghats_region
							}
						}
					}
					
					OR = {
						ai = no
						NOT = { has_country_flag = great_predator }
					}
				}
				every_neighbor_country = {
					limit = {
						any_owned_province = {
							OR = {
								superregion = central_india_superregion
								superregion = south_india_superregion
							}
							OR = {
								region = carnatic_region
								area = mysore_area
							}
						}
						
						NOT = { overlord_of = PREV }
						NOT = { is_subject_of = PREV }
					}
					reverse_add_casus_belli = {
						target = PREV
						type = cb_de_jure_carnatic
					}
				}
			}
			
			# cb_de_jure_deccan
			if = {
				limit = {
					capital_scope = { continent = indian_continent }
					MIL = 3
					
					OR = {
						tag = MAR
						tag = MUG
						
						AND = {
							religion_group = muslim
							capital_scope = {
								OR = {
									superregion = west_india_superregion
									superregion = north_india_superregion
									superregion = rajputana_superregion
									superregion = east_india_superregion
								}
							}
							NOT = { religion = druze }
							MIL = 4
						}
						
						capital_scope = {
							OR = {
								superregion = central_india_superregion
								superregion = south_india_superregion
							}
							OR = {
								region = west_deccan_region
								region = east_deccan_region
								region = western_ghats_region
								region = carnatic_region
							}
						}
					}
					
					OR = {
						ai = no
						NOT = { has_country_flag = great_predator }
					}
				}
				every_neighbor_country = {
					limit = {
						any_owned_province = {
							OR = {
								superregion = central_india_superregion
								superregion = south_india_superregion
							}
							OR = {
								region = west_deccan_region
								region = east_deccan_region
								area = rayalaseema_area #Vijayanagara
								area = kanara_area
							}
						}
						
						NOT = { overlord_of = PREV }
						NOT = { is_subject_of = PREV }
					}
					reverse_add_casus_belli = {
						target = PREV
						type = cb_de_jure_deccan
					}
				}
			}
			
			# cb_unite_the_raj
			if = {
				limit = {
					government = trade_company_gov
					
					OR = {
						ai = no
						NOT = { has_country_flag = great_predator }
					}
				}
				every_neighbor_country = {
					limit = {
						any_owned_province = {
							continent = indian_continent
						}
						NOT = { is_subject_of = ROOT }
						NOT = { overlord_of = ROOT }
					}
					reverse_add_casus_belli = {
						target = PREV
						type = cb_unite_the_raj
					}
				}
			}
			
			# cb_de_jure_vietnam
			if = {
				limit = {
					primary_culture = vietnamese
					# is_subject = no
					OR = {
						MIL = 4
						statesman = 3
						adm_tech = 44
					}
					singleplayer_or_ai_country_trigger = yes
				}
				
				every_neighbor_country = {
					limit = {
						PREV = {
							NOT = {
								has_casus_belli = {
									type = cb_de_jure_vietnam
									target = PREV
								}
							}
						}
						vietnam_region = {
							owned_by = PREV
						}
						NOT = { is_subject_of = PREV }
					}
					
					reverse_add_casus_belli = {
						target = PREV
						type = cb_de_jure_vietnam
					}
				}
			}
			
			# cb_de_jure_hungary
			if = {
				limit = {
					has_country_flag = king_of_hungary_outside
					# is_subject = no
					singleplayer_or_ai_country_trigger = yes
				}
				
				every_neighbor_country = {
					limit = {
						PREV = {
							NOT = {
								has_casus_belli = {
									type = cb_de_jure_hungary
									target = PREV
								}
							}
						}
						kingdom_of_hungary_group = {
							owned_by = PREV
						}
						NOT = { is_subject_of = PREV }
					}
					
					reverse_add_casus_belli = {
						target = PREV
						type = cb_de_jure_hungary
					}
				}
			}
			
			# cb_russian_unification
			if = {
				limit = {
					has_country_flag = rus_formed
					# is_subject = no
					singleplayer_or_ai_country_trigger = yes
				}
				
				every_neighbor_country = {
					limit = {
						PREV = {
							NOT = {
								has_casus_belli = {
									type = cb_russian_unification
									target = PREV
								}
							}
						}
						OR = {
							culture_group = east_slavic
							culture_group = tartar_group
						}
						OR = {
							north_russia_region = {
								owned_by = PREV
							}
							russia_region = {
								owned_by = PREV
							}
							east_russia_region = {
								owned_by = PREV
							}
						}
						NOT = { is_subject_of = PREV }
					}
					
					reverse_add_casus_belli = {
						target = PREV
						type = cb_russian_unification
					}
				}
			}
			
			# cb_de_jure_bohemia
			if = {
				limit = {
					has_country_flag = king_of_bohemia_outside
					# is_subject = no
					singleplayer_or_ai_country_trigger = yes
				}
				
				every_neighbor_country = {
					limit = {
						PREV = {
							NOT = {
								has_casus_belli = {
									type = cb_de_jure_bohemia
									target = PREV
								}
							}
						}
						OR = {
							royal_bohemia_area = {
								owned_by = PREV
							}
							north_bohemia_area = {
								owned_by = PREV
							}
							moravia_area = {
								owned_by = PREV
							}
						}
						NOT = { is_subject_of = PREV }
					}
					
					reverse_add_casus_belli = {
						target = PREV
						type = cb_de_jure_bohemia
					}
				}
			}
			
			# cb_rum_sultanate
			if = {
				limit = {
					has_country_flag = rum_sultanate_claimed
					# is_subject = no
					singleplayer_or_ai_country_trigger = yes
					OR = {
						ai = no
						NOT = { has_country_flag = great_predator }
					}
				}
				
				every_neighbor_country = {
					limit = {
						PREV = {
							NOT = {
								has_casus_belli = {
									type = cb_rum_sultanate
									target = PREV
								}
							}
						}
						OR = {
							east_balkan_region = {
								owned_by = PREV
								NOT = {
									AND = {
										province_id = 1402 # Konstantinoupolis
										owned_by = BYZ
									}
								}
							}
							central_balkan_region = {
								owned_by = PREV
							}
							north_anatolia_region = {
								owned_by = PREV
							}
							south_anatolia_region = {
								owned_by = PREV
							}
							greece_region = {
								owned_by = PREV
							}
						}
						NOT = { is_subject_of = PREV }
					}
					
					reverse_add_casus_belli = {
						target = PREV
						type = cb_rum_sultanate
					}
				}
			}
			# cb_anatolian_supremacy
			if = {
				limit = {
					NOT = { has_country_flag = rum_sultanate_claimed }
					OR = {
						primary_culture = turkish
						primary_culture = yorouk
					}
					# is_subject = no
					singleplayer_or_ai_country_trigger = yes
					OR = {
						ai = no
						NOT = { has_country_flag = great_predator }
					}
				}
				
				every_neighbor_country = {
					limit = {
						PREV = {
							NOT = {
								has_casus_belli = {
									type = cb_anatolian_supremacy
									target = PREV
								}
							}
						}
						OR = {
							north_anatolia_region = {
								owned_by = PREV
							}
							south_anatolia_region = {
								owned_by = PREV
							}
							cilicia_area = {
								owned_by = PREV
							}
							dulkadir_area = {
								owned_by = PREV
							}
							erzurum_area = {
								owned_by = PREV
							}
						}
						NOT = { is_subject_of = PREV }
					}
					
					reverse_add_casus_belli = {
						target = PREV
						type = cb_anatolian_supremacy
					}
				}
			}
			
			# cb_excommunication
			if = {
				limit = {
					OR = {
						is_excommunicated = yes
						has_country_flag = excommunicated
					}
					religion = catholic
				}
				
				every_known_country = {
					limit = {
						NOT = {
							has_casus_belli = {
								type = cb_excommunication
								target = PREV
							}
						}
						religion = catholic
						OR = {
							is_neighbor_of = PREV
							claim = PREV
							core_claim = PREV
						}
						# is_subject = no
						piety = -0.20
						PAP = {
							check_variable = {
								which = papal_authority
								value = 300
							}
						}
						NOT = {
							OR = {
								is_excommunicated = yes
								has_country_flag = excommunicated
							}
						}
						OR = {
							ai = no
							NOT = { has_country_flag = great_predator }
						}
					}
					
					add_casus_belli = {
						target = PREV
						type = cb_excommunication
					}
				}
			}
			
			# cb_rival_caliph
			if = {
				limit = {
					has_country_flag = caliph
					religion_group = muslim
					# is_subject = no
					OR = {
						ai = no
						NOT = { has_country_flag = great_predator }
					}
				}
				
				every_known_country = {
					limit = {
						has_country_flag = caliph
						religion_group = muslim
						PREV = {
							NOT = {
								has_casus_belli = {
									type = cb_rival_caliph
									target = PREV
								}
							}
						}
						OR = {
							is_neighbor_of = PREV
							is_rival = PREV
							AND = {
								NOT = { religion = PREV }
								culture_group = PREV
							}
							PREV = {
								check_variable = {
									which = caliph_authority
									value = 26
								}
							}
							NOT = {
								capital_distance = {
									who = PREV
									distance = 500
								}
							}
						}
					}
					
					reverse_add_casus_belli = {
						target = PREV
						type = cb_rival_caliph
					}
				}
			}
			
			# cb_claim_caliph
			if = {
				limit = {
					has_country_flag = caliph
					religion_group = muslim
				}
				
				every_neighbor_country = {
					limit = {
						religion_group = muslim
						# is_subject = no
						piety = -0.20
						NOT = {
							has_casus_belli = {
								type = cb_claim_caliph
								target = PREV
							}
						}
						NOT = { has_country_flag = caliph }
						PREV = {
							NOT = {
								AND = {
									army_size = PREV
									num_of_cities = PREV
								}
							}
						}
						OR = {
							ai = no
							NOT = { has_country_flag = great_predator }
						}
					}
					
					add_casus_belli = {
						target = PREV
						type = cb_claim_caliph
					}
				}
			}
			
			# cb_flower_war
			if = {
				limit = {
					religion = nahuatl
					# is_subject = no
					OR = {
						ai = no
						NOT = { has_country_flag = great_predator }
					}
				}
				
				every_neighbor_country = {
					limit = {
						PREV = {
							NOT = {
								has_casus_belli = {
									type = cb_flower_war
									target = PREV
								}
							}
						}
						OR = {
							is_enemy = PREV
							num_of_cities = PREV
							army_size = PREV
							NOT = {
								calc_true_if = {
									amount = 2
									
									all_neighbor_country = {
										always = yes
									}
								}
							}
						}
					}
					
					reverse_add_casus_belli = {
						target = PREV
						type = cb_flower_war
					}
				}
			}
			
			# cb_chinese_civil_war
			if = {
				limit = {
					# is_subject = no
					OR = {
						AND = {
							culture_group = chinese_group
							NOT = { primary_culture = chinese_colonial }
						}
						has_country_flag = barbarian_claimant_china
					}
					OR = {
						ai = no
						NOT = { has_country_flag = great_predator }
					}
				}
				
				every_neighbor_country = {
					limit = {
						PREV = {
							NOT = {
								has_casus_belli = {
									type = cb_chinese_civil_war
									target = PREV
								}
							}
						}
						capital_scope = {
							OR = {
								superregion = north_china_superregion
								superregion = east_china_superregion
								superregion = southwest_china_superregion
							}
						}
						OR = {
							north_china_superregion = {
								owned_by = PREV
							}
							east_china_superregion = {
								owned_by = PREV
							}
							southwest_china_superregion = {
								owned_by = PREV
							}
						}
						NOT = { is_subject_of = PREV }
					}
					
					reverse_add_casus_belli = {
						target = PREV
						type = cb_chinese_civil_war
						months = 60
					}
				}
			}
		}
	}
	
	option = {
		name = no_localization
	}
}

country_event = {
	id = cb_types.2
	title = no_localization
	desc = no_localization
	picture = MEIOU_AND_TAXES_eventPicture
	
	hidden = yes
	is_triggered_only = yes
	
	trigger = {
		tag = HAW
	}
	
	immediate = {
		# cb_holy_war_defensive
		# cb_holy_war_offensive
		# cb_holy_war_heretic_defensive
		# cb_holy_war_heretic_offensive
		# cb_fidei_defensor
		# cb_holy_war_heresy
		# cb_catholic_crusade
		every_country = {
			limit = {
				always = yes
			}
			
			# cb_holy_war_defensive
			if = {
				limit = {
					# is_subject = no
					OR = {
						AND = {
							piety = -0.60
							OR = {
								cb_on_religious_enemies = yes
								patriarch_authority = 0.75
							}
						}
						AND = {
							cb_on_religious_enemies = yes
							patriarch_authority = 0.75
						}
					}
					OR = {
						ai = no
						NOT = { has_country_flag = great_predator }
					}
				}
				
				save_event_target_as = cb_holy_war_defensive_ROOT
				
				every_known_country = {
					limit = {
						PREV = {
							NOT = {
								has_casus_belli = {
									type = cb_holy_war_defensive
									target = PREV
								}
							}
						}
						NOT = { religion_group = PREV }
						any_owned_province = {
							religion = event_target:cb_holy_war_defensive_ROOT
						}
						OR = {
							NOT = {
								border_distance = {
									who = PREV
									distance = 80
								}
							}
							AND = {
								PREV = { piety = -0.20 }
								NOT = {
									border_distance = {
										who = PREV
										distance = 160
									}
								}
							}
							AND = {
								PREV = { piety = 0.20 }
								NOT = {
									border_distance = {
										who = PREV
										distance = 240
									}
								}
							}
							AND = {
								PREV = { piety = 0.60 }
								NOT = {
									border_distance = {
										who = PREV
										distance = 320
									}
								}
							}
							AND = {
								PREV = { piety = 1.00 }
								NOT = {
									border_distance = {
										who = PREV
										distance = 400
									}
								}
							}
						}
					}
					
					reverse_add_casus_belli = {
						target = PREV
						type = cb_holy_war_defensive
					}
				}
			}
			# cb_holy_war_offensive_pagan
			if = {
				limit = {
					# is_subject = no
					OR = {
						piety = -0.20
						AND = {
							patriarch_authority = 0.75
							piety = -0.60
						}
					}
					cb_on_religious_enemies = yes
					NOT = { # Pagan religion groups
						religion_group = pagan
						religion_group = european_pagan
						religion_group = new_world_pagan
					}
					OR = {
						ai = no
						NOT = { has_country_flag = great_predator }
					}
				}
				every_known_country = {
					limit = {
						PREV = {
							NOT = {
								has_casus_belli = {
									type = cb_holy_war_offensive_pagan
									target = PREV
								}
							}
						}
						NOT = { religion_group = PREV }
						OR = {
							is_neighbor_of = PREV
							NOT = {
								border_distance = {
									who = PREV
									distance = 80
								}
							}
						}
						OR = { # Pagan religion groups
							religion_group = pagan
							religion_group = european_pagan
							religion_group = new_world_pagan
						}
						NOT = { religion = shinto } # Unique pagans, no CB
					}
					
					reverse_add_casus_belli = {
						target = PREV
						type = cb_holy_war_offensive_pagan
					}
				}
			}
			
			# cb_holy_war_offensive
			if = {
				limit = {
					OR = {
						piety = -0.20
						AND = {
							patriarch_authority = 0.75
							piety = -0.60
						}
					}
					OR = {
						cb_on_religious_enemies = yes
						NOT = {
							OR = {
								religion = catholic #Covered by crusades
								religion = sunni #Covered by jihads
								religion = shiite #Covered by jihads
							}
						}
					}
					OR = {
						ai = no
						NOT = { has_country_flag = great_predator }
					}
				}
				
				every_known_country = {
					limit = {
						PREV = {
							NOT = {
								has_casus_belli = {
									type = cb_holy_war_offensive
									target = PREV
								}
							}
							OR = {
								cb_on_religious_enemies = yes
								patriarch_authority = 0.75
								AND = {
									has_global_flag = orthodox_pentarchy_restored
									owns = 2530 # Roma
									OR = {
										religion = orthodox
										religion = coptic
									}
									PREV = { religion = catholic }
								}
							}
						}
						NOT = { religion_group = PREV }
						OR = {
							is_neighbor_of = PREV
							NOT = {
								border_distance = {
									who = PREV
									distance = 80
								}
							}
						}
						OR = {
							# Pagan religion groups get CB
							PREV = { religion_group = pagan }
							PREV = { religion_group = european_pagan }
							PREV = { religion_group = new_world_pagan }
							AND = { # Non-pagans use the pagan CB against pagans
								NOT = { religion_group = european_pagan }
								NOT = { religion_group = new_world_pagan }
								OR = {
									religion = shinto # Unique pagans, CB
									NOT = { religion_group = pagan }
								}
							}
						}
					}
					
					reverse_add_casus_belli = {
						target = PREV
						type = cb_holy_war_offensive
					}
				}
			}
			
			# cb_holy_war_heretic_defensive
			if = {
				limit = {
					# is_subject = no
					OR = {
						cb_on_religious_enemies = yes
						patriarch_authority = 0.75
					}
					OR = {
						piety = 0.20
						AND = {
							cb_on_religious_enemies = yes
							patriarch_authority = 0.75
							piety = -0.20
						}
					}
					OR = {
						ai = no
						NOT = { has_country_flag = great_predator }
					}
				}
				
				save_event_target_as = cb_holy_war_heretic_defensive_ROOT
				
				every_known_country = {
					limit = {
						PREV = {
							NOT = {
								has_casus_belli = {
									type = cb_holy_war_heretic_defensive
									target = PREV
								}
							}
						}
						religion_group = PREV
						NOT = { religion = PREV }
						any_owned_province = {
							religion = event_target:cb_holy_war_heretic_defensive_ROOT
						}
						OR = {
							is_neighbor_of = PREV
							NOT = {
								border_distance = {
									who = PREV
									distance = 80
								}
							}
							AND = {
								PREV = { piety = 0.60 }
								NOT = {
									border_distance = {
										who = PREV
										distance = 160
									}
								}
							}
							AND = {
								PREV = { piety = 1.00 }
								NOT = {
									border_distance = {
										who = PREV
										distance = 240
									}
								}
							}
						}
					}
					
					reverse_add_casus_belli = {
						target = PREV
						type = cb_holy_war_heretic_defensive
					}
				}
			}
			
			# cb_holy_war_heretic_offensive
			if = {
				limit = {
					# is_subject = no
					OR = {
						cb_on_religious_enemies = yes
						patriarch_authority = 0.75
					}
					OR = {
						piety = 0.60
						AND = {
							cb_on_religious_enemies = yes
							patriarch_authority = 0.75
							piety = 0.20
						}
					}
					OR = {
						ai = no
						NOT = { has_country_flag = great_predator }
					}
				}
				
				every_known_country = {
					limit = {
						PREV = {
							NOT = {
								has_casus_belli = {
									type = cb_holy_war_heretic_offensive
									target = PREV
								}
							}
						}
						religion_group = PREV
						NOT = { religion = PREV }
						OR = {
							is_neighbor_of = PREV
							NOT = {
								border_distance = {
									who = PREV
									distance = 80
								}
							}
						}
					}
					
					reverse_add_casus_belli = {
						target = PREV
						type = cb_holy_war_heretic_offensive
					}
				}
			}
			
			# cb_fidei_defensor
			if = {
				limit = {
					is_defender_of_faith = yes
					piety = -0.20
					# is_subject = no
					OR = {
						ai = no
						NOT = { has_country_flag = great_predator }
					}
				}
				
				save_event_target_as = cb_fidei_defensor_ROOT
				
				every_known_country = {
					limit = {
						PREV = {
							NOT = {
								has_casus_belli = {
									type = cb_fidei_defensor
									target = PREV
								}
							}
						}
						NOT = { religion = PREV }
						is_at_war = yes
						any_known_country = {
							war_with = PREV
							religion = event_target:cb_fidei_defensor_ROOT
						}
						OR = {
							is_neighbor_of = PREV
							NOT = {
								border_distance = {
									who = PREV
									distance = 200
								}
							}
							AND = {
								PREV = { piety = 0.20 }
								NOT = {
									border_distance = {
										who = PREV
										distance = 400
									}
								}
							}
							AND = {
								PREV = { piety = 0.60 }
								NOT = {
									border_distance = {
										who = PREV
										distance = 600
									}
								}
							}
							AND = {
								OR = {
									PREV = { piety = 1.00 }
									cb_on_religious_enemies = yes
								}
								NOT = {
									border_distance = {
										who = PREV
										distance = 800
									}
								}
							}
						}
					}
					
					reverse_add_casus_belli = {
						target = PREV
						type = cb_fidei_defensor
					}
				}
			}
			
			# cb_catholic_crusade
			if = {
				limit = {
					has_country_flag = crusade_target
					NOT = { religion = catholic }
					PAP = {
						check_variable = {
							which = papal_authority
							value = 200
						}
					}
				}
				
				every_known_country = {
					limit = {
						religion = catholic
						NOT = {
							has_casus_belli = {
								type = cb_catholic_crusade
								target = PREV
							}
						}
						piety = -0.20
						NOT = { has_country_flag = excommunicated }
						OR = {
							is_neighbor_of = PREV
							is_papal_controller = yes
							AND = {
								OR = {
									PAP = {
										check_variable = {
											which = papal_authority
											value = 300
										}
									}
									AND = {
										piety = 0.20
										PAP = {
											check_variable = {
												which = papal_authority
												value = 200
											}
										}
									}
								}
								NOT = {
									border_distance = {
										who = PREV
										distance = 100
									}
								}
							}
							AND = {
								OR = {
									PAP = {
										check_variable = {
											which = papal_authority
											value = 400
										}
									}
									AND = {
										piety = 0.60
										PAP = {
											check_variable = {
												which = papal_authority
												value = 300
											}
										}
									}
								}
								NOT = {
									border_distance = {
										who = PREV
										distance = 200
									}
								}
							}
							AND = {
								OR = {
									PAP = {
										check_variable = {
											which = papal_authority
											value = 500
										}
									}
									AND = {
										piety = 1.00
										PAP = {
											check_variable = {
												which = papal_authority
												value = 400
											}
										}
									}
								}
								NOT = {
									border_distance = {
										who = PREV
										distance = 300
									}
								}
							}
						}
						OR = {
							ai = no
							NOT = { has_country_flag = great_predator }
						}
					}
					
					add_casus_belli = {
						target = PREV
						type = cb_catholic_crusade
					}
				}
			}
		}
	}
	
	option = {
		name = no_localization
	}
}
