### Replacement for add_unrest commands, SUS or Stacking Unrest System
# Standard pattern should be:
#	hidden_effect = {
#		set_variable = { which = added_unrest value = 1 }
#		add_base_unrest = yes
#	}
#	custom_tooltip = added_unrest_1
#
# System supports up to 50 added_unrest at a time with tooltips
#
# base_unrest_tick_down simply lowers unrest by 1 and changes the modifier accordingly, in a single binary search
# Use that scripted effect if its all your doing for a speed boost

change_base_unrest = {
	# Add stacking unrest
	if = {
		limit = {
			check_variable = { which = added_unrest value = 1 }
		}
		# Only allow whole numbers
		divide_variable = { which = added_unrest                 value = 1000 }
		multiply_variable = { which = added_unrest                 value = 1000 }
		if = {
			limit = {
				check_variable = { which = base_unrest value = 1 }
			}
			change_variable = { which = base_unrest                 which = added_unrest }
		}
		else = {
			set_variable = { which = base_unrest                 which = added_unrest }
		}
		# Allow removing stacking unrest as well
	}
	else_if = {
		limit = {
			NOT = { check_variable = { which = added_unrest value = 0 } }
		}
		# Convert to positive int
		multiply_variable = { which = added_unrest                 value = -1 }
		
		# Only allow whole numbers
		divide_variable = { which = added_unrest                 value = 1000 }
		multiply_variable = { which = added_unrest                 value = 1000 }
		
		if = {
			limit = {
				check_variable = { which = base_unrest value = 1 }
			}
			subtract_variable = { which = base_unrest                 which = added_unrest }
		}
	}
	
	# Ensure base_unrest is clean and correct
	if = { # Enforce hard cap of 63 unrest
		limit = {
			check_variable = { which = base_unrest value = 63 }
		}
		set_variable = { which = base_unrest     value = 63 }
	}
	# Cleanup variable
	set_variable = { which = added_unrest                 value = 0 }
}

base_unrest_add_modifier = {
	if = { limit = { check_variable = { which = base_unrest value = 1 } } # Gate, ensure no unnecessary searches
		if = { limit = { check_variable = { which = base_unrest value = 32 } }
			if = { limit = { check_variable = { which = base_unrest value = 48 } }
				if = { limit = { check_variable = { which = base_unrest value = 56 } }
					if = { limit = { check_variable = { which = base_unrest value = 60 } }
						if = { limit = { check_variable = { which = base_unrest value = 62 } }
							if = { limit = { check_variable = { which = base_unrest value = 63 } }
								add_province_modifier = {
									name = base_unrest_63
									duration = -1
									hidden = yes
								}
							}
							else = {
								add_province_modifier = {
									name = base_unrest_62
									duration = -1
									hidden = yes
								}
							}
						}
						else = {
							if = { limit = { check_variable = { which = base_unrest value = 61 } }
								add_province_modifier = {
									name = base_unrest_61
									duration = -1
									hidden = yes
								}
							}
							else = {
								add_province_modifier = {
									name = base_unrest_60
									duration = -1
									hidden = yes
								}
							}
						}
					}
					else = {
						if = { limit = { check_variable = { which = base_unrest value = 58 } }
							if = { limit = { check_variable = { which = base_unrest value = 59 } }
								add_province_modifier = {
									name = base_unrest_59
									duration = -1
									hidden = yes
								}
							}
							else = {
								add_province_modifier = {
									name = base_unrest_58
									duration = -1
									hidden = yes
								}
							}
						}
						else = {
							if = { limit = { check_variable = { which = base_unrest value = 57 } }
								add_province_modifier = {
									name = base_unrest_57
									duration = -1
									hidden = yes
								}
							}
							else = {
								add_province_modifier = {
									name = base_unrest_56
									duration = -1
									hidden = yes
								}
							}
						}
					}
				}
				else = {
					if = { limit = { check_variable = { which = base_unrest value = 52 } }
						if = { limit = { check_variable = { which = base_unrest value = 54 } }
							if = { limit = { check_variable = { which = base_unrest value = 55 } }
								add_province_modifier = {
									name = base_unrest_55
									duration = -1
									hidden = yes
								}
							}
							else = {
								add_province_modifier = {
									name = base_unrest_54
									duration = -1
									hidden = yes
								}
							}
						}
						else = {
							if = { limit = { check_variable = { which = base_unrest value = 53 } }
								add_province_modifier = {
									name = base_unrest_53
									duration = -1
									hidden = yes
								}
							}
							else = {
								add_province_modifier = {
									name = base_unrest_52
									duration = -1
									hidden = yes
								}
							}
						}
					}
					else = {
						if = { limit = { check_variable = { which = base_unrest value = 50 } }
							if = { limit = { check_variable = { which = base_unrest value = 51 } }
								add_province_modifier = {
									name = base_unrest_51
									duration = -1
									hidden = yes
								}
							}
							else = {
								add_province_modifier = {
									name = base_unrest_50
									duration = -1
									hidden = yes
								}
							}
						}
						else = {
							if = { limit = { check_variable = { which = base_unrest value = 49 } }
								add_province_modifier = {
									name = base_unrest_49
									duration = -1
									hidden = yes
								}
							}
							else = {
								add_province_modifier = {
									name = base_unrest_48
									duration = -1
									hidden = yes
								}
							}
						}
					}
				}
			}
			else = {
				if = { limit = { check_variable = { which = base_unrest value = 40 } }
					if = { limit = { check_variable = { which = base_unrest value = 44 } }
						if = { limit = { check_variable = { which = base_unrest value = 46 } }
							if = { limit = { check_variable = { which = base_unrest value = 47 } }
								add_province_modifier = {
									name = base_unrest_47
									duration = -1
									hidden = yes
								}
							}
							else = {
								add_province_modifier = {
									name = base_unrest_46
									duration = -1
									hidden = yes
								}
							}
						}
						else = {
							if = { limit = { check_variable = { which = base_unrest value = 45 } }
								add_province_modifier = {
									name = base_unrest_45
									duration = -1
									hidden = yes
								}
							}
							else = {
								add_province_modifier = {
									name = base_unrest_44
									duration = -1
									hidden = yes
								}
							}
						}
					}
					else = {
						if = { limit = { check_variable = { which = base_unrest value = 42 } }
							if = { limit = { check_variable = { which = base_unrest value = 43 } }
								add_province_modifier = {
									name = base_unrest_43
									duration = -1
									hidden = yes
								}
							}
							else = {
								add_province_modifier = {
									name = base_unrest_42
									duration = -1
									hidden = yes
								}
							}
						}
						else = {
							if = { limit = { check_variable = { which = base_unrest value = 41 } }
								add_province_modifier = {
									name = base_unrest_41
									duration = -1
									hidden = yes
								}
							}
							else = {
								add_province_modifier = {
									name = base_unrest_40
									duration = -1
									hidden = yes
								}
							}
						}
					}
				}
				else = {
					if = { limit = { check_variable = { which = base_unrest value = 36 } }
						if = { limit = { check_variable = { which = base_unrest value = 38 } }
							if = { limit = { check_variable = { which = base_unrest value = 39 } }
								add_province_modifier = {
									name = base_unrest_39
									duration = -1
									hidden = yes
								}
							}
							else = {
								add_province_modifier = {
									name = base_unrest_38
									duration = -1
									hidden = yes
								}
							}
						}
						else = {
							if = { limit = { check_variable = { which = base_unrest value = 37 } }
								add_province_modifier = {
									name = base_unrest_37
									duration = -1
									hidden = yes
								}
							}
							else = {
								add_province_modifier = {
									name = base_unrest_36
									duration = -1
									hidden = yes
								}
							}
						}
					}
					else = {
						if = { limit = { check_variable = { which = base_unrest value = 34 } }
							if = { limit = { check_variable = { which = base_unrest value = 35 } }
								add_province_modifier = {
									name = base_unrest_35
									duration = -1
									hidden = yes
								}
							}
							else = {
								add_province_modifier = {
									name = base_unrest_34
									duration = -1
									hidden = yes
								}
							}
						}
						else = {
							if = { limit = { check_variable = { which = base_unrest value = 33 } }
								add_province_modifier = {
									name = base_unrest_33
									duration = -1
									hidden = yes
								}
							}
							else = {
								add_province_modifier = {
									name = base_unrest_32
									duration = -1
									hidden = yes
								}
							}
						}
					}
				}
			}
		}
		else = {
			if = { limit = { check_variable = { which = base_unrest value = 16 } }
				if = { limit = { check_variable = { which = base_unrest value = 24 } }
					if = { limit = { check_variable = { which = base_unrest value = 28 } }
						if = { limit = { check_variable = { which = base_unrest value = 30 } }
							if = { limit = { check_variable = { which = base_unrest value = 31 } }
								add_province_modifier = {
									name = base_unrest_31
									duration = -1
									hidden = yes
								}
							}
							else = {
								add_province_modifier = {
									name = base_unrest_30
									duration = -1
									hidden = yes
								}
							}
						}
						else = {
							if = { limit = { check_variable = { which = base_unrest value = 29 } }
								add_province_modifier = {
									name = base_unrest_29
									duration = -1
									hidden = yes
								}
							}
							else = {
								add_province_modifier = {
									name = base_unrest_28
									duration = -1
									hidden = yes
								}
							}
						}
					}
					else = {
						if = { limit = { check_variable = { which = base_unrest value = 26 } }
							if = { limit = { check_variable = { which = base_unrest value = 27 } }
								add_province_modifier = {
									name = base_unrest_27
									duration = -1
									hidden = yes
								}
							}
							else = {
								add_province_modifier = {
									name = base_unrest_26
									duration = -1
									hidden = yes
								}
							}
						}
						else = {
							if = { limit = { check_variable = { which = base_unrest value = 25 } }
								add_province_modifier = {
									name = base_unrest_25
									duration = -1
									hidden = yes
								}
							}
							else = {
								add_province_modifier = {
									name = base_unrest_24
									duration = -1
									hidden = yes
								}
							}
						}
					}
				}
				else = {
					if = { limit = { check_variable = { which = base_unrest value = 20 } }
						if = { limit = { check_variable = { which = base_unrest value = 22 } }
							if = { limit = { check_variable = { which = base_unrest value = 23 } }
								add_province_modifier = {
									name = base_unrest_23
									duration = -1
									hidden = yes
								}
							}
							else = {
								add_province_modifier = {
									name = base_unrest_22
									duration = -1
									hidden = yes
								}
							}
						}
						else = {
							if = { limit = { check_variable = { which = base_unrest value = 21 } }
								add_province_modifier = {
									name = base_unrest_21
									duration = -1
									hidden = yes
								}
							}
							else = {
								add_province_modifier = {
									name = base_unrest_20
									duration = -1
									hidden = yes
								}
							}
						}
					}
					else = {
						if = { limit = { check_variable = { which = base_unrest value = 18 } }
							if = { limit = { check_variable = { which = base_unrest value = 19 } }
								add_province_modifier = {
									name = base_unrest_19
									duration = -1
									hidden = yes
								}
							}
							else = {
								add_province_modifier = {
									name = base_unrest_18
									duration = -1
									hidden = yes
								}
							}
						}
						else = {
							if = { limit = { check_variable = { which = base_unrest value = 17 } }
								add_province_modifier = {
									name = base_unrest_17
									duration = -1
									hidden = yes
								}
							}
							else = {
								add_province_modifier = {
									name = base_unrest_16
									duration = -1
									hidden = yes
								}
							}
						}
					}
				}
			}
			else = {
				if = { limit = { check_variable = { which = base_unrest value = 8 } }
					if = { limit = { check_variable = { which = base_unrest value = 12 } }
						if = { limit = { check_variable = { which = base_unrest value = 14 } }
							if = { limit = { check_variable = { which = base_unrest value = 15 } }
								add_province_modifier = {
									name = base_unrest_15
									duration = -1
									hidden = yes
								}
							}
							else = {
								add_province_modifier = {
									name = base_unrest_14
									duration = -1
									hidden = yes
								}
							}
						}
						else = {
							if = { limit = { check_variable = { which = base_unrest value = 13 } }
								add_province_modifier = {
									name = base_unrest_13
									duration = -1
									hidden = yes
								}
							}
							else = {
								add_province_modifier = {
									name = base_unrest_12
									duration = -1
									hidden = yes
								}
							}
						}
					}
					else = {
						if = { limit = { check_variable = { which = base_unrest value = 10 } }
							if = { limit = { check_variable = { which = base_unrest value = 11 } }
								add_province_modifier = {
									name = base_unrest_11
									duration = -1
									hidden = yes
								}
							}
							else = {
								add_province_modifier = {
									name = base_unrest_10
									duration = -1
									hidden = yes
								}
							}
						}
						else = {
							if = { limit = { check_variable = { which = base_unrest value = 9 } }
								add_province_modifier = {
									name = base_unrest_9
									duration = -1
									hidden = yes
								}
							}
							else = {
								add_province_modifier = {
									name = base_unrest_8
									duration = -1
									hidden = yes
								}
							}
						}
					}
				}
				else = {
					if = { limit = { check_variable = { which = base_unrest value = 4 } }
						if = { limit = { check_variable = { which = base_unrest value = 6 } }
							if = { limit = { check_variable = { which = base_unrest value = 7 } }
								add_province_modifier = {
									name = base_unrest_7
									duration = -1
									hidden = yes
								}
							}
							else = {
								add_province_modifier = {
									name = base_unrest_6
									duration = -1
									hidden = yes
								}
							}
						}
						else = {
							if = { limit = { check_variable = { which = base_unrest value = 5 } }
								add_province_modifier = {
									name = base_unrest_5
									duration = -1
									hidden = yes
								}
							}
							else = {
								add_province_modifier = {
									name = base_unrest_4
									duration = -1
									hidden = yes
								}
							}
						}
					}
					else = {
						if = { limit = { check_variable = { which = base_unrest value = 2 } }
							if = { limit = { check_variable = { which = base_unrest value = 3 } }
								add_province_modifier = {
									name = base_unrest_3
									duration = -1
									hidden = yes
								}
							}
							else = {
								add_province_modifier = {
									name = base_unrest_2
									duration = -1
									hidden = yes
								}
							}
						}
						else_if = { limit = { check_variable = { which = base_unrest value = 1 } }
							add_province_modifier = {
								name = base_unrest_1
								duration = -1
								hidden = yes
							}
						}
					}
				}
			}
		}
	}
}

base_unrest_remove_modifier = {
	if = { limit = { check_variable = { which = base_unrest value = 1 } } # Gate, ensure no unnecessary searches
		if = { limit = { check_variable = { which = base_unrest value = 32 } }
			if = { limit = { check_variable = { which = base_unrest value = 48 } }
				if = { limit = { check_variable = { which = base_unrest value = 56 } }
					if = { limit = { check_variable = { which = base_unrest value = 60 } }
						if = { limit = { check_variable = { which = base_unrest value = 62 } }
							if = { limit = { check_variable = { which = base_unrest value = 63 } }
								remove_province_modifier = base_unrest_63
							}
							else = {
								remove_province_modifier = base_unrest_62
							}
						}
						else = {
							if = { limit = { check_variable = { which = base_unrest value = 61 } }
								remove_province_modifier = base_unrest_61
							}
							else = {
								remove_province_modifier = base_unrest_60
							}
						}
					}
					else = {
						if = { limit = { check_variable = { which = base_unrest value = 58 } }
							if = { limit = { check_variable = { which = base_unrest value = 59 } }
								remove_province_modifier = base_unrest_59
							}
							else = {
								remove_province_modifier = base_unrest_58
							}
						}
						else = {
							if = { limit = { check_variable = { which = base_unrest value = 57 } }
								remove_province_modifier = base_unrest_57
							}
							else = {
								remove_province_modifier = base_unrest_56
							}
						}
					}
				}
				else = {
					if = { limit = { check_variable = { which = base_unrest value = 52 } }
						if = { limit = { check_variable = { which = base_unrest value = 54 } }
							if = { limit = { check_variable = { which = base_unrest value = 55 } }
								remove_province_modifier = base_unrest_55
							}
							else = {
								remove_province_modifier = base_unrest_54
							}
						}
						else = {
							if = { limit = { check_variable = { which = base_unrest value = 53 } }
								remove_province_modifier = base_unrest_53
							}
							else = {
								remove_province_modifier = base_unrest_52
							}
						}
					}
					else = {
						if = { limit = { check_variable = { which = base_unrest value = 50 } }
							if = { limit = { check_variable = { which = base_unrest value = 51 } }
								remove_province_modifier = base_unrest_51
							}
							else = {
								remove_province_modifier = base_unrest_50
							}
						}
						else = {
							if = { limit = { check_variable = { which = base_unrest value = 49 } }
								remove_province_modifier = base_unrest_49
							}
							else = {
								remove_province_modifier = base_unrest_48
							}
						}
					}
				}
			}
			else = {
				if = { limit = { check_variable = { which = base_unrest value = 40 } }
					if = { limit = { check_variable = { which = base_unrest value = 44 } }
						if = { limit = { check_variable = { which = base_unrest value = 46 } }
							if = { limit = { check_variable = { which = base_unrest value = 47 } }
								remove_province_modifier = base_unrest_47
							}
							else = {
								remove_province_modifier = base_unrest_46
							}
						}
						else = {
							if = { limit = { check_variable = { which = base_unrest value = 45 } }
								remove_province_modifier = base_unrest_45
							}
							else = {
								remove_province_modifier = base_unrest_44
							}
						}
					}
					else = {
						if = { limit = { check_variable = { which = base_unrest value = 42 } }
							if = { limit = { check_variable = { which = base_unrest value = 43 } }
								remove_province_modifier = base_unrest_43
							}
							else = {
								remove_province_modifier = base_unrest_42
							}
						}
						else = {
							if = { limit = { check_variable = { which = base_unrest value = 41 } }
								remove_province_modifier = base_unrest_41
							}
							else = {
								remove_province_modifier = base_unrest_40
							}
						}
					}
				}
				else = {
					if = { limit = { check_variable = { which = base_unrest value = 36 } }
						if = { limit = { check_variable = { which = base_unrest value = 38 } }
							if = { limit = { check_variable = { which = base_unrest value = 39 } }
								remove_province_modifier = base_unrest_39
							}
							else = {
								remove_province_modifier = base_unrest_38
							}
						}
						else = {
							if = { limit = { check_variable = { which = base_unrest value = 37 } }
								remove_province_modifier = base_unrest_37
							}
							else = {
								remove_province_modifier = base_unrest_36
							}
						}
					}
					else = {
						if = { limit = { check_variable = { which = base_unrest value = 34 } }
							if = { limit = { check_variable = { which = base_unrest value = 35 } }
								remove_province_modifier = base_unrest_35
							}
							else = {
								remove_province_modifier = base_unrest_34
							}
						}
						else = {
							if = { limit = { check_variable = { which = base_unrest value = 33 } }
								remove_province_modifier = base_unrest_33
							}
							else = {
								remove_province_modifier = base_unrest_32
							}
						}
					}
				}
			}
		}
		else = {
			if = { limit = { check_variable = { which = base_unrest value = 16 } }
				if = { limit = { check_variable = { which = base_unrest value = 24 } }
					if = { limit = { check_variable = { which = base_unrest value = 28 } }
						if = { limit = { check_variable = { which = base_unrest value = 30 } }
							if = { limit = { check_variable = { which = base_unrest value = 31 } }
								remove_province_modifier = base_unrest_31
							}
							else = {
								remove_province_modifier = base_unrest_30
							}
						}
						else = {
							if = { limit = { check_variable = { which = base_unrest value = 29 } }
								remove_province_modifier = base_unrest_29
							}
							else = {
								remove_province_modifier = base_unrest_28
							}
						}
					}
					else = {
						if = { limit = { check_variable = { which = base_unrest value = 26 } }
							if = { limit = { check_variable = { which = base_unrest value = 27 } }
								remove_province_modifier = base_unrest_27
							}
							else = {
								remove_province_modifier = base_unrest_26
							}
						}
						else = {
							if = { limit = { check_variable = { which = base_unrest value = 25 } }
								remove_province_modifier = base_unrest_25
							}
							else = {
								remove_province_modifier = base_unrest_24
							}
						}
					}
				}
				else = {
					if = { limit = { check_variable = { which = base_unrest value = 20 } }
						if = { limit = { check_variable = { which = base_unrest value = 22 } }
							if = { limit = { check_variable = { which = base_unrest value = 23 } }
								remove_province_modifier = base_unrest_23
							}
							else = {
								remove_province_modifier = base_unrest_22
							}
						}
						else = {
							if = { limit = { check_variable = { which = base_unrest value = 21 } }
								remove_province_modifier = base_unrest_21
							}
							else = {
								remove_province_modifier = base_unrest_20
							}
						}
					}
					else = {
						if = { limit = { check_variable = { which = base_unrest value = 18 } }
							if = { limit = { check_variable = { which = base_unrest value = 19 } }
								remove_province_modifier = base_unrest_19
							}
							else = {
								remove_province_modifier = base_unrest_18
							}
						}
						else = {
							if = { limit = { check_variable = { which = base_unrest value = 17 } }
								remove_province_modifier = base_unrest_17
							}
							else = {
								remove_province_modifier = base_unrest_16
							}
						}
					}
				}
			}
			else = {
				if = { limit = { check_variable = { which = base_unrest value = 8 } }
					if = { limit = { check_variable = { which = base_unrest value = 12 } }
						if = { limit = { check_variable = { which = base_unrest value = 14 } }
							if = { limit = { check_variable = { which = base_unrest value = 15 } }
								remove_province_modifier = base_unrest_15
							}
							else = {
								remove_province_modifier = base_unrest_14
							}
						}
						else = {
							if = { limit = { check_variable = { which = base_unrest value = 13 } }
								remove_province_modifier = base_unrest_13
							}
							else = {
								remove_province_modifier = base_unrest_12
							}
						}
					}
					else = {
						if = { limit = { check_variable = { which = base_unrest value = 10 } }
							if = { limit = { check_variable = { which = base_unrest value = 11 } }
								remove_province_modifier = base_unrest_11
							}
							else = {
								remove_province_modifier = base_unrest_10
							}
						}
						else = {
							if = { limit = { check_variable = { which = base_unrest value = 9 } }
								remove_province_modifier = base_unrest_9
							}
							else = {
								remove_province_modifier = base_unrest_8
							}
						}
					}
				}
				else = {
					if = { limit = { check_variable = { which = base_unrest value = 4 } }
						if = { limit = { check_variable = { which = base_unrest value = 6 } }
							if = { limit = { check_variable = { which = base_unrest value = 7 } }
								remove_province_modifier = base_unrest_7
							}
							else = {
								remove_province_modifier = base_unrest_6
							}
						}
						else = {
							if = { limit = { check_variable = { which = base_unrest value = 5 } }
								remove_province_modifier = base_unrest_5
							}
							else = {
								remove_province_modifier = base_unrest_4
							}
						}
					}
					else = {
						if = { limit = { check_variable = { which = base_unrest value = 2 } }
							if = { limit = { check_variable = { which = base_unrest value = 3 } }
								remove_province_modifier = base_unrest_3
							}
							else = {
								remove_province_modifier = base_unrest_2
							}
						}
						else_if = { limit = { check_variable = { which = base_unrest value = 1 } }
							remove_province_modifier = base_unrest_1
						}
					}
				}
			}
		}
	}
}

base_unrest_remove_modifier_old = { # use an alternate temp variable to remove, helps with optimization
	if = { limit = { check_variable = { which = base_unrest_old value = 1 } } # Gate, ensure no unnecessary searches
		if = { limit = { check_variable = { which = base_unrest_old value = 32 } }
			if = { limit = { check_variable = { which = base_unrest_old value = 48 } }
				if = { limit = { check_variable = { which = base_unrest_old value = 56 } }
					if = { limit = { check_variable = { which = base_unrest_old value = 60 } }
						if = { limit = { check_variable = { which = base_unrest_old value = 62 } }
							if = { limit = { check_variable = { which = base_unrest_old value = 63 } }
								remove_province_modifier = base_unrest_63
							}
							else = {
								remove_province_modifier = base_unrest_62
							}
						}
						else = {
							if = { limit = { check_variable = { which = base_unrest_old value = 61 } }
								remove_province_modifier = base_unrest_61
							}
							else = {
								remove_province_modifier = base_unrest_60
							}
						}
					}
					else = {
						if = { limit = { check_variable = { which = base_unrest_old value = 58 } }
							if = { limit = { check_variable = { which = base_unrest_old value = 59 } }
								remove_province_modifier = base_unrest_59
							}
							else = {
								remove_province_modifier = base_unrest_58
							}
						}
						else = {
							if = { limit = { check_variable = { which = base_unrest_old value = 57 } }
								remove_province_modifier = base_unrest_57
							}
							else = {
								remove_province_modifier = base_unrest_56
							}
						}
					}
				}
				else = {
					if = { limit = { check_variable = { which = base_unrest_old value = 52 } }
						if = { limit = { check_variable = { which = base_unrest_old value = 54 } }
							if = { limit = { check_variable = { which = base_unrest_old value = 55 } }
								remove_province_modifier = base_unrest_55
							}
							else = {
								remove_province_modifier = base_unrest_54
							}
						}
						else = {
							if = { limit = { check_variable = { which = base_unrest_old value = 53 } }
								remove_province_modifier = base_unrest_53
							}
							else = {
								remove_province_modifier = base_unrest_52
							}
						}
					}
					else = {
						if = { limit = { check_variable = { which = base_unrest_old value = 50 } }
							if = { limit = { check_variable = { which = base_unrest_old value = 51 } }
								remove_province_modifier = base_unrest_51
							}
							else = {
								remove_province_modifier = base_unrest_50
							}
						}
						else = {
							if = { limit = { check_variable = { which = base_unrest_old value = 49 } }
								remove_province_modifier = base_unrest_49
							}
							else = {
								remove_province_modifier = base_unrest_48
							}
						}
					}
				}
			}
			else = {
				if = { limit = { check_variable = { which = base_unrest_old value = 40 } }
					if = { limit = { check_variable = { which = base_unrest_old value = 44 } }
						if = { limit = { check_variable = { which = base_unrest_old value = 46 } }
							if = { limit = { check_variable = { which = base_unrest_old value = 47 } }
								remove_province_modifier = base_unrest_47
							}
							else = {
								remove_province_modifier = base_unrest_46
							}
						}
						else = {
							if = { limit = { check_variable = { which = base_unrest_old value = 45 } }
								remove_province_modifier = base_unrest_45
							}
							else = {
								remove_province_modifier = base_unrest_44
							}
						}
					}
					else = {
						if = { limit = { check_variable = { which = base_unrest_old value = 42 } }
							if = { limit = { check_variable = { which = base_unrest_old value = 43 } }
								remove_province_modifier = base_unrest_43
							}
							else = {
								remove_province_modifier = base_unrest_42
							}
						}
						else = {
							if = { limit = { check_variable = { which = base_unrest_old value = 41 } }
								remove_province_modifier = base_unrest_41
							}
							else = {
								remove_province_modifier = base_unrest_40
							}
						}
					}
				}
				else = {
					if = { limit = { check_variable = { which = base_unrest_old value = 36 } }
						if = { limit = { check_variable = { which = base_unrest_old value = 38 } }
							if = { limit = { check_variable = { which = base_unrest_old value = 39 } }
								remove_province_modifier = base_unrest_39
							}
							else = {
								remove_province_modifier = base_unrest_38
							}
						}
						else = {
							if = { limit = { check_variable = { which = base_unrest_old value = 37 } }
								remove_province_modifier = base_unrest_37
							}
							else = {
								remove_province_modifier = base_unrest_36
							}
						}
					}
					else = {
						if = { limit = { check_variable = { which = base_unrest_old value = 34 } }
							if = { limit = { check_variable = { which = base_unrest_old value = 35 } }
								remove_province_modifier = base_unrest_35
							}
							else = {
								remove_province_modifier = base_unrest_34
							}
						}
						else = {
							if = { limit = { check_variable = { which = base_unrest_old value = 33 } }
								remove_province_modifier = base_unrest_33
							}
							else = {
								remove_province_modifier = base_unrest_32
							}
						}
					}
				}
			}
		}
		else = {
			if = { limit = { check_variable = { which = base_unrest_old value = 16 } }
				if = { limit = { check_variable = { which = base_unrest_old value = 24 } }
					if = { limit = { check_variable = { which = base_unrest_old value = 28 } }
						if = { limit = { check_variable = { which = base_unrest_old value = 30 } }
							if = { limit = { check_variable = { which = base_unrest_old value = 31 } }
								remove_province_modifier = base_unrest_31
							}
							else = {
								remove_province_modifier = base_unrest_30
							}
						}
						else = {
							if = { limit = { check_variable = { which = base_unrest_old value = 29 } }
								remove_province_modifier = base_unrest_29
							}
							else = {
								remove_province_modifier = base_unrest_28
							}
						}
					}
					else = {
						if = { limit = { check_variable = { which = base_unrest_old value = 26 } }
							if = { limit = { check_variable = { which = base_unrest_old value = 27 } }
								remove_province_modifier = base_unrest_27
							}
							else = {
								remove_province_modifier = base_unrest_26
							}
						}
						else = {
							if = { limit = { check_variable = { which = base_unrest_old value = 25 } }
								remove_province_modifier = base_unrest_25
							}
							else = {
								remove_province_modifier = base_unrest_24
							}
						}
					}
				}
				else = {
					if = { limit = { check_variable = { which = base_unrest_old value = 20 } }
						if = { limit = { check_variable = { which = base_unrest_old value = 22 } }
							if = { limit = { check_variable = { which = base_unrest_old value = 23 } }
								remove_province_modifier = base_unrest_23
							}
							else = {
								remove_province_modifier = base_unrest_22
							}
						}
						else = {
							if = { limit = { check_variable = { which = base_unrest_old value = 21 } }
								remove_province_modifier = base_unrest_21
							}
							else = {
								remove_province_modifier = base_unrest_20
							}
						}
					}
					else = {
						if = { limit = { check_variable = { which = base_unrest_old value = 18 } }
							if = { limit = { check_variable = { which = base_unrest_old value = 19 } }
								remove_province_modifier = base_unrest_19
							}
							else = {
								remove_province_modifier = base_unrest_18
							}
						}
						else = {
							if = { limit = { check_variable = { which = base_unrest_old value = 17 } }
								remove_province_modifier = base_unrest_17
							}
							else = {
								remove_province_modifier = base_unrest_16
							}
						}
					}
				}
			}
			else = {
				if = { limit = { check_variable = { which = base_unrest_old value = 8 } }
					if = { limit = { check_variable = { which = base_unrest_old value = 12 } }
						if = { limit = { check_variable = { which = base_unrest_old value = 14 } }
							if = { limit = { check_variable = { which = base_unrest_old value = 15 } }
								remove_province_modifier = base_unrest_15
							}
							else = {
								remove_province_modifier = base_unrest_14
							}
						}
						else = {
							if = { limit = { check_variable = { which = base_unrest_old value = 13 } }
								remove_province_modifier = base_unrest_13
							}
							else = {
								remove_province_modifier = base_unrest_12
							}
						}
					}
					else = {
						if = { limit = { check_variable = { which = base_unrest_old value = 10 } }
							if = { limit = { check_variable = { which = base_unrest_old value = 11 } }
								remove_province_modifier = base_unrest_11
							}
							else = {
								remove_province_modifier = base_unrest_10
							}
						}
						else = {
							if = { limit = { check_variable = { which = base_unrest_old value = 9 } }
								remove_province_modifier = base_unrest_9
							}
							else = {
								remove_province_modifier = base_unrest_8
							}
						}
					}
				}
				else = {
					if = { limit = { check_variable = { which = base_unrest_old value = 4 } }
						if = { limit = { check_variable = { which = base_unrest_old value = 6 } }
							if = { limit = { check_variable = { which = base_unrest_old value = 7 } }
								remove_province_modifier = base_unrest_7
							}
							else = {
								remove_province_modifier = base_unrest_6
							}
						}
						else = {
							if = { limit = { check_variable = { which = base_unrest_old value = 5 } }
								remove_province_modifier = base_unrest_5
							}
							else = {
								remove_province_modifier = base_unrest_4
							}
						}
					}
					else = {
						if = { limit = { check_variable = { which = base_unrest_old value = 2 } }
							if = { limit = { check_variable = { which = base_unrest_old value = 3 } }
								remove_province_modifier = base_unrest_3
							}
							else = {
								remove_province_modifier = base_unrest_2
							}
						}
						else_if = { limit = { check_variable = { which = base_unrest_old value = 1 } }
							remove_province_modifier = base_unrest_1
						}
					}
				}
			}
		}
	}
}

base_unrest_tick_down = {
	if = {
		limit = {
			check_variable = { which = base_unrest 	value = 0.001 }
		}
		set_variable = { which = base_unrest_old 	which = base_unrest }
		set_variable = { which = base_unrest_compare 	which = base_unrest }
		subtract_variable = { which = base_unrest 	value = 0.08 } #How much to reduce per tick, balance here. Dont go past 1 per tick
		set_variable = { which = base_unrest_new 	which = base_unrest }
		
		# Truncate values
		divide_variable = { which = base_unrest_compare 	value = 1000 }
		multiply_variable = { which = base_unrest_compare 	value = 1000 }
		divide_variable = { which = base_unrest_new 	value = 1000 }
		multiply_variable = { which = base_unrest_new 	value = 1000 }
		
		# Calculate the difference between old and new
		subtract_variable = { which = base_unrest_compare 	which = base_unrest_new }
		
		if = { # Check if there is any difference that warrants a remove/add
			limit = {
				check_variable = { which = base_unrest_compare 	value = 1 }
			}
			base_unrest_remove_modifier_old = yes
			if = {
				limit = {
					check_variable = { which = base_unrest 	value = 1 }
				}
				base_unrest_add_modifier = yes
			}
		}
		if = {
			limit = {
				NOT = { check_variable = { which = base_unrest 	value = 1 } }
			}
			base_unrest_remove_modifier_old = yes
			set_variable = { which = base_unrest 	value = 0 }
		}
		set_variable = { which = base_unrest_old 	value = 0 }
		set_variable = { which = base_unrest_compare 	value = 0 }
		set_variable = { which = base_unrest_new 	value = 0 }
	}
}

# simplified version
add_base_unrest = {
	hidden_effect = {
		province_event = { id = stacking_unrest.002 }
	}
}
