name = "Orsini-Uros War"
war_goal = {
	type = take_claim
	casus_belli = cb_conquest
	province = 149 # Thessaly
}

1356.1.1   = {
	add_attacker = BYZ
	add_defender = TSL
}
1356.10.1   = {
	rem_attacker = BYZ
	rem_defender = TSL
}