name = "Conquest of Vientiane"
war_goal = {
	type = annex_country
	casus_belli = cb_annex
	tag = LXA
}

1356.1.1   = {
	add_attacker = LXA
	add_defender = VIE
}
1357.1.1   = {
	rem_defender = VIE
	rem_attacker = LXA
}