# 1069 - Barabinsk

capital = "Telennet"
trade_goods = unknown
culture = tartar
religion = tengri_pagan_reformed

base_tax = 1
base_production = 0
base_manpower = 0

native_size = 5
native_ferocity = 2
native_hostileness = 3

discovered_by = steppestech

450.1.1 = {
	set_province_flag = tribals_control_province
	add_permanent_province_modifier = {
		name = "novobirrisk_confluence"
		duration = -1
	}
	set_province_flag = has_confluence
	set_province_flag = good_natural_place
}
1356.1.1 = {
	discovered_by = YEN
}
1468.1.1 = {
	culture = siberian
}
1585.1.1 = {
	discovered_by = RUS
	owner = RUS
	controller = RUS
#	religion = orthodox
#	culture = russian
	rename_capital = "Novosibirsk"
	change_province_name = "Novonikolayevsk"
	citysize = 120
	set_province_flag = mined_goods
	set_province_flag = salt
	set_province_flag = trade_good_set
} # Yermak Timofeevic
1600.1.1 = {
	citysize = 240
}
1631.1.1 = {
	add_core = RUS
}
1650.1.1 = {
	citysize = 455
}
1666.1.1 = {
	unrest = 4
} # Samoyed rebellion
1669.1.1 = {
	unrest = 0
}
1679.1.1 = {
	unrest = 3
}
1680.1.1 = {
	unrest = 0
}
1700.1.1 = {
	citysize = 831
}
1750.1.1 = {
	is_city = yes
}
