#115 - Lucca

owner = LUC
controller = LUC
add_core = LUC

capital = "Lucca"
trade_goods = olive #silk
culture = tuscan
religion = catholic

hre = yes

base_tax = 8
base_production = 1
base_manpower = 0

is_city = yes
corporation_guild = yes
harbour_infrastructure_1 = yes
local_fortification_1 = yes
road_network = yes
temple = yes
town_hall = yes

discovered_by = western
discovered_by = eastern
discovered_by = muslim
discovered_by = turkishtech

450.1.1 = {
	add_permanent_province_modifier = {
		name = "lack_of_harbour"
		duration = -1
	}
}
500.1.1 = {
	add_permanent_province_modifier = {
		name = urban_goods_silk
		duration = -1
	}
}
1339.1.1 = {
	controller = VER
	owner = VER
	add_core = VER
}
1340.1.1 = {
	controller = LUC
	owner = LUC
	remove_core = VER
}
1342.1.1 = {
	controller = PIS
	owner = PIS
	add_core = PIS
	set_local_autonomy = 75
} # Pisan occupation
1372.1.1 = {
	controller = LUC
	owner = LUC
	remove_core = PIS
	set_local_autonomy = 0
}
1520.5.5 = {
	base_tax = 9
	base_production = 2
	base_manpower = 0
	fort_14th = yes
}
1530.1.2 = {
	road_network = no
	paved_road_network = yes
}
1530.2.27 = {
	hre = no
}
1618.1.1 = {
	hre = no
}
1801.2.9 = {
	owner = FRA
	controller = FRA
	add_core = FRA
} # The Treaty of LunÚville
1801.3.21 = {
	owner = ETR
	controller = ETR
	add_core = ETR
} # The Kingdom of Etruria
1807.12.10 = {
	owner = FRA
	controller = FRA
	remove_core = ETR
} # Etruria is annexed to France
1814.4.11 = {
	owner = LUC
	controller = LUC
	remove_core = FRA
} # Napoleon abdicates and Tuscany is restored
1860.3.20 = {
	owner = SPI
	controller = SPI
	add_core = SPI
}
1861.2.18 = {
	owner = ITE
	controller = ITE
	add_core = ITE
	remove_core = SPI
}
