# 2149 - jiangsu_area Jiangning

owner = YUA
controller = YUA

capital = "Chuzhou"
trade_goods = rice
culture = jianghuai
religion = confucianism

hre = no

base_tax = 11
base_production = 0
base_manpower = 0

is_city = yes
road_network = yes

discovered_by = chinese
discovered_by = steppestech

985.1.1 = {
	owner = SNG
	controller = SNG
	add_core = SNG
}
1276.1.1 = {
	owner = YUA
	controller = YUA
	add_core = YUA
	set_province_flag = mined_goods
	set_province_flag = copper
}
1320.1.1 = {
	remove_core = SNG
}
1351.1.1 = {
	add_core = MNG
}
1356.1.1 = {
	owner = MNG
	controller = MNG
#	remove_core = YUA # Red Turbans
}
1520.2.2 = {
	base_tax = 10
	base_production = 3
	base_manpower = 1
}
1645.6.25 = {
	owner = QNG
	controller = QNG
	add_core = QNG
} # The Qing Dynasty
#1662.1.1 = {
#	owner = QNG
#	controller = QNG
#	add_core = QNG
#	remove_core = MNG
#} # The Qing Dynasty
1662.1.1 = {
	remove_core = MNG
}
