# 5451 Baoning

owner = QIN
controller = XIA

capital = "Longzhong"
trade_goods = carmine
culture = bashu
religion = confucianism

hre = no

base_tax = 8
base_production = 0
base_manpower = 0

is_city = yes
road_network = yes
temple = yes

discovered_by = chinese
discovered_by = steppestech

1276.1.1 = {
	owner = YUA
	controller = YUA
	add_core = YUA
}
1351.1.1 = {
	owner = SHU
	controller = SHU
	add_core = SHU
}
1356.1.1 = {
	controller = XIA
}
1360.1.1 = {
	owner = XIA
	add_core = XIA
}
1369.3.17 = {
	owner = MNG
	controller = MNG
	add_core = MNG
	remove_core = SHU
	remove_core = XIA
	remove_core = YUA
}
1450.1.1 = {
	culture = jingchu
}
1520.2.2 = {
	base_tax = 12
}
1645.6.25 = {
	owner = QNG
	controller = QNG
	add_core = QNG
} # The Qing Dynasty
1662.1.1 = {
	remove_core = MNG
}
