bookmark =
{
	name = "GOLDEN_BULL_NAME"
	desc = "GOLDEN_BULL_DESC"
	date = 1356.12.25

	country = LUX
	country = KOL
	country = TRI
	country = MAI
	country = PAL
	country = SAX
	country = BRA
	country = BOH
	country = FRA
	country = ENG

#	effect = {
#		1 = { set_global_flag = f_game_start }
#	}
}
