### Year
#Ex: "Byeongsin, 5th year of Gongmin Wang"
defined_text = {
	name = GetSexagenaryYear
	
	text = {
		localisation_key = string_gapja
		trigger = {
			OR = {
				AND = {
					is_year = 1384
					NOT = { is_year = 1385 }
				}
				AND = {
					is_year = 1444
					NOT = { is_year = 1445 }
				}
				AND = {
					is_year = 1504
					NOT = { is_year = 1505 }
				}
				AND = {
					is_year = 1564
					NOT = { is_year = 1565 }
				}
				AND = {
					is_year = 1624
					NOT = { is_year = 1625 }
				}
				AND = {
					is_year = 1684
					NOT = { is_year = 1685 }
				}
				AND = {
					is_year = 1744
					NOT = { is_year = 1745 }
				}
				AND = {
					is_year = 1804
					NOT = { is_year = 1805 }
				}
			}
		}
	}
	text = {
		localisation_key = string_eulchuk
		trigger = {
			OR = {
				AND = {
					is_year = 1385
					NOT = { is_year = 1386 }
				}
				AND = {
					is_year = 1445
					NOT = { is_year = 1446 }
				}
				AND = {
					is_year = 1505
					NOT = { is_year = 1506 }
				}
				AND = {
					is_year = 1565
					NOT = { is_year = 1566 }
				}
				AND = {
					is_year = 1625
					NOT = { is_year = 1626 }
				}
				AND = {
					is_year = 1685
					NOT = { is_year = 1686 }
				}
				AND = {
					is_year = 1745
					NOT = { is_year = 1746 }
				}
				AND = {
					is_year = 1805
					NOT = { is_year = 1806 }
				}
			}
		}
	}
	text = {
		localisation_key = string_byeongin
		trigger = {
			OR = {
				AND = {
					is_year = 1386
					NOT = { is_year = 1387 }
				}
				AND = {
					is_year = 1446
					NOT = { is_year = 1447 }
				}
				AND = {
					is_year = 1506
					NOT = { is_year = 1507 }
				}
				AND = {
					is_year = 1566
					NOT = { is_year = 1567 }
				}
				AND = {
					is_year = 1626
					NOT = { is_year = 1627 }
				}
				AND = {
					is_year = 1686
					NOT = { is_year = 1687 }
				}
				AND = {
					is_year = 1746
					NOT = { is_year = 1747 }
				}
				AND = {
					is_year = 1806
					NOT = { is_year = 1807 }
				}
			}
		}
	}
	text = {
		localisation_key = string_jeongmyo
		trigger = {
			OR = {
				AND = {
					is_year = 1387
					NOT = { is_year = 1388 }
				}
				AND = {
					is_year = 1447
					NOT = { is_year = 1448 }
				}
				AND = {
					is_year = 1507
					NOT = { is_year = 1508 }
				}
				AND = {
					is_year = 1567
					NOT = { is_year = 1568 }
				}
				AND = {
					is_year = 1627
					NOT = { is_year = 1628 }
				}
				AND = {
					is_year = 1687
					NOT = { is_year = 1688 }
				}
				AND = {
					is_year = 1747
					NOT = { is_year = 1748 }
				}
				AND = {
					is_year = 1807
					NOT = { is_year = 1808 }
				}
			}
		}
	}
	text = {
		localisation_key = string_mujin
		trigger = {
			OR = {
				AND = {
					is_year = 1388
					NOT = { is_year = 1389 }
				}
				AND = {
					is_year = 1448
					NOT = { is_year = 1449 }
				}
				AND = {
					is_year = 1508
					NOT = { is_year = 1509 }
				}
				AND = {
					is_year = 1568
					NOT = { is_year = 1569 }
				}
				AND = {
					is_year = 1628
					NOT = { is_year = 1629 }
				}
				AND = {
					is_year = 1688
					NOT = { is_year = 1689 }
				}
				AND = {
					is_year = 1748
					NOT = { is_year = 1749 }
				}
				AND = {
					is_year = 1808
					NOT = { is_year = 1809 }
				}
			}
		}
	}
	text = {
		localisation_key = string_gisa
		trigger = {
			OR = {
				AND = {
					is_year = 1389
					NOT = { is_year = 1390 }
				}
				AND = {
					is_year = 1449
					NOT = { is_year = 1450 }
				}
				AND = {
					is_year = 1509
					NOT = { is_year = 1510 }
				}
				AND = {
					is_year = 1569
					NOT = { is_year = 1570 }
				}
				AND = {
					is_year = 1629
					NOT = { is_year = 1630 }
				}
				AND = {
					is_year = 1689
					NOT = { is_year = 1690 }
				}
				AND = {
					is_year = 1749
					NOT = { is_year = 1750 }
				}
				AND = {
					is_year = 1809
					NOT = { is_year = 1810 }
				}
			}
		}
	}
	text = {
		localisation_key = string_gyeongo
		trigger = {
			OR = {
				AND = {
					is_year = 1390
					NOT = { is_year = 1391 }
				}
				AND = {
					is_year = 1450
					NOT = { is_year = 1451 }
				}
				AND = {
					is_year = 1510
					NOT = { is_year = 1511 }
				}
				AND = {
					is_year = 1570
					NOT = { is_year = 1571 }
				}
				AND = {
					is_year = 1630
					NOT = { is_year = 1631 }
				}
				AND = {
					is_year = 1690
					NOT = { is_year = 1691 }
				}
				AND = {
					is_year = 1750
					NOT = { is_year = 1751 }
				}
				AND = {
					is_year = 1810
					NOT = { is_year = 1811 }
				}
			}
		}
	}
	text = {
		localisation_key = string_sinmi
		trigger = {
			OR = {
				AND = {
					is_year = 1391
					NOT = { is_year = 1392 }
				}
				AND = {
					is_year = 1451
					NOT = { is_year = 1452 }
				}
				AND = {
					is_year = 1511
					NOT = { is_year = 1512 }
				}
				AND = {
					is_year = 1571
					NOT = { is_year = 1572 }
				}
				AND = {
					is_year = 1631
					NOT = { is_year = 1632 }
				}
				AND = {
					is_year = 1691
					NOT = { is_year = 1692 }
				}
				AND = {
					is_year = 1751
					NOT = { is_year = 1752 }
				}
				AND = {
					is_year = 1811
					NOT = { is_year = 1812 }
				}
			}
		}
	}
	text = {
		localisation_key = string_imsin
		trigger = {
			OR = {
				AND = {
					is_year = 1392
					NOT = { is_year = 1393 }
				}
				AND = {
					is_year = 1452
					NOT = { is_year = 1453 }
				}
				AND = {
					is_year = 1512
					NOT = { is_year = 1513 }
				}
				AND = {
					is_year = 1572
					NOT = { is_year = 1573 }
				}
				AND = {
					is_year = 1632
					NOT = { is_year = 1633 }
				}
				AND = {
					is_year = 1692
					NOT = { is_year = 1693 }
				}
				AND = {
					is_year = 1752
					NOT = { is_year = 1753 }
				}
				AND = {
					is_year = 1812
					NOT = { is_year = 1813 }
				}
			}
		}
	}
	text = {
		localisation_key = string_gyeyu
		trigger = {
			OR = {
				AND = {
					is_year = 1393
					NOT = { is_year = 1394 }
				}
				AND = {
					is_year = 1453
					NOT = { is_year = 1454 }
				}
				AND = {
					is_year = 1513
					NOT = { is_year = 1514 }
				}
				AND = {
					is_year = 1573
					NOT = { is_year = 1574 }
				}
				AND = {
					is_year = 1633
					NOT = { is_year = 1634 }
				}
				AND = {
					is_year = 1693
					NOT = { is_year = 1694 }
				}
				AND = {
					is_year = 1753
					NOT = { is_year = 1754 }
				}
				AND = {
					is_year = 1813
					NOT = { is_year = 1814 }
				}
			}
		}
	}
	text = {
		localisation_key = string_gapsul
		trigger = {
			OR = {
				AND = {
					is_year = 1394
					NOT = { is_year = 1395 }
				}
				AND = {
					is_year = 1454
					NOT = { is_year = 1455 }
				}
				AND = {
					is_year = 1514
					NOT = { is_year = 1515 }
				}
				AND = {
					is_year = 1574
					NOT = { is_year = 1575 }
				}
				AND = {
					is_year = 1634
					NOT = { is_year = 1635 }
				}
				AND = {
					is_year = 1694
					NOT = { is_year = 1695 }
				}
				AND = {
					is_year = 1754
					NOT = { is_year = 1755 }
				}
				AND = {
					is_year = 1814
					NOT = { is_year = 1815 }
				}
			}
		}
	}
	text = {
		localisation_key = string_eulhae
		trigger = {
			OR = {
				AND = {
					is_year = 1395
					NOT = { is_year = 1396 }
				}
				AND = {
					is_year = 1455
					NOT = { is_year = 1456 }
				}
				AND = {
					is_year = 1515
					NOT = { is_year = 1516 }
				}
				AND = {
					is_year = 1575
					NOT = { is_year = 1576 }
				}
				AND = {
					is_year = 1635
					NOT = { is_year = 1636 }
				}
				AND = {
					is_year = 1695
					NOT = { is_year = 1696 }
				}
				AND = {
					is_year = 1755
					NOT = { is_year = 1756 }
				}
				AND = {
					is_year = 1815
					NOT = { is_year = 1816 }
				}
			}
		}
	}
	text = {
		localisation_key = string_byeongja
		trigger = {
			OR = {
				AND = {
					is_year = 1396
					NOT = { is_year = 1397 }
				}
				AND = {
					is_year = 1456
					NOT = { is_year = 1457 }
				}
				AND = {
					is_year = 1516
					NOT = { is_year = 1517 }
				}
				AND = {
					is_year = 1576
					NOT = { is_year = 1577 }
				}
				AND = {
					is_year = 1636
					NOT = { is_year = 1637 }
				}
				AND = {
					is_year = 1696
					NOT = { is_year = 1697 }
				}
				AND = {
					is_year = 1756
					NOT = { is_year = 1757 }
				}
				AND = {
					is_year = 1816
					NOT = { is_year = 1817 }
				}
			}
		}
	}
	text = {
		localisation_key = string_jeongchuk
		trigger = {
			OR = {
				AND = {
					is_year = 1397
					NOT = { is_year = 1398 }
				}
				AND = {
					is_year = 1457
					NOT = { is_year = 1458 }
				}
				AND = {
					is_year = 1517
					NOT = { is_year = 1518 }
				}
				AND = {
					is_year = 1577
					NOT = { is_year = 1578 }
				}
				AND = {
					is_year = 1637
					NOT = { is_year = 1638 }
				}
				AND = {
					is_year = 1697
					NOT = { is_year = 1698 }
				}
				AND = {
					is_year = 1757
					NOT = { is_year = 1758 }
				}
				AND = {
					is_year = 1817
					NOT = { is_year = 1818 }
				}
			}
		}
	}
	text = {
		localisation_key = string_muin
		trigger = {
			OR = {
				AND = {
					is_year = 1398
					NOT = { is_year = 1399 }
				}
				AND = {
					is_year = 1458
					NOT = { is_year = 1459 }
				}
				AND = {
					is_year = 1518
					NOT = { is_year = 1519 }
				}
				AND = {
					is_year = 1578
					NOT = { is_year = 1579 }
				}
				AND = {
					is_year = 1638
					NOT = { is_year = 1639 }
				}
				AND = {
					is_year = 1698
					NOT = { is_year = 1699 }
				}
				AND = {
					is_year = 1758
					NOT = { is_year = 1759 }
				}
				AND = {
					is_year = 1818
					NOT = { is_year = 1819 }
				}
			}
		}
	}
	text = {
		localisation_key = string_gimyo
		trigger = {
			OR = {
				AND = {
					is_year = 1399
					NOT = { is_year = 1400 }
				}
				AND = {
					is_year = 1459
					NOT = { is_year = 1460 }
				}
				AND = {
					is_year = 1519
					NOT = { is_year = 1520 }
				}
				AND = {
					is_year = 1579
					NOT = { is_year = 1580 }
				}
				AND = {
					is_year = 1639
					NOT = { is_year = 1640 }
				}
				AND = {
					is_year = 1699
					NOT = { is_year = 1700 }
				}
				AND = {
					is_year = 1759
					NOT = { is_year = 1760 }
				}
				AND = {
					is_year = 1819
					NOT = { is_year = 1820 }
				}
			}
		}
	}
	text = {
		localisation_key = string_gyeongjin
		trigger = {
			OR = {
				AND = {
					is_year = 1400
					NOT = { is_year = 1401 }
				}
				AND = {
					is_year = 1460
					NOT = { is_year = 1461 }
				}
				AND = {
					is_year = 1520
					NOT = { is_year = 1521 }
				}
				AND = {
					is_year = 1580
					NOT = { is_year = 1581 }
				}
				AND = {
					is_year = 1640
					NOT = { is_year = 1641 }
				}
				AND = {
					is_year = 1700
					NOT = { is_year = 1701 }
				}
				AND = {
					is_year = 1760
					NOT = { is_year = 1761 }
				}
				AND = {
					is_year = 1820
					NOT = { is_year = 1821 }
				}
			}
		}
	}
	text = {
		localisation_key = string_sinsa
		trigger = {
			OR = {
				AND = {
					is_year = 1401
					NOT = { is_year = 1402 }
				}
				AND = {
					is_year = 1461
					NOT = { is_year = 1462 }
				}
				AND = {
					is_year = 1521
					NOT = { is_year = 1522 }
				}
				AND = {
					is_year = 1581
					NOT = { is_year = 1582 }
				}
				AND = {
					is_year = 1641
					NOT = { is_year = 1642 }
				}
				AND = {
					is_year = 1701
					NOT = { is_year = 1702 }
				}
				AND = {
					is_year = 1761
					NOT = { is_year = 1762 }
				}
				AND = {
					is_year = 1821
					NOT = { is_year = 1822 }
				}
			}
		}
	}
	text = {
		localisation_key = string_imo
		trigger = {
			OR = {
				AND = {
					is_year = 1402
					NOT = { is_year = 1403 }
				}
				AND = {
					is_year = 1462
					NOT = { is_year = 1463 }
				}
				AND = {
					is_year = 1522
					NOT = { is_year = 1523 }
				}
				AND = {
					is_year = 1582
					NOT = { is_year = 1583 }
				}
				AND = {
					is_year = 1642
					NOT = { is_year = 1643 }
				}
				AND = {
					is_year = 1702
					NOT = { is_year = 1703 }
				}
				AND = {
					is_year = 1762
					NOT = { is_year = 1763 }
				}
				AND = {
					is_year = 1822
					NOT = { is_year = 1823 }
				}
			}
		}
	}
	text = {
		localisation_key = string_gyemi
		trigger = {
			OR = {
				AND = {
					is_year = 1403
					NOT = { is_year = 1404 }
				}
				AND = {
					is_year = 1463
					NOT = { is_year = 1464 }
				}
				AND = {
					is_year = 1523
					NOT = { is_year = 1524 }
				}
				AND = {
					is_year = 1583
					NOT = { is_year = 1584 }
				}
				AND = {
					is_year = 1643
					NOT = { is_year = 1644 }
				}
				AND = {
					is_year = 1703
					NOT = { is_year = 1704 }
				}
				AND = {
					is_year = 1763
					NOT = { is_year = 1764 }
				}
				AND = {
					is_year = 1823
					NOT = { is_year = 1824 }
				}
			}
		}
	}
	text = {
		localisation_key = string_gapsin
		trigger = {
			OR = {
				AND = {
					is_year = 1404
					NOT = { is_year = 1405 }
				}
				AND = {
					is_year = 1464
					NOT = { is_year = 1465 }
				}
				AND = {
					is_year = 1524
					NOT = { is_year = 1525 }
				}
				AND = {
					is_year = 1584
					NOT = { is_year = 1585 }
				}
				AND = {
					is_year = 1644
					NOT = { is_year = 1645 }
				}
				AND = {
					is_year = 1704
					NOT = { is_year = 1705 }
				}
				AND = {
					is_year = 1764
					NOT = { is_year = 1765 }
				}
				AND = {
					is_year = 1824
					NOT = { is_year = 1825 }
				}
			}
		}
	}
	text = {
		localisation_key = string_eulyu
		trigger = {
			OR = {
				AND = {
					is_year = 1405
					NOT = { is_year = 1406 }
				}
				AND = {
					is_year = 1465
					NOT = { is_year = 1466 }
				}
				AND = {
					is_year = 1525
					NOT = { is_year = 1526 }
				}
				AND = {
					is_year = 1585
					NOT = { is_year = 1586 }
				}
				AND = {
					is_year = 1645
					NOT = { is_year = 1646 }
				}
				AND = {
					is_year = 1705
					NOT = { is_year = 1706 }
				}
				AND = {
					is_year = 1765
					NOT = { is_year = 1766 }
				}
				AND = {
					is_year = 1825
					NOT = { is_year = 1826 }
				}
			}
		}
	}
	text = {
		localisation_key = string_byeongsul
		trigger = {
			OR = {
				AND = {
					is_year = 1406
					NOT = { is_year = 1407 }
				}
				AND = {
					is_year = 1466
					NOT = { is_year = 1467 }
				}
				AND = {
					is_year = 1526
					NOT = { is_year = 1527 }
				}
				AND = {
					is_year = 1586
					NOT = { is_year = 1587 }
				}
				AND = {
					is_year = 1646
					NOT = { is_year = 1647 }
				}
				AND = {
					is_year = 1706
					NOT = { is_year = 1707 }
				}
				AND = {
					is_year = 1766
					NOT = { is_year = 1767 }
				}
				AND = {
					is_year = 1826
					NOT = { is_year = 1827 }
				}
			}
		}
	}
	text = {
		localisation_key = string_jeonghae
		trigger = {
			OR = {
				AND = {
					is_year = 1407
					NOT = { is_year = 1408 }
				}
				AND = {
					is_year = 1467
					NOT = { is_year = 1468 }
				}
				AND = {
					is_year = 1527
					NOT = { is_year = 1528 }
				}
				AND = {
					is_year = 1587
					NOT = { is_year = 1588 }
				}
				AND = {
					is_year = 1647
					NOT = { is_year = 1648 }
				}
				AND = {
					is_year = 1707
					NOT = { is_year = 1708 }
				}
				AND = {
					is_year = 1767
					NOT = { is_year = 1768 }
				}
				AND = {
					is_year = 1827
					NOT = { is_year = 1828 }
				}
			}
		}
	}
	text = {
		localisation_key = string_muja
		trigger = {
			OR = {
				AND = {
					is_year = 1408
					NOT = { is_year = 1409 }
				}
				AND = {
					is_year = 1468
					NOT = { is_year = 1469 }
				}
				AND = {
					is_year = 1528
					NOT = { is_year = 1529 }
				}
				AND = {
					is_year = 1588
					NOT = { is_year = 1589 }
				}
				AND = {
					is_year = 1648
					NOT = { is_year = 1649 }
				}
				AND = {
					is_year = 1708
					NOT = { is_year = 1709 }
				}
				AND = {
					is_year = 1768
					NOT = { is_year = 1769 }
				}
				AND = {
					is_year = 1828
					NOT = { is_year = 1829 }
				}
			}
		}
	}
	text = {
		localisation_key = string_gichuk
		trigger = {
			OR = {
				AND = {
					is_year = 1409
					NOT = { is_year = 1410 }
				}
				AND = {
					is_year = 1469
					NOT = { is_year = 1470 }
				}
				AND = {
					is_year = 1529
					NOT = { is_year = 1530 }
				}
				AND = {
					is_year = 1589
					NOT = { is_year = 1590 }
				}
				AND = {
					is_year = 1649
					NOT = { is_year = 1650 }
				}
				AND = {
					is_year = 1709
					NOT = { is_year = 1710 }
				}
				AND = {
					is_year = 1769
					NOT = { is_year = 1770 }
				}
				AND = {
					is_year = 1829
					NOT = { is_year = 1830 }
				}
			}
		}
	}
	text = {
		localisation_key = string_gyeongin
		trigger = {
			OR = {
				AND = {
					is_year = 1410
					NOT = { is_year = 1411 }
				}
				AND = {
					is_year = 1470
					NOT = { is_year = 1471 }
				}
				AND = {
					is_year = 1530
					NOT = { is_year = 1531 }
				}
				AND = {
					is_year = 1590
					NOT = { is_year = 1591 }
				}
				AND = {
					is_year = 1650
					NOT = { is_year = 1651 }
				}
				AND = {
					is_year = 1710
					NOT = { is_year = 1711 }
				}
				AND = {
					is_year = 1770
					NOT = { is_year = 1771 }
				}
				AND = {
					is_year = 1830
					NOT = { is_year = 1831 }
				}
			}
		}
	}
	text = {
		localisation_key = string_sinmyo
		trigger = {
			OR = {
				AND = {
					is_year = 1411
					NOT = { is_year = 1412 }
				}
				AND = {
					is_year = 1471
					NOT = { is_year = 1472 }
				}
				AND = {
					is_year = 1531
					NOT = { is_year = 1532 }
				}
				AND = {
					is_year = 1591
					NOT = { is_year = 1592 }
				}
				AND = {
					is_year = 1651
					NOT = { is_year = 1652 }
				}
				AND = {
					is_year = 1711
					NOT = { is_year = 1712 }
				}
				AND = {
					is_year = 1771
					NOT = { is_year = 1772 }
				}
				AND = {
					is_year = 1831
					NOT = { is_year = 1832 }
				}
			}
		}
	}
	text = {
		localisation_key = string_imjin
		trigger = {
			OR = {
				AND = {
					is_year = 1412
					NOT = { is_year = 1413 }
				}
				AND = {
					is_year = 1472
					NOT = { is_year = 1473 }
				}
				AND = {
					is_year = 1532
					NOT = { is_year = 1533 }
				}
				AND = {
					is_year = 1592
					NOT = { is_year = 1593 }
				}
				AND = {
					is_year = 1652
					NOT = { is_year = 1653 }
				}
				AND = {
					is_year = 1712
					NOT = { is_year = 1713 }
				}
				AND = {
					is_year = 1772
					NOT = { is_year = 1773 }
				}
				AND = {
					is_year = 1832
					NOT = { is_year = 1833 }
				}
			}
		}
	}
	text = {
		localisation_key = string_gyesa
		trigger = {
			OR = {
				AND = {
					is_year = 1413
					NOT = { is_year = 1414 }
				}
				AND = {
					is_year = 1473
					NOT = { is_year = 1474 }
				}
				AND = {
					is_year = 1533
					NOT = { is_year = 1534 }
				}
				AND = {
					is_year = 1593
					NOT = { is_year = 1594 }
				}
				AND = {
					is_year = 1653
					NOT = { is_year = 1654 }
				}
				AND = {
					is_year = 1713
					NOT = { is_year = 1714 }
				}
				AND = {
					is_year = 1773
					NOT = { is_year = 1774 }
				}
				AND = {
					is_year = 1833
					NOT = { is_year = 1834 }
				}
			}
		}
	}
	text = {
		localisation_key = string_gabo
		trigger = {
			OR = {
				AND = {
					is_year = 1414
					NOT = { is_year = 1415 }
				}
				AND = {
					is_year = 1474
					NOT = { is_year = 1475 }
				}
				AND = {
					is_year = 1534
					NOT = { is_year = 1535 }
				}
				AND = {
					is_year = 1594
					NOT = { is_year = 1595 }
				}
				AND = {
					is_year = 1654
					NOT = { is_year = 1655 }
				}
				AND = {
					is_year = 1714
					NOT = { is_year = 1715 }
				}
				AND = {
					is_year = 1774
					NOT = { is_year = 1775 }
				}
				AND = {
					is_year = 1834
					NOT = { is_year = 1835 }
				}
			}
		}
	}
	text = {
		localisation_key = string_eulmi
		trigger = {
			OR = {
				AND = {
					is_year = 1415
					NOT = { is_year = 1416 }
				}
				AND = {
					is_year = 1475
					NOT = { is_year = 1476 }
				}
				AND = {
					is_year = 1535
					NOT = { is_year = 1536 }
				}
				AND = {
					is_year = 1595
					NOT = { is_year = 1596 }
				}
				AND = {
					is_year = 1655
					NOT = { is_year = 1656 }
				}
				AND = {
					is_year = 1715
					NOT = { is_year = 1716 }
				}
				AND = {
					is_year = 1775
					NOT = { is_year = 1776 }
				}
				AND = {
					is_year = 1835
					NOT = { is_year = 1836 }
				}
			}
		}
	}
	text = {
		localisation_key = string_byeongsin
		trigger = {
			OR = {
				AND = {
					is_year = 1356
					NOT = { is_year = 1357 }
				}
				AND = {
					is_year = 1416
					NOT = { is_year = 1417 }
				}
				AND = {
					is_year = 1476
					NOT = { is_year = 1477 }
				}
				AND = {
					is_year = 1536
					NOT = { is_year = 1537 }
				}
				AND = {
					is_year = 1596
					NOT = { is_year = 1597 }
				}
				AND = {
					is_year = 1656
					NOT = { is_year = 1657 }
				}
				AND = {
					is_year = 1716
					NOT = { is_year = 1717 }
				}
				AND = {
					is_year = 1776
					NOT = { is_year = 1777 }
				}
				AND = {
					is_year = 1836
					NOT = { is_year = 1837 }
				}
			}
		}
	}
	text = {
		localisation_key = string_jeongyu
		trigger = {
			OR = {
				AND = {
					is_year = 1357
					NOT = { is_year = 1358 }
				}
				AND = {
					is_year = 1417
					NOT = { is_year = 1418 }
				}
				AND = {
					is_year = 1477
					NOT = { is_year = 1478 }
				}
				AND = {
					is_year = 1537
					NOT = { is_year = 1538 }
				}
				AND = {
					is_year = 1597
					NOT = { is_year = 1598 }
				}
				AND = {
					is_year = 1657
					NOT = { is_year = 1658 }
				}
				AND = {
					is_year = 1717
					NOT = { is_year = 1718 }
				}
				AND = {
					is_year = 1777
					NOT = { is_year = 1778 }
				}
				AND = {
					is_year = 1837
					NOT = { is_year = 1838 }
				}
			}
		}
	}
	text = {
		localisation_key = string_musul
		trigger = {
			OR = {
				AND = {
					is_year = 1358
					NOT = { is_year = 1359 }
				}
				AND = {
					is_year = 1418
					NOT = { is_year = 1419 }
				}
				AND = {
					is_year = 1478
					NOT = { is_year = 1479 }
				}
				AND = {
					is_year = 1538
					NOT = { is_year = 1539 }
				}
				AND = {
					is_year = 1598
					NOT = { is_year = 1599 }
				}
				AND = {
					is_year = 1658
					NOT = { is_year = 1659 }
				}
				AND = {
					is_year = 1718
					NOT = { is_year = 1719 }
				}
				AND = {
					is_year = 1778
					NOT = { is_year = 1779 }
				}
				AND = {
					is_year = 1838
					NOT = { is_year = 1839 }
				}
			}
		}
	}
	text = {
		localisation_key = string_gihae
		trigger = {
			OR = {
				AND = {
					is_year = 1359
					NOT = { is_year = 1360 }
				}
				AND = {
					is_year = 1419
					NOT = { is_year = 1420 }
				}
				AND = {
					is_year = 1479
					NOT = { is_year = 1480 }
				}
				AND = {
					is_year = 1539
					NOT = { is_year = 1540 }
				}
				AND = {
					is_year = 1599
					NOT = { is_year = 1600 }
				}
				AND = {
					is_year = 1659
					NOT = { is_year = 1660 }
				}
				AND = {
					is_year = 1719
					NOT = { is_year = 1720 }
				}
				AND = {
					is_year = 1779
					NOT = { is_year = 1780 }
				}
				AND = {
					is_year = 1839
					NOT = { is_year = 1840 }
				}
			}
		}
	}
	text = {
		localisation_key = string_gyeongja
		trigger = {
			OR = {
				AND = {
					is_year = 1360
					NOT = { is_year = 1361 }
				}
				AND = {
					is_year = 1420
					NOT = { is_year = 1421 }
				}
				AND = {
					is_year = 1480
					NOT = { is_year = 1481 }
				}
				AND = {
					is_year = 1540
					NOT = { is_year = 1541 }
				}
				AND = {
					is_year = 1600
					NOT = { is_year = 1601 }
				}
				AND = {
					is_year = 1660
					NOT = { is_year = 1661 }
				}
				AND = {
					is_year = 1720
					NOT = { is_year = 1721 }
				}
				AND = {
					is_year = 1780
					NOT = { is_year = 1781 }
				}
				AND = {
					is_year = 1840
					NOT = { is_year = 1841 }
				}
			}
		}
	}
	text = {
		localisation_key = string_sinchuk
		trigger = {
			OR = {
				AND = {
					is_year = 1361
					NOT = { is_year = 1362 }
				}
				AND = {
					is_year = 1421
					NOT = { is_year = 1422 }
				}
				AND = {
					is_year = 1481
					NOT = { is_year = 1482 }
				}
				AND = {
					is_year = 1541
					NOT = { is_year = 1542 }
				}
				AND = {
					is_year = 1601
					NOT = { is_year = 1602 }
				}
				AND = {
					is_year = 1661
					NOT = { is_year = 1662 }
				}
				AND = {
					is_year = 1721
					NOT = { is_year = 1722 }
				}
				AND = {
					is_year = 1781
					NOT = { is_year = 1782 }
				}
				AND = {
					is_year = 1841
					NOT = { is_year = 1842 }
				}
			}
		}
	}
	text = {
		localisation_key = string_imin
		trigger = {
			OR = {
				AND = {
					is_year = 1362
					NOT = { is_year = 1363 }
				}
				AND = {
					is_year = 1422
					NOT = { is_year = 1423 }
				}
				AND = {
					is_year = 1482
					NOT = { is_year = 1483 }
				}
				AND = {
					is_year = 1542
					NOT = { is_year = 1543 }
				}
				AND = {
					is_year = 1602
					NOT = { is_year = 1603 }
				}
				AND = {
					is_year = 1662
					NOT = { is_year = 1663 }
				}
				AND = {
					is_year = 1722
					NOT = { is_year = 1723 }
				}
				AND = {
					is_year = 1782
					NOT = { is_year = 1783 }
				}
				AND = {
					is_year = 1842
					NOT = { is_year = 1843 }
				}
			}
		}
	}
	text = {
		localisation_key = string_gyemyo
		trigger = {
			OR = {
				AND = {
					is_year = 1363
					NOT = { is_year = 1364 }
				}
				AND = {
					is_year = 1423
					NOT = { is_year = 1424 }
				}
				AND = {
					is_year = 1483
					NOT = { is_year = 1484 }
				}
				AND = {
					is_year = 1543
					NOT = { is_year = 1544 }
				}
				AND = {
					is_year = 1603
					NOT = { is_year = 1604 }
				}
				AND = {
					is_year = 1663
					NOT = { is_year = 1664 }
				}
				AND = {
					is_year = 1723
					NOT = { is_year = 1724 }
				}
				AND = {
					is_year = 1783
					NOT = { is_year = 1784 }
				}
				AND = {
					is_year = 1843
					NOT = { is_year = 1844 }
				}
			}
		}
	}
	text = {
		localisation_key = string_gapjin
		trigger = {
			OR = {
				AND = {
					is_year = 1364
					NOT = { is_year = 1365 }
				}
				AND = {
					is_year = 1424
					NOT = { is_year = 1425 }
				}
				AND = {
					is_year = 1484
					NOT = { is_year = 1485 }
				}
				AND = {
					is_year = 1544
					NOT = { is_year = 1545 }
				}
				AND = {
					is_year = 1604
					NOT = { is_year = 1605 }
				}
				AND = {
					is_year = 1664
					NOT = { is_year = 1665 }
				}
				AND = {
					is_year = 1724
					NOT = { is_year = 1725 }
				}
				AND = {
					is_year = 1784
					NOT = { is_year = 1785 }
				}
				AND = {
					is_year = 1844
					NOT = { is_year = 1845 }
				}
			}
		}
	}
	text = {
		localisation_key = string_eulsa
		trigger = {
			OR = {
				AND = {
					is_year = 1365
					NOT = { is_year = 1366 }
				}
				AND = {
					is_year = 1425
					NOT = { is_year = 1426 }
				}
				AND = {
					is_year = 1485
					NOT = { is_year = 1486 }
				}
				AND = {
					is_year = 1545
					NOT = { is_year = 1546 }
				}
				AND = {
					is_year = 1605
					NOT = { is_year = 1606 }
				}
				AND = {
					is_year = 1665
					NOT = { is_year = 1666 }
				}
				AND = {
					is_year = 1725
					NOT = { is_year = 1726 }
				}
				AND = {
					is_year = 1785
					NOT = { is_year = 1786 }
				}
				AND = {
					is_year = 1845
					NOT = { is_year = 1846 }
				}
			}
		}
	}
	text = {
		localisation_key = string_byeongo
		trigger = {
			OR = {
				AND = {
					is_year = 1366
					NOT = { is_year = 1367 }
				}
				AND = {
					is_year = 1426
					NOT = { is_year = 1427 }
				}
				AND = {
					is_year = 1486
					NOT = { is_year = 1487 }
				}
				AND = {
					is_year = 1546
					NOT = { is_year = 1547 }
				}
				AND = {
					is_year = 1606
					NOT = { is_year = 1607 }
				}
				AND = {
					is_year = 1666
					NOT = { is_year = 1667 }
				}
				AND = {
					is_year = 1726
					NOT = { is_year = 1727 }
				}
				AND = {
					is_year = 1786
					NOT = { is_year = 1787 }
				}
				AND = {
					is_year = 1846
					NOT = { is_year = 1847 }
				}
			}
		}
	}
	text = {
		localisation_key = string_jeongmi
		trigger = {
			OR = {
				AND = {
					is_year = 1367
					NOT = { is_year = 1368 }
				}
				AND = {
					is_year = 1427
					NOT = { is_year = 1428 }
				}
				AND = {
					is_year = 1487
					NOT = { is_year = 1488 }
				}
				AND = {
					is_year = 1547
					NOT = { is_year = 1548 }
				}
				AND = {
					is_year = 1607
					NOT = { is_year = 1608 }
				}
				AND = {
					is_year = 1667
					NOT = { is_year = 1668 }
				}
				AND = {
					is_year = 1727
					NOT = { is_year = 1728 }
				}
				AND = {
					is_year = 1787
					NOT = { is_year = 1788 }
				}
				AND = {
					is_year = 1847
					NOT = { is_year = 1848 }
				}
			}
		}
	}
	text = {
		localisation_key = string_musin
		trigger = {
			OR = {
				AND = {
					is_year = 1368
					NOT = { is_year = 1369 }
				}
				AND = {
					is_year = 1428
					NOT = { is_year = 1429 }
				}
				AND = {
					is_year = 1488
					NOT = { is_year = 1489 }
				}
				AND = {
					is_year = 1548
					NOT = { is_year = 1549 }
				}
				AND = {
					is_year = 1608
					NOT = { is_year = 1609 }
				}
				AND = {
					is_year = 1668
					NOT = { is_year = 1669 }
				}
				AND = {
					is_year = 1728
					NOT = { is_year = 1729 }
				}
				AND = {
					is_year = 1788
					NOT = { is_year = 1789 }
				}
				AND = {
					is_year = 1848
					NOT = { is_year = 1849 }
				}
			}
		}
	}
	text = {
		localisation_key = string_giyu
		trigger = {
			OR = {
				AND = {
					is_year = 1369
					NOT = { is_year = 1370 }
				}
				AND = {
					is_year = 1429
					NOT = { is_year = 1430 }
				}
				AND = {
					is_year = 1489
					NOT = { is_year = 1490 }
				}
				AND = {
					is_year = 1549
					NOT = { is_year = 1550 }
				}
				AND = {
					is_year = 1609
					NOT = { is_year = 1610 }
				}
				AND = {
					is_year = 1669
					NOT = { is_year = 1670 }
				}
				AND = {
					is_year = 1729
					NOT = { is_year = 1730 }
				}
				AND = {
					is_year = 1789
					NOT = { is_year = 1790 }
				}
				AND = {
					is_year = 1849
					NOT = { is_year = 1850 }
				}
			}
		}
	}
	text = {
		localisation_key = string_gyeongsul
		trigger = {
			OR = {
				AND = {
					is_year = 1370
					NOT = { is_year = 1371 }
				}
				AND = {
					is_year = 1430
					NOT = { is_year = 1431 }
				}
				AND = {
					is_year = 1490
					NOT = { is_year = 1491 }
				}
				AND = {
					is_year = 1550
					NOT = { is_year = 1551 }
				}
				AND = {
					is_year = 1610
					NOT = { is_year = 1611 }
				}
				AND = {
					is_year = 1670
					NOT = { is_year = 1671 }
				}
				AND = {
					is_year = 1730
					NOT = { is_year = 1731 }
				}
				AND = {
					is_year = 1790
					NOT = { is_year = 1791 }
				}
				AND = {
					is_year = 1850
					NOT = { is_year = 1851 }
				}
			}
		}
	}
	text = {
		localisation_key = string_sinhae
		trigger = {
			OR = {
				AND = {
					is_year = 1371
					NOT = { is_year = 1372 }
				}
				AND = {
					is_year = 1431
					NOT = { is_year = 1432 }
				}
				AND = {
					is_year = 1491
					NOT = { is_year = 1492 }
				}
				AND = {
					is_year = 1551
					NOT = { is_year = 1552 }
				}
				AND = {
					is_year = 1611
					NOT = { is_year = 1612 }
				}
				AND = {
					is_year = 1671
					NOT = { is_year = 1672 }
				}
				AND = {
					is_year = 1731
					NOT = { is_year = 1732 }
				}
				AND = {
					is_year = 1791
					NOT = { is_year = 1792 }
				}
				AND = {
					is_year = 1851
					NOT = { is_year = 1852 }
				}
			}
		}
	}
	text = {
		localisation_key = string_imja
		trigger = {
			OR = {
				AND = {
					is_year = 1372
					NOT = { is_year = 1373 }
				}
				AND = {
					is_year = 1432
					NOT = { is_year = 1433 }
				}
				AND = {
					is_year = 1492
					NOT = { is_year = 1493 }
				}
				AND = {
					is_year = 1552
					NOT = { is_year = 1553 }
				}
				AND = {
					is_year = 1612
					NOT = { is_year = 1613 }
				}
				AND = {
					is_year = 1672
					NOT = { is_year = 1673 }
				}
				AND = {
					is_year = 1732
					NOT = { is_year = 1733 }
				}
				AND = {
					is_year = 1792
					NOT = { is_year = 1793 }
				}
				AND = {
					is_year = 1852
					NOT = { is_year = 1853 }
				}
			}
		}
	}
	text = {
		localisation_key = string_gyechuk
		trigger = {
			OR = {
				AND = {
					is_year = 1373
					NOT = { is_year = 1374 }
				}
				AND = {
					is_year = 1433
					NOT = { is_year = 1434 }
				}
				AND = {
					is_year = 1493
					NOT = { is_year = 1494 }
				}
				AND = {
					is_year = 1553
					NOT = { is_year = 1554 }
				}
				AND = {
					is_year = 1613
					NOT = { is_year = 1614 }
				}
				AND = {
					is_year = 1673
					NOT = { is_year = 1674 }
				}
				AND = {
					is_year = 1733
					NOT = { is_year = 1734 }
				}
				AND = {
					is_year = 1793
					NOT = { is_year = 1794 }
				}
				AND = {
					is_year = 1853
					NOT = { is_year = 1854 }
				}
			}
		}
	}
	text = {
		localisation_key = string_gabin
		trigger = {
			OR = {
				AND = {
					is_year = 1374
					NOT = { is_year = 1375 }
				}
				AND = {
					is_year = 1434
					NOT = { is_year = 1435 }
				}
				AND = {
					is_year = 1494
					NOT = { is_year = 1495 }
				}
				AND = {
					is_year = 1554
					NOT = { is_year = 1555 }
				}
				AND = {
					is_year = 1614
					NOT = { is_year = 1615 }
				}
				AND = {
					is_year = 1674
					NOT = { is_year = 1675 }
				}
				AND = {
					is_year = 1734
					NOT = { is_year = 1735 }
				}
				AND = {
					is_year = 1794
					NOT = { is_year = 1795 }
				}
				AND = {
					is_year = 1854
					NOT = { is_year = 1855 }
				}
			}
		}
	}
	text = {
		localisation_key = string_eulmyo
		trigger = {
			OR = {
				AND = {
					is_year = 1375
					NOT = { is_year = 1376 }
				}
				AND = {
					is_year = 1435
					NOT = { is_year = 1436 }
				}
				AND = {
					is_year = 1495
					NOT = { is_year = 1496 }
				}
				AND = {
					is_year = 1555
					NOT = { is_year = 1556 }
				}
				AND = {
					is_year = 1615
					NOT = { is_year = 1616 }
				}
				AND = {
					is_year = 1675
					NOT = { is_year = 1676 }
				}
				AND = {
					is_year = 1735
					NOT = { is_year = 1736 }
				}
				AND = {
					is_year = 1795
					NOT = { is_year = 1796 }
				}
				AND = {
					is_year = 1855
					NOT = { is_year = 1856 }
				}
			}
		}
	}
	text = {
		localisation_key = string_byeongjin
		trigger = {
			OR = {
				AND = {
					is_year = 1376
					NOT = { is_year = 1377 }
				}
				AND = {
					is_year = 1436
					NOT = { is_year = 1437 }
				}
				AND = {
					is_year = 1496
					NOT = { is_year = 1497 }
				}
				AND = {
					is_year = 1556
					NOT = { is_year = 1557 }
				}
				AND = {
					is_year = 1616
					NOT = { is_year = 1617 }
				}
				AND = {
					is_year = 1676
					NOT = { is_year = 1677 }
				}
				AND = {
					is_year = 1736
					NOT = { is_year = 1737 }
				}
				AND = {
					is_year = 1796
					NOT = { is_year = 1797 }
				}
				is_year = 1856
			}
		}
	}
	text = {
		localisation_key = string_jeongsa
		trigger = {
			OR = {
				AND = {
					is_year = 1377
					NOT = { is_year = 1378 }
				}
				AND = {
					is_year = 1437
					NOT = { is_year = 1438 }
				}
				AND = {
					is_year = 1497
					NOT = { is_year = 1498 }
				}
				AND = {
					is_year = 1557
					NOT = { is_year = 1558 }
				}
				AND = {
					is_year = 1617
					NOT = { is_year = 1618 }
				}
				AND = {
					is_year = 1677
					NOT = { is_year = 1678 }
				}
				AND = {
					is_year = 1737
					NOT = { is_year = 1738 }
				}
				AND = {
					is_year = 1797
					NOT = { is_year = 1798 }
				}
			}
		}
	}
	text = {
		localisation_key = string_muo
		trigger = {
			OR = {
				AND = {
					is_year = 1378
					NOT = { is_year = 1379 }
				}
				AND = {
					is_year = 1438
					NOT = { is_year = 1439 }
				}
				AND = {
					is_year = 1498
					NOT = { is_year = 1499 }
				}
				AND = {
					is_year = 1558
					NOT = { is_year = 1559 }
				}
				AND = {
					is_year = 1618
					NOT = { is_year = 1619 }
				}
				AND = {
					is_year = 1678
					NOT = { is_year = 1679 }
				}
				AND = {
					is_year = 1738
					NOT = { is_year = 1739 }
				}
				AND = {
					is_year = 1798
					NOT = { is_year = 1799 }
				}
			}
		}
	}
	text = {
		localisation_key = string_gimi
		trigger = {
			OR = {
				AND = {
					is_year = 1379
					NOT = { is_year = 1380 }
				}
				AND = {
					is_year = 1439
					NOT = { is_year = 1440 }
				}
				AND = {
					is_year = 1499
					NOT = { is_year = 1500 }
				}
				AND = {
					is_year = 1559
					NOT = { is_year = 1560 }
				}
				AND = {
					is_year = 1619
					NOT = { is_year = 1620 }
				}
				AND = {
					is_year = 1679
					NOT = { is_year = 1680 }
				}
				AND = {
					is_year = 1739
					NOT = { is_year = 1740 }
				}
				AND = {
					is_year = 1799
					NOT = { is_year = 1800 }
				}
			}
		}
	}
	text = {
		localisation_key = string_gyeongsin
		trigger = {
			OR = {
				AND = {
					is_year = 1380
					NOT = { is_year = 1381 }
				}
				AND = {
					is_year = 1440
					NOT = { is_year = 1441 }
				}
				AND = {
					is_year = 1500
					NOT = { is_year = 1501 }
				}
				AND = {
					is_year = 1560
					NOT = { is_year = 1561 }
				}
				AND = {
					is_year = 1620
					NOT = { is_year = 1621 }
				}
				AND = {
					is_year = 1680
					NOT = { is_year = 1681 }
				}
				AND = {
					is_year = 1740
					NOT = { is_year = 1741 }
				}
				AND = {
					is_year = 1800
					NOT = { is_year = 1801 }
				}
			}
		}
	}
	text = {
		localisation_key = string_sinyu
		trigger = {
			OR = {
				AND = {
					is_year = 1381
					NOT = { is_year = 1382 }
				}
				AND = {
					is_year = 1441
					NOT = { is_year = 1442 }
				}
				AND = {
					is_year = 1501
					NOT = { is_year = 1502 }
				}
				AND = {
					is_year = 1561
					NOT = { is_year = 1562 }
				}
				AND = {
					is_year = 1621
					NOT = { is_year = 1622 }
				}
				AND = {
					is_year = 1681
					NOT = { is_year = 1682 }
				}
				AND = {
					is_year = 1741
					NOT = { is_year = 1742 }
				}
				AND = {
					is_year = 1801
					NOT = { is_year = 1802 }
				}
			}
		}
	}
	text = {
		localisation_key = string_imsul
		trigger = {
			OR = {
				AND = {
					is_year = 1382
					NOT = { is_year = 1383 }
				}
				AND = {
					is_year = 1442
					NOT = { is_year = 1443 }
				}
				AND = {
					is_year = 1502
					NOT = { is_year = 1503 }
				}
				AND = {
					is_year = 1562
					NOT = { is_year = 1563 }
				}
				AND = {
					is_year = 1622
					NOT = { is_year = 1623 }
				}
				AND = {
					is_year = 1682
					NOT = { is_year = 1683 }
				}
				AND = {
					is_year = 1742
					NOT = { is_year = 1743 }
				}
				AND = {
					is_year = 1802
					NOT = { is_year = 1803 }
				}
			}
		}
	}
	text = {
		localisation_key = string_gyehae
		trigger = {
			OR = {
				AND = {
					is_year = 1383
					NOT = { is_year = 1384 }
				}
				AND = {
					is_year = 1443
					NOT = { is_year = 1444 }
				}
				AND = {
					is_year = 1503
					NOT = { is_year = 1504 }
				}
				AND = {
					is_year = 1563
					NOT = { is_year = 1564 }
				}
				AND = {
					is_year = 1623
					NOT = { is_year = 1624 }
				}
				AND = {
					is_year = 1683
					NOT = { is_year = 1684 }
				}
				AND = {
					is_year = 1743
					NOT = { is_year = 1744 }
				}
				AND = {
					is_year = 1803
					NOT = { is_year = 1804 }
				}
			}
		}
	}
}

defined_text = {
	name = GetGreatPrefix
	
	text = {
		localisation_key = string_dae_korean
		trigger = {
			culture_group = korean
		}
	}
	text = {
		localisation_key = string_dai_japanese
		trigger = {
			OR = {
				culture_group = japanese
				culture_group = vietic
			}
		}
	}
	text = {
		localisation_key = string_da_chinese
		trigger = {
			NOT = { culture_group = korean_group }
			NOT = { culture_group = japanese }
			NOT = { culture_group = vietic }
		}
	}
}

defined_text = {
	name = GetDowagerTitle
	
	text = {
		localisation_key = string_wangtaihou
		trigger = {
			has_country_modifier = title_5
			culture_group = chinese_group
		}
	}
	text = {
		localisation_key = string_huangtaihou
		trigger = {
			has_country_modifier = title_6
			culture_group = chinese_group
		}
	}
	text = {
		localisation_key = string_wangtaehu
		trigger = {
			has_country_modifier = title_5
			culture_group = korean_group
		}
	}
	text = {
		localisation_key = string_hwangtaehu
		trigger = {
			has_country_modifier = title_6
			culture_group = korean_group
		}
	}
	text = {
		localisation_key = string_outaigou
		trigger = {
			has_country_modifier = title_5
			culture_group = japanese
		}
	}
	text = {
		localisation_key = string_koutaigou
		trigger = {
			has_country_modifier = title_6
			culture_group = japanese
		}
	}
	text = {
		localisation_key = string_vuongthaihau
		trigger = {
			has_country_modifier = title_5
			culture_group = vietic
		}
	}
	text = {
		localisation_key = string_hoangthaihau
		trigger = {
			has_country_modifier = title_6
			culture_group = vietic
		}
	}
	text = {
		localisation_key = string_queen_dowager
		trigger = {
			has_country_modifier = title_5
		}
	}
	text = {
		localisation_key = string_empress_dowager
		trigger = {
			has_country_modifier = title_6
		}
	}
}

defined_text = {
	name = GetRoyalImperial
	
	text = {
		localisation_key = string_royal
		trigger = {
			has_country_modifier = title_5
		}
	}
	text = {
		localisation_key = string_imperial
		trigger = {
			has_country_modifier = title_6
		}
	}
}