country_decisions = {
	
	patronize_jains = {
		potential = {
			religion = hinduism
			any_owned_province = { check_variable = { which = jain value = 2 } }
			NOT = { has_country_flag = religious_turmoil_happening }
			has_regency = no
			NOT = { has_country_flag = patronize_jains }
		}
		allow = {
			is_at_war = no
			OR = {
				advisor = theologian
				jain = 1
			}
		}
		effect = {
			set_country_flag = patronize_jains
			add_years_of_income = -0.16
			add_adm_power = -10
			if = {
				limit = {
					NOT = { any_owned_province = { religion = jain } }
					NOT = { any_owned_province = { check_variable = { which = jain value = 4 } } }
				}
				if = {
					limit = { theologian = 3 }
					random = { chance = 30 add_stability_1 = yes }
					add_legitimacy = 1.5
					add_prestige = 1.5
					add_dip_power = 6
				}
				if = {
					limit = {
						theologian = 2
						NOT = { theologian = 3 }
					}
					random = { chance = 20 add_stability_1 = yes }
					add_legitimacy = 1
					add_prestige = 1
					add_dip_power = 4
				}
				if = {
					limit = { NOT = { theologian = 2 } }
					random = { chance = 10 add_stability_1 = yes }
					add_legitimacy = 0.5
					add_prestige = 0.5
					add_dip_power = 2
				}
			}
			if = {
				limit = {
					NOT = { any_owned_province = { religion = jain } }
					any_owned_province = { check_variable = { which = jain value = 4 } }
					NOT = { any_owned_province = { check_variable = { which = jain value = 8 } } }
				}
				if = {
					limit = { theologian = 3 }
					random = { chance = 60 add_stability_1 = yes }
					add_legitimacy = 3
					add_prestige = 3
					add_dip_power = 12
				}
				if = {
					limit = {
						theologian = 2
						NOT = { theologian = 3 }
					}
					random = { chance = 40 add_stability_1 = yes }
					add_legitimacy = 2
					add_prestige = 2
					add_dip_power = 8
				}
				if = {
					limit = { NOT = { theologian = 2 } }
					random = { chance = 20 add_stability_1 = yes }
					add_legitimacy = 1
					add_prestige = 1
					add_dip_power = 4
				}
			}
			if = {
				limit = {
					any_owned_province = { religion = jain }
					NOT = { num_of_religion = { religion = jain value = 0.25 } }
				}
				if = {
					limit = { theologian = 3 }
					random_list = {
						80 = { add_stability_1 = yes }
						20 = { add_stability_2 = yes }
					}
					add_legitimacy = 6
					add_prestige = 6
					add_dip_power = 24
				}
				if = {
					limit = {
						theologian = 2
						NOT = { theologian = 3 }
					}
					random = { chance = 80 add_stability_1 = yes }
					add_legitimacy = 4
					add_prestige = 4
					add_dip_power = 16
				}
				if = {
					limit = { NOT = { theologian = 2 } }
					random = { chance = 40 add_stability_1 = yes }
					add_legitimacy = 2
					add_prestige = 2
					add_dip_power = 8
				}
			}
			if = {
				limit = { num_of_religion = { religion = jain value = 0.25 } }
				if = {
					limit = { theologian = 3 }
					random_list = {
						40 = { add_stability_3 = yes }
						60 = { add_stability_2 = yes }
					}
					add_legitimacy = 12
					add_prestige = 12
					add_dip_power = 48
				}
				if = {
					limit = {
						theologian = 2
						NOT = { theologian = 3 }
					}
					random_list = {
						60 = { add_stability_2 = yes }
						40 = { add_stability_1 = yes }
					}
					add_legitimacy = 8
					add_prestige = 8
					add_dip_power = 32
				}
				if = {
					limit = { NOT = { theologian = 2 } }
					random = { chance = 80 add_stability_1 = yes }
					add_legitimacy = 4
					add_prestige = 4
					add_dip_power = 16
				}
			}
			if = {
				limit = { patriarch_authority = 0.80 }
				if = {
					limit = { theologian = 3 }
					random = { chance = 15 add_country_modifier = { name = unhappy_church_powerful duration = 1000 } }
				}
				if = {
					limit = { theologian = 2 NOT = { theologian = 3 } }
					random = { chance = 30 add_country_modifier = { name = unhappy_church_powerful duration = 1000 } }
				}
				if = {
					limit = { NOT = { theologian = 2 } }
					random = { chance = 45 add_country_modifier = { name = unhappy_church_powerful duration = 1000 } }
				}
			}
			if = {
				limit = { patriarch_authority = 0.60 NOT = { patriarch_authority = 0.80 } }
				if = {
					limit = { theologian = 3 }
					random = { chance = 15 add_country_modifier = { name = unhappy_church_strong duration = 1000 } }
				}
				if = {
					limit = { theologian = 2 NOT = { theologian = 3 } }
					random = { chance = 30 add_country_modifier = { name = unhappy_church_strong duration = 1000 } }
				}
				if = {
					limit = { NOT = { theologian = 2 } }
					random = { chance = 45 add_country_modifier = { name = unhappy_church_strong duration = 1000 } }
				}
			}
			if = {
				limit = { patriarch_authority = 0.40 NOT = { patriarch_authority = 0.60 } }
				if = {
					limit = { theologian = 3 }
					random = { chance = 15 add_country_modifier = { name = unhappy_church_moderate duration = 1000 } }
				}
				if = {
					limit = { theologian = 2 NOT = { theologian = 3 } }
					random = { chance = 30 add_country_modifier = { name = unhappy_church_moderate duration = 1000 } }
				}
				if = {
					limit = { NOT = { theologian = 2 } }
					random = { chance = 45 add_country_modifier = { name = unhappy_church_moderate duration = 1000 } }
				}
			}
			if = {
				limit = { patriarch_authority = 0.20 NOT = { patriarch_authority = 0.40 } }
				if = {
					limit = { theologian = 3 }
					random = { chance = 15 add_country_modifier = { name = unhappy_church_weak duration = 1000 } }
				}
				if = {
					limit = { theologian = 2 NOT = { theologian = 3 } }
					random = { chance = 30 add_country_modifier = { name = unhappy_church_weak duration = 1000 } }
				}
				if = {
					limit = { NOT = { theologian = 2 } }
					random = { chance = 45 add_country_modifier = { name = unhappy_church_weak duration = 1000 } }
				}
			}
			if = {
				limit = { NOT = { patriarch_authority = 0.20 } }
				if = {
					limit = { theologian = 3 }
					random = { chance = 15 add_country_modifier = { name = unhappy_church_impotent duration = 1000 } }
				}
				if = {
					limit = { theologian = 2 NOT = { theologian = 3 } }
					random = { chance = 30 add_country_modifier = { name = unhappy_church_impotent duration = 1000 } }
				}
				if = {
					limit = { NOT = { theologian = 2 } }
					random = { chance = 45 add_country_modifier = { name = unhappy_church_impotent duration = 1000 } }
				}
			}
			hidden_effect = {
				every_owned_province = {
					limit = { check_variable = { which = jain value = 2 } }
					random = {
						chance = 20
						change_variable = { which = jain value = 2 }
						change_variable = { which = province_religion value = -2 }
					}
				}
				every_owned_province = {
					limit = { religion = hinduism }
					random = {
						chance = 20
						change_variable = { which = jain value = 2 }
						change_variable = { which = province_religion value = -2 }
					}
				}
			}
		}
		ai_will_do = {
			factor = 1
			modifier = {
				stability = 1
				factor = 0
			}
			modifier = {
				patriarch_authority = 0.80
				NOT = { theologian = 3 }
				factor = 0
			}
			modifier = {
				patriarch_authority = 0.60
				NOT = { theologian = 2 }
				factor = 0
			}
		}
	}
	special_marriage_act = { #1872
		potential = {
			religion = hinduism
			NOT = { has_country_flag = hindu_mixed_marriage_allowed }
		}
		allow = {
			tech_1700_trigger = yes
			has_country_modifier = caste_system_relaxed
		}
		effect = {
			add_adm_power = -25
			dg_reduce_legitimacy = yes
			set_country_flag = hindu_mixed_marriage_allowed
		}
		ai_will_do = { factor = 1 }
	}
	
}

