# CHK _ Champassak

government = despotic_monarchy government_rank = 1
mercantilism = 0.0
technology_group = chinese
primary_culture = laotian
religion = buddhism
capital = 608	# Champassak

1000.1.1 = {
	add_country_modifier = { name = title_5 duration = -1 }
	set_country_flag = title_5
	#set_variable = { which = "centralization_decentralization" value = 3 }
	add_absolutism = -100
	add_absolutism = 20
}

# Champassak (splinter-kingdom of Lan Xang)
1700.1.1 = {
	monarch = {
		name = "Nan Rat"
		dynasty = "Champasak"
		adm = 3
		dip = 3
		mil = 2
	}
}

1700.1.1 = {
	heir = {
		name = "Nokasat"
		monarch_name = "Nokasat"
		dynasty = "Champasak"
		birth_date = 1490.1.1
		death_date = 1738.1.1
		claim = 95
		adm = 2
		dip = 2
		mil = 2
		female = yes
	}
}

1713.1.1 = {
	monarch = {
		name = "Nokasat"
		dynasty = "Champasak"
		adm = 3
		dip = 3
		mil = 2
		female = yes
	}
}

1713.1.1 = {
	heir = {
		name = "Saya Kumane"
		monarch_name = "Saya Kumane"
		dynasty = "Champasak"
		birth_date = 1702.1.1
		death_date = 1791.1.1
		claim = 95
		adm = 3
		dip = 2
		mil = 2
	}
}

1738.1.1 = {
	monarch = {
		name = "Saya Kumane"
		dynasty = "Champasak"
		adm = 3
		dip = 2
		mil = 2
	}
}

1738.1.1 = {
	heir = {
		name = "Xiang Keo"
		monarch_name = "Xiang Keo"
		dynasty = "Champasak"
		birth_date = 1735.1.1
		death_date = 1791.7.1
		claim = 95
		adm = 0
		dip = 0
		mil = 0
	}
}

1791.1.1 = {
	monarch = {
		name = "Xiang Keo"
		dynasty = "Champasak"
		adm = 0
		dip = 0
		mil = 0
	}
}

1791.1.1 = {
	heir = {
		name = "Fay Na"
		monarch_name = "Fay Na"
		dynasty = "Champasak"
		birth_date = 1778.1.1
		death_date = 1811.7.1
		claim = 95
		adm = 2
		dip = 1
		mil = 1
	}
}

1791.7.1 = {
	monarch = {
		name = "Fay Na"
		dynasty = "Champasak"
		adm = 2
		dip = 1
		mil = 1
	}
}

1791.7.1 = {
	heir = {
		name = "No Muong"
		monarch_name = "Fay Na"
		dynasty = "Champasak"
		birth_date = 1782.1.1
		death_date = 1811.7.1
		claim = 95
		adm = 1
		dip = 1
		mil = 1
	}
}

1811.1.1 = {
	monarch = {
		name = "No Muong"
		dynasty = "Champasak"
		adm = 0
		dip = 0
		mil = 0
	}
}

1811.1.1 = {
	heir = {
		name = "Cha Nou"
		monarch_name = "Cha Nou"
		dynasty = "Champasak"
		birth_date = 1786.1.1
		death_date = 1813.1.1
		claim = 95
		adm = 1
		dip = 0
		mil = 0
	}
}

1811.7.1 = {
	monarch = {
		name = "Cha Nou"
		dynasty = "Champasak"
		adm = 1
		dip = 0
		mil = 0
	}
}

1811.7.1 = {
	heir = {
		name = "Ma Noi"
		monarch_name = "Ma Noi"
		dynasty = "Champasak"
		birth_date = 1788.1.1
		death_date = 1819.1.1
		claim = 95
		adm = 1
		dip = 0
		mil = 0
	}
}

1813.1.1 = {
	monarch = {
		name = "Ma Noi"
		dynasty = "Champasak"
		adm = 1
		dip = 0
		mil = 0
	}
}

1813.1.1 = {
	heir = {
		name = "Rajabud Yo"
		monarch_name = "Rajabud Yo"
		dynasty = "Champasak"
		birth_date = 1793.1.1
		death_date = 1827.1.1
		claim = 95
		adm = 1
		dip = 1
		mil = 1
	}
}
